
./octez-client --protocol ProtoALphaALphaALphaALphaALphaALphaALphaALphaDdp3zK --mode mockup --no-base-dir-warnings typecheck script tests_python/contracts_alpha/opcodes/int.tz --details
Well typed
Gas remaining: 1039996.837 units remaining
{ parameter nat ;
  storage (option int) ;
  code { CAR
         /* [ nat ] */ ;
         INT
         /* [ int ] */ ;
         SOME
         /* [ option int ] */ ;
         NIL operation
         /* [ list operation : option int ] */ ;
         PAIR
         /* [ pair (list operation) (option int) ] */ } }
