
./octez-client --protocol ProtoALphaALphaALphaALphaALphaALphaALphaALphaDdp3zK --mode mockup --no-base-dir-warnings typecheck script tests_python/contracts_alpha/opcodes/map_iter.tz --details
Well typed
Gas remaining: 1039986.949 units remaining
{ parameter (map (int :k) (int :e)) ;
  storage (pair (int :k) (int :e)) ;
  code { CAR
         /* [ map int int ] */ ;
         PUSH @acc_e (int :e) 0
         /* [ int : map int int ] */ ;
         PUSH @acc_k (int :k) 0
         /* [ int : int : map int int ] */ ;
         PAIR % %r
         /* [ pair int int : map int int ] */ ;
         SWAP
         /* [ map int int : pair int int ] */ ;
         ITER { DIP { DUP
                      /* [ pair int int : pair int int ] */ ;
                      CAR
                      /* [ int : pair int int ] */ ;
                      DIP { CDR /* [ int ] */ }
                      /* [ int : int ] */ }
                /* [ pair int int : int : int ] */ ;
                DUP
                /* [ pair int int : pair int int : int : int ] */ ;
                DIP { CAR /* [ int : int : int ] */ ; ADD /* [ int : int ] */ }
                /* [ pair int int : int : int ] */ ;
                SWAP
                /* [ int : pair int int : int ] */ ;
                DIP { CDR /* [ int : int ] */ ; ADD /* [ int ] */ }
                /* [ int : int ] */ ;
                PAIR % %r
                /* [ pair int int ] */ }
         /* [ pair int int ] */ ;
         NIL operation
         /* [ list operation : pair int int ] */ ;
         PAIR
         /* [ pair (list operation) int int ] */ } }
