
./octez-client --protocol ProtoALphaALphaALphaALphaALphaALphaALphaALphaDdp3zK --mode mockup --no-base-dir-warnings typecheck script tests_python/contracts_alpha/attic/data_publisher.tz --details
Well typed
Gas remaining: 1039975.804 units remaining
{ parameter (pair signature (pair string nat)) ;
  storage (pair (pair key nat) string) ;
  code { DUP
         /* [ pair (pair signature string nat) (pair key nat) string
            : pair (pair signature string nat) (pair key nat) string ] */ ;
         CAR
         /* [ pair signature string nat
            : pair (pair signature string nat) (pair key nat) string ] */ ;
         DIP { CDR
               /* [ pair (pair key nat) string ] */ ;
               DUP
               /* [ pair (pair key nat) string : pair (pair key nat) string ] */ }
         /* [ pair signature string nat : pair (pair key nat) string
            : pair (pair key nat) string ] */ ;
         SWAP
         /* [ pair (pair key nat) string : pair signature string nat
            : pair (pair key nat) string ] */ ;
         DIP { DUP
               /* [ pair signature string nat : pair signature string nat
                  : pair (pair key nat) string ] */ }
         /* [ pair (pair key nat) string : pair signature string nat
            : pair signature string nat : pair (pair key nat) string ] */ ;
         CAAR ;
         DIP { DUP
               /* [ pair signature string nat : pair signature string nat
                  : pair signature string nat : pair (pair key nat) string ] */ ;
               CAR
               /* [ signature : pair signature string nat : pair signature string nat
                  : pair (pair key nat) string ] */ ;
               DIP { CDR
                     /* [ pair string nat : pair signature string nat : pair (pair key nat) string ] */ ;
                     PACK
                     /* [ bytes : pair signature string nat : pair (pair key nat) string ] */ ;
                     BLAKE2B
                     /* [ bytes : pair signature string nat : pair (pair key nat) string ] */ }
               /* [ signature : bytes : pair signature string nat
                  : pair (pair key nat) string ] */ }
         /* [ key : signature : bytes : pair signature string nat
            : pair (pair key nat) string ] */ ;
         CHECK_SIGNATURE
         /* [ bool : pair signature string nat : pair (pair key nat) string ] */ ;
         IF { CDR
              /* [ pair string nat : pair (pair key nat) string ] */ ;
              DUP
              /* [ pair string nat : pair string nat : pair (pair key nat) string ] */ ;
              DIP { CAR
                    /* [ string : pair (pair key nat) string ] */ ;
                    DIP { CAAR }
                    /* [ string : key ] */ }
              /* [ pair string nat : string : key ] */ ;
              CDR
              /* [ nat : string : key ] */ ;
              PUSH nat 1
              /* [ nat : nat : string : key ] */ ;
              ADD
              /* [ nat : string : key ] */ ;
              DIP { SWAP /* [ key : string ] */ }
              /* [ nat : key : string ] */ ;
              SWAP
              /* [ key : nat : string ] */ ;
              PAIR
              /* [ pair key nat : string ] */ ;
              PAIR
              /* [ pair (pair key nat) string ] */ ;
              NIL operation
              /* [ list operation : pair (pair key nat) string ] */ ;
              PAIR
              /* [ pair (list operation) (pair key nat) string ] */ }
            { FAIL } } }
