
./octez-client --protocol ProtoALphaALphaALphaALphaALphaALphaALphaALphaDdp3zK --mode mockup --no-base-dir-warnings typecheck script tests_python/contracts_alpha/opcodes/list_id.tz --details
Well typed
Gas remaining: 1039997.680 units remaining
{ parameter (list string) ;
  storage (list string) ;
  code { CAR
         /* [ list string ] */ ;
         NIL operation
         /* [ list operation : list string ] */ ;
         PAIR
         /* [ pair (list operation) (list string) ] */ } }
