
./octez-client --protocol ProtoALphaALphaALphaALphaALphaALphaALphaALphaDdp3zK --mode mockup --no-base-dir-warnings typecheck script tests_python/contracts_alpha/opcodes/self_with_entrypoint.tz --details
Well typed
Gas remaining: 1039970.861 units remaining
{ parameter (or (or (nat %A) (bool %B)) (or %maybe_C (unit %Z) (string %C))) ;
  storage unit ;
  code { DROP
         /* [] */ ;
         SELF %A
         /* [ contract nat ] */ ;
         PACK @Apacked
         /* [ bytes ] */ ;
         SELF %default
         /* [ contract (or (or nat bool) (or unit string)) : bytes ] */ ;
         PACK @defpacked
         /* [ bytes : bytes ] */ ;
         DUP
         /* [ bytes : bytes : bytes ] */ ;
         DIP { SWAP /* [ bytes : bytes ] */ }
         /* [ bytes : bytes : bytes ] */ ;
         ASSERT_CMPNEQ ;
         SELF
         /* [ contract (or (or nat bool) (or unit string)) : bytes ] */ ;
         PACK @selfpacked
         /* [ bytes : bytes ] */ ;
         ASSERT_CMPEQ ;
         SELF %A
         /* [ contract nat ] */ ;
         CAST (contract nat)
         /* [ contract nat ] */ ;
         DROP
         /* [] */ ;
         SELF %B
         /* [ contract bool ] */ ;
         CAST (contract bool)
         /* [ contract bool ] */ ;
         DROP
         /* [] */ ;
         SELF %maybe_C
         /* [ contract (or unit string) ] */ ;
         CAST (contract (or unit string))
         /* [ contract (or unit string) ] */ ;
         DROP
         /* [] */ ;
         SELF %Z
         /* [ contract unit ] */ ;
         CAST (contract unit)
         /* [ contract unit ] */ ;
         DROP
         /* [] */ ;
         SELF
         /* [ contract (or (or nat bool) (or unit string)) ] */ ;
         CAST (contract (or (or (nat %A) (bool %B)) (or %maybe_C (unit %Z) (string %C))))
         /* [ contract (or (or nat bool) (or unit string)) ] */ ;
         DROP
         /* [] */ ;
         SELF %default
         /* [ contract (or (or nat bool) (or unit string)) ] */ ;
         CAST (contract (or (or (nat %A) (bool %B)) (or %maybe_C (unit %Z) (string %C))))
         /* [ contract (or (or nat bool) (or unit string)) ] */ ;
         DROP
         /* [] */ ;
         UNIT
         /* [ unit ] */ ;
         NIL operation
         /* [ list operation : unit ] */ ;
         PAIR
         /* [ pair (list operation) unit ] */ } }
