
./octez-client --protocol ProtoALphaALphaALphaALphaALphaALphaALphaALphaDdp3zK --mode mockup --no-base-dir-warnings typecheck script tests_python/contracts_alpha/attic/reentrancy.tz --details
Well typed
Gas remaining: 1039983.352 units remaining
{ parameter unit ;
  storage (pair address address) ;
  code { CDR
         /* [ pair address address ] */ ;
         DUP
         /* [ pair address address : pair address address ] */ ;
         CAR
         /* [ address : pair address address ] */ ;
         CONTRACT unit
         /* [ option (contract unit) : pair address address ] */ ;
         ASSERT_SOME ;
         PUSH mutez 5000000
         /* [ mutez : contract unit : pair address address ] */ ;
         UNIT
         /* [ unit : mutez : contract unit : pair address address ] */ ;
         TRANSFER_TOKENS
         /* [ operation : pair address address ] */ ;
         DIP { DUP
               /* [ pair address address : pair address address ] */ ;
               CDR
               /* [ address : pair address address ] */ ;
               CONTRACT unit
               /* [ option (contract unit) : pair address address ] */ ;
               ASSERT_SOME ;
               PUSH mutez 5000000
               /* [ mutez : contract unit : pair address address ] */ ;
               UNIT
               /* [ unit : mutez : contract unit : pair address address ] */ ;
               TRANSFER_TOKENS
               /* [ operation : pair address address ] */ }
         /* [ operation : operation : pair address address ] */ ;
         DIIP { NIL operation /* [ list operation : pair address address ] */ }
         /* [ operation : operation : list operation : pair address address ] */ ;
         DIP { CONS /* [ list operation : pair address address ] */ }
         /* [ operation : list operation : pair address address ] */ ;
         CONS
         /* [ list operation : pair address address ] */ ;
         PAIR
         /* [ pair (list operation) address address ] */ } }
