
./octez-client --protocol PtLimaPtLMwfNinJi9rCfDPWea8dFgTZ1MeJ9f1m2SRic6ayiwW --mode mockup --no-base-dir-warnings typecheck script tests_python/contracts_015/macros/min.tz --details
Well typed
Gas remaining: 1039991.951 units remaining
{ parameter (pair int int) ;
  storage int ;
  code { CAR
         /* [ pair int int ] */ ;
         DUP
         /* [ pair int int : pair int int ] */ ;
         DUP
         /* [ pair int int : pair int int : pair int int ] */ ;
         CAR
         /* [ int : pair int int : pair int int ] */ ;
         DIP { CDR /* [ int : pair int int ] */ }
         /* [ int : int : pair int int ] */ ;
         CMPLT ;
         IF { CAR /* [ int ] */ } { CDR /* [ int ] */ } ;
         NIL operation
         /* [ list operation : int ] */ ;
         PAIR
         /* [ pair (list operation) int ] */ } }
