
./octez-client --protocol PtLimaPtLMwfNinJi9rCfDPWea8dFgTZ1MeJ9f1m2SRic6ayiwW --mode mockup --no-base-dir-warnings typecheck script tests_python/contracts_015/opcodes/uncomb.tz --details
Well typed
Gas remaining: 1039993.181 units remaining
{ parameter (pair nat nat nat) ;
  storage nat ;
  code { CAR
         /* [ pair nat nat nat ] */ ;
         UNPAIR 3
         /* [ nat : nat : nat ] */ ;
         PUSH nat 100
         /* [ nat : nat : nat : nat ] */ ;
         MUL
         /* [ nat : nat : nat ] */ ;
         SWAP
         /* [ nat : nat : nat ] */ ;
         PUSH nat 10
         /* [ nat : nat : nat : nat ] */ ;
         MUL
         /* [ nat : nat : nat ] */ ;
         ADD
         /* [ nat : nat ] */ ;
         ADD
         /* [ nat ] */ ;
         NIL operation
         /* [ list operation : nat ] */ ;
         PAIR
         /* [ pair (list operation) nat ] */ } }
