
./octez-client --protocol PtLimaPtLMwfNinJi9rCfDPWea8dFgTZ1MeJ9f1m2SRic6ayiwW --mode mockup --no-base-dir-warnings typecheck script tests_python/contracts_015/opcodes/not_binary.tz --details
Well typed
Gas remaining: 1039995.545 units remaining
{ parameter (or int nat) ;
  storage (option int) ;
  code { CAR
         /* [ or int nat ] */ ;
         IF_LEFT { NOT /* [ int ] */ } { NOT /* [ int ] */ } ;
         SOME
         /* [ option int ] */ ;
         NIL operation
         /* [ list operation : option int ] */ ;
         PAIR
         /* [ pair (list operation) (option int) ] */ } }
