
./octez-client --protocol PtLimaPtLMwfNinJi9rCfDPWea8dFgTZ1MeJ9f1m2SRic6ayiwW --mode mockup --no-base-dir-warnings typecheck script tests_python/contracts_015/macros/assert_lt.tz --details
Well typed
Gas remaining: 1039991.843 units remaining
{ parameter (pair int int) ;
  storage unit ;
  code { CAR
         /* [ pair int int ] */ ;
         DUP
         /* [ pair int int : pair int int ] */ ;
         CAR
         /* [ int : pair int int ] */ ;
         DIP { CDR /* [ int ] */ }
         /* [ int : int ] */ ;
         COMPARE
         /* [ int ] */ ;
         ASSERT_LT ;
         UNIT
         /* [ unit ] */ ;
         NIL operation
         /* [ list operation : unit ] */ ;
         PAIR
         /* [ pair (list operation) unit ] */ } }
