
./octez-client --protocol PtLimaPtLMwfNinJi9rCfDPWea8dFgTZ1MeJ9f1m2SRic6ayiwW --mode mockup --no-base-dir-warnings typecheck script tests_python/contracts_015/opcodes/proxy.tz --details
Well typed
Gas remaining: 1039995.281 units remaining
{ parameter (contract unit) ;
  storage unit ;
  code { UNPAIR
         /* [ contract unit : unit ] */ ;
         AMOUNT
         /* [ mutez : contract unit : unit ] */ ;
         UNIT
         /* [ unit : mutez : contract unit : unit ] */ ;
         TRANSFER_TOKENS
         /* [ operation : unit ] */ ;
         DIP { NIL operation /* [ list operation : unit ] */ }
         /* [ operation : list operation : unit ] */ ;
         CONS
         /* [ list operation : unit ] */ ;
         PAIR
         /* [ pair (list operation) unit ] */ } }
