
./octez-client --protocol PtLimaPtLMwfNinJi9rCfDPWea8dFgTZ1MeJ9f1m2SRic6ayiwW --mode mockup --no-base-dir-warnings typecheck script tests_python/contracts_015/opcodes/fact.tz --details
Well typed
Gas remaining: 1039989.390 units remaining
{ parameter nat ;
  storage nat ;
  code { CAR
         /* [ nat ] */ ;
         LAMBDA_REC
           nat
           nat
           { PUSH int -1
             /* [ int : nat : lambda nat nat ] */ ;
             ADD
             /* [ int : lambda nat nat ] */ ;
             ISNAT
             /* [ option nat : lambda nat nat ] */ ;
             IF_NONE
               { DROP /* [] */ ; PUSH nat 1 /* [ nat ] */ }
               { DUP
                 /* [ nat : nat : lambda nat nat ] */ ;
                 DIP { EXEC /* [ nat ] */ }
                 /* [ nat : nat ] */ ;
                 PUSH nat 1
                 /* [ nat : nat : nat ] */ ;
                 ADD
                 /* [ nat : nat ] */ ;
                 MUL
                 /* [ nat ] */ } }
         /* [ lambda nat nat : nat ] */ ;
         SWAP
         /* [ nat : lambda nat nat ] */ ;
         EXEC
         /* [ nat ] */ ;
         NIL operation
         /* [ list operation : nat ] */ ;
         PAIR
         /* [ pair (list operation) nat ] */ } }
