
./octez-client --protocol PtLimaPtLMwfNinJi9rCfDPWea8dFgTZ1MeJ9f1m2SRic6ayiwW --mode mockup --no-base-dir-warnings typecheck script tests_python/contracts_015/opcodes/emit.tz --details
Well typed
Gas remaining: 1039991.050 units remaining
{ parameter unit ;
  storage unit ;
  code { DROP
         /* [] */ ;
         UNIT
         /* [ unit ] */ ;
         PUSH nat 10
         /* [ nat : unit ] */ ;
         LEFT string
         /* [ or nat string : unit ] */ ;
         EMIT %event
         /* [ operation : unit ] */ ;
         PUSH string "lorem ipsum"
         /* [ string : operation : unit ] */ ;
         RIGHT nat
         /* [ or nat string : operation : unit ] */ ;
         EMIT %event (or (nat %number) (string %words))
         /* [ operation : operation : unit ] */ ;
         NIL operation
         /* [ list operation : operation : operation : unit ] */ ;
         SWAP
         /* [ operation : list operation : operation : unit ] */ ;
         CONS
         /* [ list operation : operation : unit ] */ ;
         SWAP
         /* [ operation : list operation : unit ] */ ;
         CONS
         /* [ list operation : unit ] */ ;
         PAIR
         /* [ pair (list operation) unit ] */ } }
