
./octez-client --protocol PtLimaPtLMwfNinJi9rCfDPWea8dFgTZ1MeJ9f1m2SRic6ayiwW --mode mockup --no-base-dir-warnings typecheck script tests_python/contracts_015/attic/reduce_map.tz --details
Well typed
Gas remaining: 1039978.486 units remaining
{ parameter (pair (lambda int int) (list int)) ;
  storage (list int) ;
  code { DIP { NIL int /* [ list int ] */ }
         /* [ pair (pair (lambda int int) (list int)) (list int) : list int ] */ ;
         CAR
         /* [ pair (lambda int int) (list int) : list int ] */ ;
         DUP
         /* [ pair (lambda int int) (list int) : pair (lambda int int) (list int)
            : list int ] */ ;
         DIP { CAR
               /* [ lambda int int : list int ] */ ;
               PAIR
               /* [ pair (lambda int int) (list int) ] */ }
         /* [ pair (lambda int int) (list int) : pair (lambda int int) (list int) ] */ ;
         CDR
         /* [ list int : pair (lambda int int) (list int) ] */ ;
         ITER { PAIR
                /* [ pair int (lambda int int) (list int) ] */ ;
                DUP
                /* [ pair int (lambda int int) (list int)
                   : pair int (lambda int int) (list int) ] */ ;
                CDAR ;
                DIP { DUP
                      /* [ pair int (lambda int int) (list int)
                         : pair int (lambda int int) (list int) ] */ ;
                      DIP { CDAR }
                      /* [ pair int (lambda int int) (list int) : lambda int int ] */ ;
                      DUP
                      /* [ pair int (lambda int int) (list int) : pair int (lambda int int) (list int)
                         : lambda int int ] */ ;
                      CAR
                      /* [ int : pair int (lambda int int) (list int) : lambda int int ] */ ;
                      DIP { CDDR ; SWAP /* [ lambda int int : list int ] */ }
                      /* [ int : lambda int int : list int ] */ ;
                      EXEC
                      /* [ int : list int ] */ ;
                      CONS
                      /* [ list int ] */ }
                /* [ lambda int int : list int ] */ ;
                PAIR
                /* [ pair (lambda int int) (list int) ] */ }
         /* [ pair (lambda int int) (list int) ] */ ;
         CDR
         /* [ list int ] */ ;
         DIP { NIL int /* [ list int ] */ }
         /* [ list int : list int ] */ ;
         ITER { CONS /* [ list int ] */ }
         /* [ list int ] */ ;
         NIL operation
         /* [ list operation : list int ] */ ;
         PAIR
         /* [ pair (list operation) (list int) ] */ } }
