
./octez-client --protocol PtMumbaiiFFEGbew1rRjzSPyzRbA51Tm3RVZL5suHPxSZYDhCEc --mode mockup --no-base-dir-warnings typecheck script tests_python/contracts_016/attic/add1_list.tz --details
Well typed
Gas remaining: 1039995.973 units remaining
{ parameter (list int) ;
  storage (list int) ;
  code { CAR
         /* [ list int ] */ ;
         MAP { PUSH int 1 /* [ int : int ] */ ; ADD /* [ int ] */ }
         /* [ list int ] */ ;
         NIL operation
         /* [ list operation : list int ] */ ;
         PAIR
         /* [ pair (list operation) (list int) ] */ } }
