
./octez-client --protocol PtMumbaiiFFEGbew1rRjzSPyzRbA51Tm3RVZL5suHPxSZYDhCEc --mode mockup --no-base-dir-warnings typecheck script tests_python/contracts_016/opcodes/big_map_mem_nat.tz --details
Well typed
Gas remaining: 1039993.494 units remaining
{ parameter nat ;
  storage (pair (big_map nat nat) (option bool)) ;
  code { UNPAIR
         /* [ nat : pair (big_map nat nat) (option bool) ] */ ;
         DIP { CAR /* [ big_map nat nat ] */ ; DUP /* [ big_map nat nat : big_map nat nat ] */ }
         /* [ nat : big_map nat nat : big_map nat nat ] */ ;
         MEM
         /* [ bool : big_map nat nat ] */ ;
         SOME
         /* [ option bool : big_map nat nat ] */ ;
         SWAP
         /* [ big_map nat nat : option bool ] */ ;
         PAIR
         /* [ pair (big_map nat nat) (option bool) ] */ ;
         NIL operation
         /* [ list operation : pair (big_map nat nat) (option bool) ] */ ;
         PAIR
         /* [ pair (list operation) (big_map nat nat) (option bool) ] */ } }
