
./octez-client --protocol PtMumbaiiFFEGbew1rRjzSPyzRbA51Tm3RVZL5suHPxSZYDhCEc --mode mockup --no-base-dir-warnings typecheck script tests_python/contracts_016/opcodes/concat_hello_bytes.tz --details
Well typed
Gas remaining: 1039995.973 units remaining
{ parameter (list bytes) ;
  storage (list bytes) ;
  code { CAR
         /* [ list bytes ] */ ;
         MAP { PUSH bytes 0xff /* [ bytes : bytes ] */ ; CONCAT /* [ bytes ] */ }
         /* [ list bytes ] */ ;
         NIL operation
         /* [ list operation : list bytes ] */ ;
         PAIR
         /* [ pair (list operation) (list bytes) ] */ } }
