
./octez-client --protocol PtMumbaiiFFEGbew1rRjzSPyzRbA51Tm3RVZL5suHPxSZYDhCEc --mode mockup --no-base-dir-warnings typecheck script tests_python/contracts_016/opcodes/add_bls12_381_fr.tz --details
Well typed
Gas remaining: 1039996.129 units remaining
{ parameter (pair bls12_381_fr bls12_381_fr) ;
  storage (option bls12_381_fr) ;
  code { CAR
         /* [ pair bls12_381_fr bls12_381_fr ] */ ;
         UNPAIR
         /* [ bls12_381_fr : bls12_381_fr ] */ ;
         ADD
         /* [ bls12_381_fr ] */ ;
         SOME
         /* [ option bls12_381_fr ] */ ;
         NIL operation
         /* [ list operation : option bls12_381_fr ] */ ;
         PAIR
         /* [ pair (list operation) (option bls12_381_fr) ] */ } }
