
./octez-client --protocol PtMumbaiiFFEGbew1rRjzSPyzRbA51Tm3RVZL5suHPxSZYDhCEc --mode mockup --no-base-dir-warnings typecheck script tests_python/contracts_016/entrypoints/rooted_target.tz --details
Well typed
Gas remaining: 1039990.140 units remaining
{ storage (pair string nat) ;
  parameter (or %root unit (or %default string nat)) ;
  code { UNPAIR
         /* [ or unit (or string nat) : pair string nat ] */ ;
         IF_LEFT
           { DROP
             /* [ pair string nat ] */ ;
             NIL operation
             /* [ list operation : pair string nat ] */ ;
             PAIR
             /* [ pair (list operation) string nat ] */ }
           { IF_LEFT
               { DIP { UNPAIR /* [ string : nat ] */ ; DROP /* [ nat ] */ } /* [ string : nat ] */ }
               { DUG 1
                 /* [ pair string nat : nat ] */ ;
                 UNPAIR
                 /* [ string : nat : nat ] */ ;
                 DIP { DROP /* [ nat ] */ }
                 /* [ string : nat ] */ } ;
             PAIR
             /* [ pair string nat ] */ ;
             NIL operation
             /* [ list operation : pair string nat ] */ ;
             PAIR
             /* [ pair (list operation) string nat ] */ } } }
