
./octez-client --protocol PtMumbaiiFFEGbew1rRjzSPyzRbA51Tm3RVZL5suHPxSZYDhCEc --mode mockup --no-base-dir-warnings typecheck script tests_python/contracts_016/opcodes/ediv.tz --details
Well typed
Gas remaining: 1039981.718 units remaining
{ parameter (pair int int) ;
  storage
    (pair (option (pair int nat))
          (option (pair int nat))
          (option (pair int nat))
          (option (pair nat nat))) ;
  code { CAR
         /* [ pair int int ] */ ;
         DUP
         /* [ pair int int : pair int int ] */ ;
         UNPAIR
         /* [ int : int : pair int int ] */ ;
         ABS
         /* [ nat : int : pair int int ] */ ;
         DIP { ABS /* [ nat : pair int int ] */ }
         /* [ nat : nat : pair int int ] */ ;
         EDIV
         /* [ option (pair nat nat) : pair int int ] */ ;
         SWAP
         /* [ pair int int : option (pair nat nat) ] */ ;
         DUP
         /* [ pair int int : pair int int : option (pair nat nat) ] */ ;
         UNPAIR
         /* [ int : int : pair int int : option (pair nat nat) ] */ ;
         ABS
         /* [ nat : int : pair int int : option (pair nat nat) ] */ ;
         EDIV
         /* [ option (pair int nat) : pair int int : option (pair nat nat) ] */ ;
         SWAP
         /* [ pair int int : option (pair int nat) : option (pair nat nat) ] */ ;
         DUP
         /* [ pair int int : pair int int : option (pair int nat)
            : option (pair nat nat) ] */ ;
         UNPAIR
         /* [ int : int : pair int int : option (pair int nat) : option (pair nat nat) ] */ ;
         DIP { ABS
               /* [ nat : pair int int : option (pair int nat) : option (pair nat nat) ] */ }
         /* [ int : nat : pair int int : option (pair int nat) : option (pair nat nat) ] */ ;
         EDIV
         /* [ option (pair int nat) : pair int int : option (pair int nat)
            : option (pair nat nat) ] */ ;
         SWAP
         /* [ pair int int : option (pair int nat) : option (pair int nat)
            : option (pair nat nat) ] */ ;
         UNPAIR
         /* [ int : int : option (pair int nat) : option (pair int nat)
            : option (pair nat nat) ] */ ;
         EDIV
         /* [ option (pair int nat) : option (pair int nat) : option (pair int nat)
            : option (pair nat nat) ] */ ;
         PAPAPAIR ;
         NIL operation
         /* [ list operation
            : pair (option (pair int nat))
                 (option (pair int nat))
                 (option (pair int nat))
                 (option (pair nat nat)) ] */ ;
         PAIR
         /* [ pair (list operation)
                 (option (pair int nat))
                 (option (pair int nat))
                 (option (pair int nat))
                 (option (pair nat nat)) ] */ } }
