
./octez-client --protocol ProtoALphaALphaALphaALphaALphaALphaALphaALphaDdp3zK --mode mockup --no-base-dir-warnings run script tests_python/contracts_alpha/opcodes/chain_id_store.tz on storage None and input Unit --level 1 --trace-stack
storage
  (Some "NetXynUjJNZm7wi")
emitted operations
  
big_map diff
  
trace
  - location: 8 (just consumed gas: 5.053)
    [ (Pair Unit None) ]
  - location: 8 (just consumed gas: 0.010)
    [  ]
  - location: 9 (just consumed gas: 0.015)
    [ "NetXynUjJNZm7wi" ]
  - location: 10 (just consumed gas: 0.010)
    [ (Some "NetXynUjJNZm7wi") ]
  - location: 11 (just consumed gas: 0.010)
    [ {}
      (Some "NetXynUjJNZm7wi") ]
  - location: 13 (just consumed gas: 0.010)
    [ (Pair {} (Some "NetXynUjJNZm7wi")) ]

