
./octez-client --protocol ProtoALphaALphaALphaALphaALphaALphaALphaALphaDdp3zK --mode mockup --no-base-dir-warnings run script tests_python/contracts_alpha/opcodes/diff_timestamps.tz on storage 111 and input '(Pair "1970-01-01T00:03:20Z" "1970-01-01T00:00:00Z")' --level 1 --trace-stack
storage
  200
emitted operations
  
big_map diff
  
trace
  - location: 9 (just consumed gas: 7.653)
    [ (Pair (Pair "1970-01-01T00:03:20Z" "1970-01-01T00:00:00Z") 111) ]
  - location: 9 (just consumed gas: 0.010)
    [ (Pair "1970-01-01T00:03:20Z" "1970-01-01T00:00:00Z") ]
  - location: 10 (just consumed gas: 0.010)
    [ (Pair "1970-01-01T00:03:20Z" "1970-01-01T00:00:00Z")
      (Pair "1970-01-01T00:03:20Z" "1970-01-01T00:00:00Z") ]
  - location: 11 (just consumed gas: 0.010)
    [ "1970-01-01T00:03:20Z"
      (Pair "1970-01-01T00:03:20Z" "1970-01-01T00:00:00Z") ]
  - location: 12 (just consumed gas: 0)
    [ (Pair "1970-01-01T00:03:20Z" "1970-01-01T00:00:00Z") ]
  - location: 14 (just consumed gas: 0.010)
    [ "1970-01-01T00:00:00Z" ]
  - location: 12 (just consumed gas: 0.025)
    [ "1970-01-01T00:03:20Z"
      "1970-01-01T00:00:00Z" ]
  - location: 15 (just consumed gas: 0.035)
    [ 200 ]
  - location: 16 (just consumed gas: 0.010)
    [ {}
      200 ]
  - location: 18 (just consumed gas: 0.010)
    [ (Pair {} 200) ]

