
./octez-client --protocol ProtoALphaALphaALphaALphaALphaALphaALphaALphaDdp3zK --mode mockup --no-base-dir-warnings run script tests_python/contracts_alpha/opcodes/set_iter.tz on storage 111 and input '{}' --level 1 --trace-stack
storage
  0
emitted operations
  
big_map diff
  
trace
  - location: 8 (just consumed gas: 6.702)
    [ (Pair {} 111) ]
  - location: 8 (just consumed gas: 0.010)
    [ {} ]
  - location: 9 (just consumed gas: 0.010)
    [ 0
      {} ]
  - location: 12 (just consumed gas: 0.010)
    [ {}
      0 ]
  - location: 13 (just consumed gas: 0)
    [ 0 ]
  - location: 16 (just consumed gas: 0.010)
    [ {}
      0 ]
  - location: 18 (just consumed gas: 0.010)
    [ (Pair {} 0) ]

