
./octez-client --protocol ProtoALphaALphaALphaALphaALphaALphaALphaALphaDdp3zK --mode mockup --no-base-dir-warnings run script tests_python/contracts_alpha/opcodes/set_id.tz on storage '{}' and input '{ "asdf" ; "bcde" }' --level 1 --trace-stack
storage
  { "asdf" ; "bcde" }
emitted operations
  
big_map diff
  
trace
  - location: 9 (just consumed gas: 4.702)
    [ (Pair { "asdf" ; "bcde" } {}) ]
  - location: 9 (just consumed gas: 0.010)
    [ { "asdf" ; "bcde" } ]
  - location: 10 (just consumed gas: 0.010)
    [ {}
      { "asdf" ; "bcde" } ]
  - location: 12 (just consumed gas: 0.010)
    [ (Pair {} { "asdf" ; "bcde" }) ]

