
./octez-client --protocol ProtoALphaALphaALphaALphaALphaALphaALphaALphaDdp3zK --mode mockup --no-base-dir-warnings run script tests_python/contracts_alpha/opcodes/add_delta_timestamp.tz on storage None and input '(Pair 0 "1970-01-01T00:00:00Z")' --level 1 --trace-stack
storage
  (Some "1970-01-01T00:00:00Z")
emitted operations
  
big_map diff
  
trace
  - location: 10 (just consumed gas: 8.340)
    [ (Pair (Pair 0 "1970-01-01T00:00:00Z") None) ]
  - location: 10 (just consumed gas: 0.010)
    [ (Pair 0 "1970-01-01T00:00:00Z") ]
  - location: 11 (just consumed gas: 0.010)
    [ (Pair 0 "1970-01-01T00:00:00Z")
      (Pair 0 "1970-01-01T00:00:00Z") ]
  - location: 12 (just consumed gas: 0.010)
    [ 0
      (Pair 0 "1970-01-01T00:00:00Z") ]
  - location: 13 (just consumed gas: 0)
    [ (Pair 0 "1970-01-01T00:00:00Z") ]
  - location: 15 (just consumed gas: 0.010)
    [ "1970-01-01T00:00:00Z" ]
  - location: 13 (just consumed gas: 0.025)
    [ 0
      "1970-01-01T00:00:00Z" ]
  - location: 16 (just consumed gas: 0.035)
    [ "1970-01-01T00:00:00Z" ]
  - location: 17 (just consumed gas: 0.010)
    [ (Some "1970-01-01T00:00:00Z") ]
  - location: 18 (just consumed gas: 0.010)
    [ {}
      (Some "1970-01-01T00:00:00Z") ]
  - location: 20 (just consumed gas: 0.010)
    [ (Pair {} (Some "1970-01-01T00:00:00Z")) ]

