
./octez-client --protocol ProtoALphaALphaALphaALphaALphaALphaALphaALphaDdp3zK --mode mockup --no-base-dir-warnings run script tests_python/contracts_alpha/opcodes/none.tz on storage 'Some 10' and input Unit --level 1 --trace-stack
storage
  None
emitted operations
  
big_map diff
  
trace
  - location: 8 (just consumed gas: 4.773)
    [ (Pair Unit (Some 10)) ]
  - location: 8 (just consumed gas: 0.010)
    [  ]
  - location: 9 (just consumed gas: 0.010)
    [ None ]
  - location: 11 (just consumed gas: 0.010)
    [ {}
      None ]
  - location: 13 (just consumed gas: 0.010)
    [ (Pair {} None) ]

