
./octez-client --protocol ProtoALphaALphaALphaALphaALphaALphaALphaALphaDdp3zK --mode mockup --no-base-dir-warnings run script tests_python/contracts_alpha/opcodes/str_id.tz on storage None and input '"abcd"' --level 1 --trace-stack
storage
  (Some "abcd")
emitted operations
  
big_map diff
  
trace
  - location: 8 (just consumed gas: 4.554)
    [ (Pair "abcd" None) ]
  - location: 8 (just consumed gas: 0.010)
    [ "abcd" ]
  - location: 9 (just consumed gas: 0.010)
    [ (Some "abcd") ]
  - location: 10 (just consumed gas: 0.010)
    [ {}
      (Some "abcd") ]
  - location: 12 (just consumed gas: 0.010)
    [ (Pair {} (Some "abcd")) ]

