
./octez-client --protocol ProtoALphaALphaALphaALphaALphaALphaALphaALphaDdp3zK --mode mockup --no-base-dir-warnings run script tests_python/contracts_alpha/opcodes/add_timestamp_delta.tz on storage None and input '(Pair 100 100)' --level 1 --trace-stack
storage
  (Some "1970-01-01T00:03:20Z")
emitted operations
  
big_map diff
  
trace
  - location: 10 (just consumed gas: 8.232)
    [ (Pair (Pair "1970-01-01T00:01:40Z" 100) None) ]
  - location: 10 (just consumed gas: 0.010)
    [ (Pair "1970-01-01T00:01:40Z" 100) ]
  - location: 11 (just consumed gas: 0.010)
    [ (Pair "1970-01-01T00:01:40Z" 100)
      (Pair "1970-01-01T00:01:40Z" 100) ]
  - location: 12 (just consumed gas: 0.010)
    [ "1970-01-01T00:01:40Z"
      (Pair "1970-01-01T00:01:40Z" 100) ]
  - location: 13 (just consumed gas: 0)
    [ (Pair "1970-01-01T00:01:40Z" 100) ]
  - location: 15 (just consumed gas: 0.010)
    [ 100 ]
  - location: 13 (just consumed gas: 0.025)
    [ "1970-01-01T00:01:40Z"
      100 ]
  - location: 16 (just consumed gas: 0.035)
    [ "1970-01-01T00:03:20Z" ]
  - location: 17 (just consumed gas: 0.010)
    [ (Some "1970-01-01T00:03:20Z") ]
  - location: 18 (just consumed gas: 0.010)
    [ {}
      (Some "1970-01-01T00:03:20Z") ]
  - location: 20 (just consumed gas: 0.010)
    [ (Pair {} (Some "1970-01-01T00:03:20Z")) ]

