
./octez-client --protocol ProtoALphaALphaALphaALphaALphaALphaALphaALphaDdp3zK --mode mockup --no-base-dir-warnings run script tests_python/contracts_alpha/opcodes/if_some.tz on storage '"?"' and input '(Some "hello")' --level 1 --trace-stack
storage
  "hello"
emitted operations
  
big_map diff
  
trace
  - location: 8 (just consumed gas: 6.419)
    [ (Pair (Some "hello") "?") ]
  - location: 8 (just consumed gas: 0.010)
    [ (Some "hello") ]
  - location: 10 (just consumed gas: 0)
    [ "hello" ]
  - location: 10 (just consumed gas: 0.015)
    [ "hello" ]
  - location: 16 (just consumed gas: 0.010)
    [ {}
      "hello" ]
  - location: 18 (just consumed gas: 0.010)
    [ (Pair {} "hello") ]

