
./octez-client --protocol PtLimaPtLMwfNinJi9rCfDPWea8dFgTZ1MeJ9f1m2SRic6ayiwW --mode mockup --no-base-dir-warnings run script tests_python/contracts_015/opcodes/get_and_update_map.tz on storage '(Pair (Some 5) { Elt "hello" 4 })' and input '"hi"' --level 1 --trace-stack
storage
  (Pair None { Elt "hello" 4 ; Elt "hi" 5 })
emitted operations
  
big_map diff
  
trace
  - location: 13 (remaining gas: 1039991.597 units remaining)
    [ (Pair "hi" (Some 5) { Elt "hello" 4 }) ]
  - location: 13 (remaining gas: 1039991.587 units remaining)
    [ "hi"
      (Pair (Some 5) { Elt "hello" 4 }) ]
  - location: 14 (remaining gas: 1039991.587 units remaining)
    [ (Pair (Some 5) { Elt "hello" 4 }) ]
  - location: 16 (remaining gas: 1039991.577 units remaining)
    [ (Some 5)
      { Elt "hello" 4 } ]
  - location: 14 (remaining gas: 1039991.552 units remaining)
    [ "hi"
      (Some 5)
      { Elt "hello" 4 } ]
  - location: 17 (remaining gas: 1039991.460 units remaining)
    [ None
      { Elt "hello" 4 ; Elt "hi" 5 } ]
  - location: 18 (remaining gas: 1039991.450 units remaining)
    [ (Pair None { Elt "hello" 4 ; Elt "hi" 5 }) ]
  - location: 19 (remaining gas: 1039991.440 units remaining)
    [ {}
      (Pair None { Elt "hello" 4 ; Elt "hi" 5 }) ]
  - location: 21 (remaining gas: 1039991.430 units remaining)
    [ (Pair {} None { Elt "hello" 4 ; Elt "hi" 5 }) ]

