
./octez-client --protocol PtLimaPtLMwfNinJi9rCfDPWea8dFgTZ1MeJ9f1m2SRic6ayiwW --mode mockup --no-base-dir-warnings run script tests_python/contracts_015/opcodes/bls12_381_z_fr_int.tz on storage 0x5b0ecd0fa853810e356f1eb79721e80b30510fcc3a455f4fc02fdd9a90c5401f and input 33644916630334844239120348434626468649534186770809802792596996408934105684394 --level 1 --trace-stack
storage
  0x2ef123703093cbbbd124e15f2054fa5781ed0b8d092ec3c6e5d76b4ca918a221
emitted operations
  
big_map diff
  
trace
  - location: 7 (remaining gas: 1039995.060 units remaining)
    [ (Pair 33644916630334844239120348434626468649534186770809802792596996408934105684394
            0x5b0ecd0fa853810e356f1eb79721e80b30510fcc3a455f4fc02fdd9a90c5401f) ]
  - location: 7 (remaining gas: 1039995.050 units remaining)
    [ 33644916630334844239120348434626468649534186770809802792596996408934105684394
      0x5b0ecd0fa853810e356f1eb79721e80b30510fcc3a455f4fc02fdd9a90c5401f ]
  - location: 8 (remaining gas: 1039995.040 units remaining)
    [ 0x5b0ecd0fa853810e356f1eb79721e80b30510fcc3a455f4fc02fdd9a90c5401f
      33644916630334844239120348434626468649534186770809802792596996408934105684394 ]
  - location: 9 (remaining gas: 1039994.741 units remaining)
    [ 0x2ef123703093cbbbd124e15f2054fa5781ed0b8d092ec3c6e5d76b4ca918a221 ]
  - location: 10 (remaining gas: 1039994.731 units remaining)
    [ {}
      0x2ef123703093cbbbd124e15f2054fa5781ed0b8d092ec3c6e5d76b4ca918a221 ]
  - location: 12 (remaining gas: 1039994.721 units remaining)
    [ (Pair {} 0x2ef123703093cbbbd124e15f2054fa5781ed0b8d092ec3c6e5d76b4ca918a221) ]

