
./octez-client --protocol PtLimaPtLMwfNinJi9rCfDPWea8dFgTZ1MeJ9f1m2SRic6ayiwW --mode mockup --no-base-dir-warnings run script tests_python/contracts_015/opcodes/hash_string.tz on storage 0x00 and input '"abcdefg"' --level 1 --trace-stack
storage
  0x46fdbcb4ea4eadad5615cdaa17d67f783e01e21149ce2b27de497600b4cd8f4e
emitted operations
  
big_map diff
  
trace
  - location: 7 (remaining gas: 1039995.051 units remaining)
    [ (Pair "abcdefg" 0x00) ]
  - location: 7 (remaining gas: 1039995.041 units remaining)
    [ "abcdefg" ]
  - location: 8 (remaining gas: 1039994.755 units remaining)
    [ 0x05010000000761626364656667 ]
  - location: 9 (remaining gas: 1039994.311 units remaining)
    [ 0x46fdbcb4ea4eadad5615cdaa17d67f783e01e21149ce2b27de497600b4cd8f4e ]
  - location: 10 (remaining gas: 1039994.301 units remaining)
    [ {}
      0x46fdbcb4ea4eadad5615cdaa17d67f783e01e21149ce2b27de497600b4cd8f4e ]
  - location: 12 (remaining gas: 1039994.291 units remaining)
    [ (Pair {} 0x46fdbcb4ea4eadad5615cdaa17d67f783e01e21149ce2b27de497600b4cd8f4e) ]

