
./octez-client --protocol PtLimaPtLMwfNinJi9rCfDPWea8dFgTZ1MeJ9f1m2SRic6ayiwW --mode mockup --no-base-dir-warnings run script tests_python/contracts_015/opcodes/not_binary.tz on storage None and input '(Right 0)' --level 1 --trace-stack
storage
  (Some -1)
emitted operations
  
big_map diff
  
trace
  - location: 10 (remaining gas: 1039993.035 units remaining)
    [ (Pair (Right 0) None) ]
  - location: 10 (remaining gas: 1039993.025 units remaining)
    [ (Right 0) ]
  - location: 11 (remaining gas: 1039993.025 units remaining)
    [ 0 ]
  - location: 15 (remaining gas: 1039993 units remaining)
    [ -1 ]
  - location: 11 (remaining gas: 1039992.985 units remaining)
    [ -1 ]
  - location: 16 (remaining gas: 1039992.975 units remaining)
    [ (Some -1) ]
  - location: 17 (remaining gas: 1039992.965 units remaining)
    [ {}
      (Some -1) ]
  - location: 19 (remaining gas: 1039992.955 units remaining)
    [ (Pair {} (Some -1)) ]

