
./octez-client --protocol PtLimaPtLMwfNinJi9rCfDPWea8dFgTZ1MeJ9f1m2SRic6ayiwW --mode mockup --no-base-dir-warnings run script tests_python/contracts_015/opcodes/list_concat.tz on storage '"abc"' and input '{}' --level 1 --trace-stack
storage
  "abc"
emitted operations
  
big_map diff
  
trace
  - location: 8 (remaining gas: 1039994.395 units remaining)
    [ (Pair {} "abc") ]
  - location: 8 (remaining gas: 1039994.385 units remaining)
    [ {}
      "abc" ]
  - location: 9 (remaining gas: 1039994.375 units remaining)
    [ "abc"
      {} ]
  - location: 10 (remaining gas: 1039994.365 units remaining)
    [ { "abc" } ]
  - location: 11 (remaining gas: 1039994.254 units remaining)
    [ "abc" ]
  - location: 12 (remaining gas: 1039994.244 units remaining)
    [ {}
      "abc" ]
  - location: 14 (remaining gas: 1039994.234 units remaining)
    [ (Pair {} "abc") ]

