
./octez-client --protocol PtLimaPtLMwfNinJi9rCfDPWea8dFgTZ1MeJ9f1m2SRic6ayiwW --mode mockup --no-base-dir-warnings run script tests_python/contracts_015/opcodes/not_binary.tz on storage None and input '(Left 8)' --level 1 --trace-stack
storage
  (Some -9)
emitted operations
  
big_map diff
  
trace
  - location: 10 (remaining gas: 1039993.035 units remaining)
    [ (Pair (Left 8) None) ]
  - location: 10 (remaining gas: 1039993.025 units remaining)
    [ (Left 8) ]
  - location: 11 (remaining gas: 1039993.025 units remaining)
    [ 8 ]
  - location: 13 (remaining gas: 1039993 units remaining)
    [ -9 ]
  - location: 11 (remaining gas: 1039992.985 units remaining)
    [ -9 ]
  - location: 16 (remaining gas: 1039992.975 units remaining)
    [ (Some -9) ]
  - location: 17 (remaining gas: 1039992.965 units remaining)
    [ {}
      (Some -9) ]
  - location: 19 (remaining gas: 1039992.955 units remaining)
    [ (Pair {} (Some -9)) ]

