
./octez-client --protocol PtLimaPtLMwfNinJi9rCfDPWea8dFgTZ1MeJ9f1m2SRic6ayiwW --mode mockup --no-base-dir-warnings run script tests_python/contracts_015/opcodes/left_right.tz on storage '(Left "X")' and input '(Left True)' --level 1 --trace-stack
storage
  (Right True)
emitted operations
  
big_map diff
  
trace
  - location: 11 (remaining gas: 1039992.756 units remaining)
    [ (Pair (Left True) (Left "X")) ]
  - location: 11 (remaining gas: 1039992.746 units remaining)
    [ (Left True) ]
  - location: 12 (remaining gas: 1039992.746 units remaining)
    [ True ]
  - location: 14 (remaining gas: 1039992.736 units remaining)
    [ (Right True) ]
  - location: 12 (remaining gas: 1039992.721 units remaining)
    [ (Right True) ]
  - location: 19 (remaining gas: 1039992.711 units remaining)
    [ {}
      (Right True) ]
  - location: 21 (remaining gas: 1039992.701 units remaining)
    [ (Pair {} (Right True)) ]

