
./octez-client --protocol PtLimaPtLMwfNinJi9rCfDPWea8dFgTZ1MeJ9f1m2SRic6ayiwW --mode mockup --no-base-dir-warnings run script tests_python/contracts_015/opcodes/reverse.tz on storage '{""}' and input '{}' --level 1 --trace-stack
storage
  {}
emitted operations
  
big_map diff
  
trace
  - location: 9 (remaining gas: 1039993.044 units remaining)
    [ (Pair {} { "" }) ]
  - location: 9 (remaining gas: 1039993.034 units remaining)
    [ {} ]
  - location: 10 (remaining gas: 1039993.024 units remaining)
    [ {}
      {} ]
  - location: 12 (remaining gas: 1039993.014 units remaining)
    [ {}
      {} ]
  - location: 13 (remaining gas: 1039993.014 units remaining)
    [ {} ]
  - location: 16 (remaining gas: 1039993.004 units remaining)
    [ {}
      {} ]
  - location: 18 (remaining gas: 1039992.994 units remaining)
    [ (Pair {} {}) ]

