
./octez-client --protocol PtLimaPtLMwfNinJi9rCfDPWea8dFgTZ1MeJ9f1m2SRic6ayiwW --mode mockup --no-base-dir-warnings run script tests_python/contracts_015/opcodes/comb.tz on storage '(Pair 0 0 0)' and input Unit --level 1 --trace-stack
storage
  (Pair 1 2 3)
emitted operations
  
big_map diff
  
trace
  - location: 10 (remaining gas: 1039991.779 units remaining)
    [ (Pair Unit 0 0 0) ]
  - location: 10 (remaining gas: 1039991.769 units remaining)
    [  ]
  - location: 11 (remaining gas: 1039991.759 units remaining)
    [ 3 ]
  - location: 14 (remaining gas: 1039991.749 units remaining)
    [ 2
      3 ]
  - location: 17 (remaining gas: 1039991.739 units remaining)
    [ 1
      2
      3 ]
  - location: 20 (remaining gas: 1039991.729 units remaining)
    [ {}
      1
      2
      3 ]
  - location: 22 (remaining gas: 1039991.715 units remaining)
    [ (Pair {} 1 2 3) ]

