
./octez-client --protocol PtLimaPtLMwfNinJi9rCfDPWea8dFgTZ1MeJ9f1m2SRic6ayiwW --mode mockup --no-base-dir-warnings run script tests_python/contracts_015/opcodes/and_binary.tz on storage Unit and input Unit --level 1 --trace-stack
storage
  Unit
emitted operations
  
big_map diff
  
trace
  - location: 7 (remaining gas: 1039963.751 units remaining)
    [ (Pair Unit Unit) ]
  - location: 7 (remaining gas: 1039963.741 units remaining)
    [  ]
  - location: 8 (remaining gas: 1039963.731 units remaining)
    [ 5 ]
  - location: 11 (remaining gas: 1039963.721 units remaining)
    [ 6
      5 ]
  - location: 14 (remaining gas: 1039963.686 units remaining)
    [ 4 ]
  - location: 15 (remaining gas: 1039963.676 units remaining)
    [ 4
      4 ]
  - location: 20 (remaining gas: 1039963.641 units remaining)
    [ 0 ]
  - location: 21 (remaining gas: 1039963.631 units remaining)
    [ True ]
  - location: 22 (remaining gas: 1039963.631 units remaining)
    [  ]
  - location: 22 (remaining gas: 1039963.616 units remaining)
    [  ]
  - location: 28 (remaining gas: 1039963.606 units remaining)
    [ 6 ]
  - location: 31 (remaining gas: 1039963.596 units remaining)
    [ 5
      6 ]
  - location: 34 (remaining gas: 1039963.561 units remaining)
    [ 4 ]
  - location: 35 (remaining gas: 1039963.551 units remaining)
    [ 4
      4 ]
  - location: 40 (remaining gas: 1039963.516 units remaining)
    [ 0 ]
  - location: 41 (remaining gas: 1039963.506 units remaining)
    [ True ]
  - location: 42 (remaining gas: 1039963.506 units remaining)
    [  ]
  - location: 42 (remaining gas: 1039963.491 units remaining)
    [  ]
  - location: 48 (remaining gas: 1039963.481 units remaining)
    [ 12 ]
  - location: 51 (remaining gas: 1039963.471 units remaining)
    [ -1
      12 ]
  - location: 54 (remaining gas: 1039963.436 units remaining)
    [ 12 ]
  - location: 55 (remaining gas: 1039963.426 units remaining)
    [ 12
      12 ]
  - location: 60 (remaining gas: 1039963.391 units remaining)
    [ 0 ]
  - location: 61 (remaining gas: 1039963.381 units remaining)
    [ True ]
  - location: 62 (remaining gas: 1039963.381 units remaining)
    [  ]
  - location: 62 (remaining gas: 1039963.366 units remaining)
    [  ]
  - location: 68 (remaining gas: 1039963.356 units remaining)
    [ 12 ]
  - location: 71 (remaining gas: 1039963.346 units remaining)
    [ -5
      12 ]
  - location: 74 (remaining gas: 1039963.311 units remaining)
    [ 8 ]
  - location: 75 (remaining gas: 1039963.301 units remaining)
    [ 8
      8 ]
  - location: 80 (remaining gas: 1039963.266 units remaining)
    [ 0 ]
  - location: 81 (remaining gas: 1039963.256 units remaining)
    [ True ]
  - location: 82 (remaining gas: 1039963.256 units remaining)
    [  ]
  - location: 82 (remaining gas: 1039963.241 units remaining)
    [  ]
  - location: 88 (remaining gas: 1039963.231 units remaining)
    [ Unit ]
  - location: 89 (remaining gas: 1039963.221 units remaining)
    [ {}
      Unit ]
  - location: 91 (remaining gas: 1039963.211 units remaining)
    [ (Pair {} Unit) ]

