
./octez-client --protocol PtLimaPtLMwfNinJi9rCfDPWea8dFgTZ1MeJ9f1m2SRic6ayiwW --mode mockup --no-base-dir-warnings run script tests_python/contracts_015/opcodes/shifts.tz on storage None and input '(Right (Pair 15 2))' --level 1 --trace-stack
storage
  (Some 3)
emitted operations
  
big_map diff
  
trace
  - location: 14 (remaining gas: 1039991.189 units remaining)
    [ (Pair (Right (Pair 15 2)) None) ]
  - location: 14 (remaining gas: 1039991.179 units remaining)
    [ (Right (Pair 15 2)) ]
  - location: 15 (remaining gas: 1039991.179 units remaining)
    [ (Pair 15 2) ]
  - location: 20 (remaining gas: 1039991.169 units remaining)
    [ 15
      2 ]
  - location: 21 (remaining gas: 1039991.169 units remaining)
    [ 3 ]
  - location: 15 (remaining gas: 1039991.154 units remaining)
    [ 3 ]
  - location: 22 (remaining gas: 1039991.144 units remaining)
    [ (Some 3) ]
  - location: 23 (remaining gas: 1039991.134 units remaining)
    [ {}
      (Some 3) ]
  - location: 25 (remaining gas: 1039991.124 units remaining)
    [ (Pair {} (Some 3)) ]

