
./octez-client --protocol PtLimaPtLMwfNinJi9rCfDPWea8dFgTZ1MeJ9f1m2SRic6ayiwW --mode mockup --no-base-dir-warnings run script tests_python/contracts_015/opcodes/and.tz on storage None and input '(Pair False False)' --level 1 --trace-stack
storage
  (Some False)
emitted operations
  
big_map diff
  
trace
  - location: 10 (remaining gas: 1039992.428 units remaining)
    [ (Pair (Pair False False) None) ]
  - location: 10 (remaining gas: 1039992.418 units remaining)
    [ (Pair False False) ]
  - location: 11 (remaining gas: 1039992.408 units remaining)
    [ False
      False ]
  - location: 12 (remaining gas: 1039992.398 units remaining)
    [ False ]
  - location: 13 (remaining gas: 1039992.388 units remaining)
    [ (Some False) ]
  - location: 14 (remaining gas: 1039992.378 units remaining)
    [ {}
      (Some False) ]
  - location: 16 (remaining gas: 1039992.368 units remaining)
    [ (Pair {} (Some False)) ]
  - location: 17 (remaining gas: 1039992.358 units remaining)
    [ {}
      (Some False) ]
  - location: 18 (remaining gas: 1039992.348 units remaining)
    [ (Pair {} (Some False)) ]

