
./octez-client --protocol PtLimaPtLMwfNinJi9rCfDPWea8dFgTZ1MeJ9f1m2SRic6ayiwW --mode mockup --no-base-dir-warnings run script tests_python/contracts_015/opcodes/abs.tz on storage Unit and input 12039123919239192312931 --level 1 --trace-stack
storage
  Unit
emitted operations
  
big_map diff
  
trace
  - location: 7 (remaining gas: 1039989.789 units remaining)
    [ (Pair 12039123919239192312931 Unit) ]
  - location: 7 (remaining gas: 1039989.779 units remaining)
    [ 12039123919239192312931 ]
  - location: 8 (remaining gas: 1039989.769 units remaining)
    [ 12039123919239192312931
      12039123919239192312931 ]
  - location: 9 (remaining gas: 1039989.739 units remaining)
    [ -12039123919239192312931
      12039123919239192312931 ]
  - location: 10 (remaining gas: 1039989.714 units remaining)
    [ 12039123919239192312931
      12039123919239192312931 ]
  - location: 11 (remaining gas: 1039989.679 units remaining)
    [ 0 ]
  - location: 13 (remaining gas: 1039989.669 units remaining)
    [ True ]
  - location: 14 (remaining gas: 1039989.669 units remaining)
    [  ]
  - location: 14 (remaining gas: 1039989.654 units remaining)
    [  ]
  - location: 20 (remaining gas: 1039989.644 units remaining)
    [ Unit ]
  - location: 21 (remaining gas: 1039989.634 units remaining)
    [ {}
      Unit ]
  - location: 23 (remaining gas: 1039989.624 units remaining)
    [ (Pair {} Unit) ]

