
./octez-client --protocol PtLimaPtLMwfNinJi9rCfDPWea8dFgTZ1MeJ9f1m2SRic6ayiwW --mode mockup --no-base-dir-warnings run script tests_python/contracts_015/opcodes/packunpack_rev_cty.tz on storage Unit and input '(Pair "edpkuBknW28nW72KG6RoHtYW7p12T6GKc7nAbwYX5m8Wd9sDVC9yav" (Pair Unit (Pair "edsigthTzJ8X7MPmNeEwybRAvdxS1pupqcM5Mk4uCuyZAe7uEk68YpuGDeViW8wSXMrCi5CwoNgqs8V2w8ayB5dMJzrYCHhD8C7" (Pair (Some "edsigthTzJ8X7MPmNeEwybRAvdxS1pupqcM5Mk4uCuyZAe7uEk68YpuGDeViW8wSXMrCi5CwoNgqs8V2w8ayB5dMJzrYCHhD8C7") (Pair { Unit }  (Pair { True }  (Pair (Pair 19 10) (Pair (Left "tz1cxcwwnzENRdhe2Kb8ZdTrdNy4bFNyScx5") (Pair { Elt 0 "foo" ; Elt 1 "bar" }  { PACK } )))))))))' --level 1 --trace-stack
storage
  Unit
emitted operations
  
big_map diff
  
trace
  - location: 28 (remaining gas: 1039497.693 units remaining)
    [ (Pair (Pair "edpkuBknW28nW72KG6RoHtYW7p12T6GKc7nAbwYX5m8Wd9sDVC9yav"
                  Unit
                  "edsigthTzJ8X7MPmNeEwybRAvdxS1pupqcM5Mk4uCuyZAe7uEk68YpuGDeViW8wSXMrCi5CwoNgqs8V2w8ayB5dMJzrYCHhD8C7"
                  (Some "edsigthTzJ8X7MPmNeEwybRAvdxS1pupqcM5Mk4uCuyZAe7uEk68YpuGDeViW8wSXMrCi5CwoNgqs8V2w8ayB5dMJzrYCHhD8C7")
                  { Unit }
                  { True }
                  (Pair 19 10)
                  (Left "tz1cxcwwnzENRdhe2Kb8ZdTrdNy4bFNyScx5")
                  { Elt 0 "foo" ; Elt 1 "bar" }
                  { PACK })
            Unit) ]
  - location: 28 (remaining gas: 1039497.683 units remaining)
    [ (Pair "edpkuBknW28nW72KG6RoHtYW7p12T6GKc7nAbwYX5m8Wd9sDVC9yav"
            Unit
            "edsigthTzJ8X7MPmNeEwybRAvdxS1pupqcM5Mk4uCuyZAe7uEk68YpuGDeViW8wSXMrCi5CwoNgqs8V2w8ayB5dMJzrYCHhD8C7"
            (Some "edsigthTzJ8X7MPmNeEwybRAvdxS1pupqcM5Mk4uCuyZAe7uEk68YpuGDeViW8wSXMrCi5CwoNgqs8V2w8ayB5dMJzrYCHhD8C7")
            { Unit }
            { True }
            (Pair 19 10)
            (Left "tz1cxcwwnzENRdhe2Kb8ZdTrdNy4bFNyScx5")
            { Elt 0 "foo" ; Elt 1 "bar" }
            { PACK }) ]
  - location: 29 (remaining gas: 1039497.673 units remaining)
    [ (Pair "edpkuBknW28nW72KG6RoHtYW7p12T6GKc7nAbwYX5m8Wd9sDVC9yav"
            Unit
            "edsigthTzJ8X7MPmNeEwybRAvdxS1pupqcM5Mk4uCuyZAe7uEk68YpuGDeViW8wSXMrCi5CwoNgqs8V2w8ayB5dMJzrYCHhD8C7"
            (Some "edsigthTzJ8X7MPmNeEwybRAvdxS1pupqcM5Mk4uCuyZAe7uEk68YpuGDeViW8wSXMrCi5CwoNgqs8V2w8ayB5dMJzrYCHhD8C7")
            { Unit }
            { True }
            (Pair 19 10)
            (Left "tz1cxcwwnzENRdhe2Kb8ZdTrdNy4bFNyScx5")
            { Elt 0 "foo" ; Elt 1 "bar" }
            { PACK })
      (Pair "edpkuBknW28nW72KG6RoHtYW7p12T6GKc7nAbwYX5m8Wd9sDVC9yav"
            Unit
            "edsigthTzJ8X7MPmNeEwybRAvdxS1pupqcM5Mk4uCuyZAe7uEk68YpuGDeViW8wSXMrCi5CwoNgqs8V2w8ayB5dMJzrYCHhD8C7"
            (Some "edsigthTzJ8X7MPmNeEwybRAvdxS1pupqcM5Mk4uCuyZAe7uEk68YpuGDeViW8wSXMrCi5CwoNgqs8V2w8ayB5dMJzrYCHhD8C7")
            { Unit }
            { True }
            (Pair 19 10)
            (Left "tz1cxcwwnzENRdhe2Kb8ZdTrdNy4bFNyScx5")
            { Elt 0 "foo" ; Elt 1 "bar" }
            { PACK }) ]
  - location: 30 (remaining gas: 1039497.663 units remaining)
    [ "edpkuBknW28nW72KG6RoHtYW7p12T6GKc7nAbwYX5m8Wd9sDVC9yav"
      (Pair "edpkuBknW28nW72KG6RoHtYW7p12T6GKc7nAbwYX5m8Wd9sDVC9yav"
            Unit
            "edsigthTzJ8X7MPmNeEwybRAvdxS1pupqcM5Mk4uCuyZAe7uEk68YpuGDeViW8wSXMrCi5CwoNgqs8V2w8ayB5dMJzrYCHhD8C7"
            (Some "edsigthTzJ8X7MPmNeEwybRAvdxS1pupqcM5Mk4uCuyZAe7uEk68YpuGDeViW8wSXMrCi5CwoNgqs8V2w8ayB5dMJzrYCHhD8C7")
            { Unit }
            { True }
            (Pair 19 10)
            (Left "tz1cxcwwnzENRdhe2Kb8ZdTrdNy4bFNyScx5")
            { Elt 0 "foo" ; Elt 1 "bar" }
            { PACK }) ]
  - location: 31 (remaining gas: 1039497.663 units remaining)
    [ (Pair "edpkuBknW28nW72KG6RoHtYW7p12T6GKc7nAbwYX5m8Wd9sDVC9yav"
            Unit
            "edsigthTzJ8X7MPmNeEwybRAvdxS1pupqcM5Mk4uCuyZAe7uEk68YpuGDeViW8wSXMrCi5CwoNgqs8V2w8ayB5dMJzrYCHhD8C7"
            (Some "edsigthTzJ8X7MPmNeEwybRAvdxS1pupqcM5Mk4uCuyZAe7uEk68YpuGDeViW8wSXMrCi5CwoNgqs8V2w8ayB5dMJzrYCHhD8C7")
            { Unit }
            { True }
            (Pair 19 10)
            (Left "tz1cxcwwnzENRdhe2Kb8ZdTrdNy4bFNyScx5")
            { Elt 0 "foo" ; Elt 1 "bar" }
            { PACK }) ]
  - location: 33 (remaining gas: 1039497.653 units remaining)
    [ "edpkuBknW28nW72KG6RoHtYW7p12T6GKc7nAbwYX5m8Wd9sDVC9yav"
      (Pair Unit
            "edsigthTzJ8X7MPmNeEwybRAvdxS1pupqcM5Mk4uCuyZAe7uEk68YpuGDeViW8wSXMrCi5CwoNgqs8V2w8ayB5dMJzrYCHhD8C7"
            (Some "edsigthTzJ8X7MPmNeEwybRAvdxS1pupqcM5Mk4uCuyZAe7uEk68YpuGDeViW8wSXMrCi5CwoNgqs8V2w8ayB5dMJzrYCHhD8C7")
            { Unit }
            { True }
            (Pair 19 10)
            (Left "tz1cxcwwnzENRdhe2Kb8ZdTrdNy4bFNyScx5")
            { Elt 0 "foo" ; Elt 1 "bar" }
            { PACK }) ]
  - location: 31 (remaining gas: 1039497.628 units remaining)
    [ "edpkuBknW28nW72KG6RoHtYW7p12T6GKc7nAbwYX5m8Wd9sDVC9yav"
      "edpkuBknW28nW72KG6RoHtYW7p12T6GKc7nAbwYX5m8Wd9sDVC9yav"
      (Pair Unit
            "edsigthTzJ8X7MPmNeEwybRAvdxS1pupqcM5Mk4uCuyZAe7uEk68YpuGDeViW8wSXMrCi5CwoNgqs8V2w8ayB5dMJzrYCHhD8C7"
            (Some "edsigthTzJ8X7MPmNeEwybRAvdxS1pupqcM5Mk4uCuyZAe7uEk68YpuGDeViW8wSXMrCi5CwoNgqs8V2w8ayB5dMJzrYCHhD8C7")
            { Unit }
            { True }
            (Pair 19 10)
            (Left "tz1cxcwwnzENRdhe2Kb8ZdTrdNy4bFNyScx5")
            { Elt 0 "foo" ; Elt 1 "bar" }
            { PACK }) ]
  - location: 34 (remaining gas: 1039496.627 units remaining)
    [ 0x050a00000021004798d2cc98473d7e250c898885718afd2e4efbcb1a1595ab9730761ed830de0f
      "edpkuBknW28nW72KG6RoHtYW7p12T6GKc7nAbwYX5m8Wd9sDVC9yav"
      (Pair Unit
            "edsigthTzJ8X7MPmNeEwybRAvdxS1pupqcM5Mk4uCuyZAe7uEk68YpuGDeViW8wSXMrCi5CwoNgqs8V2w8ayB5dMJzrYCHhD8C7"
            (Some "edsigthTzJ8X7MPmNeEwybRAvdxS1pupqcM5Mk4uCuyZAe7uEk68YpuGDeViW8wSXMrCi5CwoNgqs8V2w8ayB5dMJzrYCHhD8C7")
            { Unit }
            { True }
            (Pair 19 10)
            (Left "tz1cxcwwnzENRdhe2Kb8ZdTrdNy4bFNyScx5")
            { Elt 0 "foo" ; Elt 1 "bar" }
            { PACK }) ]
  - location: 35 (remaining gas: 1039496.627 units remaining)
    [ "edpkuBknW28nW72KG6RoHtYW7p12T6GKc7nAbwYX5m8Wd9sDVC9yav"
      (Pair Unit
            "edsigthTzJ8X7MPmNeEwybRAvdxS1pupqcM5Mk4uCuyZAe7uEk68YpuGDeViW8wSXMrCi5CwoNgqs8V2w8ayB5dMJzrYCHhD8C7"
            (Some "edsigthTzJ8X7MPmNeEwybRAvdxS1pupqcM5Mk4uCuyZAe7uEk68YpuGDeViW8wSXMrCi5CwoNgqs8V2w8ayB5dMJzrYCHhD8C7")
            { Unit }
            { True }
            (Pair 19 10)
            (Left "tz1cxcwwnzENRdhe2Kb8ZdTrdNy4bFNyScx5")
            { Elt 0 "foo" ; Elt 1 "bar" }
            { PACK }) ]
  - location: 37 (remaining gas: 1039495.626 units remaining)
    [ 0x050a00000021004798d2cc98473d7e250c898885718afd2e4efbcb1a1595ab9730761ed830de0f
      (Pair Unit
            "edsigthTzJ8X7MPmNeEwybRAvdxS1pupqcM5Mk4uCuyZAe7uEk68YpuGDeViW8wSXMrCi5CwoNgqs8V2w8ayB5dMJzrYCHhD8C7"
            (Some "edsigthTzJ8X7MPmNeEwybRAvdxS1pupqcM5Mk4uCuyZAe7uEk68YpuGDeViW8wSXMrCi5CwoNgqs8V2w8ayB5dMJzrYCHhD8C7")
            { Unit }
            { True }
            (Pair 19 10)
            (Left "tz1cxcwwnzENRdhe2Kb8ZdTrdNy4bFNyScx5")
            { Elt 0 "foo" ; Elt 1 "bar" }
            { PACK }) ]
  - location: 38 (remaining gas: 1039174.467 units remaining)
    [ (Some "edpkuBknW28nW72KG6RoHtYW7p12T6GKc7nAbwYX5m8Wd9sDVC9yav")
      (Pair Unit
            "edsigthTzJ8X7MPmNeEwybRAvdxS1pupqcM5Mk4uCuyZAe7uEk68YpuGDeViW8wSXMrCi5CwoNgqs8V2w8ayB5dMJzrYCHhD8C7"
            (Some "edsigthTzJ8X7MPmNeEwybRAvdxS1pupqcM5Mk4uCuyZAe7uEk68YpuGDeViW8wSXMrCi5CwoNgqs8V2w8ayB5dMJzrYCHhD8C7")
            { Unit }
            { True }
            (Pair 19 10)
            (Left "tz1cxcwwnzENRdhe2Kb8ZdTrdNy4bFNyScx5")
            { Elt 0 "foo" ; Elt 1 "bar" }
            { PACK }) ]
  - location: 41 (remaining gas: 1039174.467 units remaining)
    [ "edpkuBknW28nW72KG6RoHtYW7p12T6GKc7nAbwYX5m8Wd9sDVC9yav"
      (Pair Unit
            "edsigthTzJ8X7MPmNeEwybRAvdxS1pupqcM5Mk4uCuyZAe7uEk68YpuGDeViW8wSXMrCi5CwoNgqs8V2w8ayB5dMJzrYCHhD8C7"
            (Some "edsigthTzJ8X7MPmNeEwybRAvdxS1pupqcM5Mk4uCuyZAe7uEk68YpuGDeViW8wSXMrCi5CwoNgqs8V2w8ayB5dMJzrYCHhD8C7")
            { Unit }
            { True }
            (Pair 19 10)
            (Left "tz1cxcwwnzENRdhe2Kb8ZdTrdNy4bFNyScx5")
            { Elt 0 "foo" ; Elt 1 "bar" }
            { PACK }) ]
  - location: 41 (remaining gas: 1039174.452 units remaining)
    [ "edpkuBknW28nW72KG6RoHtYW7p12T6GKc7nAbwYX5m8Wd9sDVC9yav"
      (Pair Unit
            "edsigthTzJ8X7MPmNeEwybRAvdxS1pupqcM5Mk4uCuyZAe7uEk68YpuGDeViW8wSXMrCi5CwoNgqs8V2w8ayB5dMJzrYCHhD8C7"
            (Some "edsigthTzJ8X7MPmNeEwybRAvdxS1pupqcM5Mk4uCuyZAe7uEk68YpuGDeViW8wSXMrCi5CwoNgqs8V2w8ayB5dMJzrYCHhD8C7")
            { Unit }
            { True }
            (Pair 19 10)
            (Left "tz1cxcwwnzENRdhe2Kb8ZdTrdNy4bFNyScx5")
            { Elt 0 "foo" ; Elt 1 "bar" }
            { PACK }) ]
  - location: 47 (remaining gas: 1039173.451 units remaining)
    [ 0x050a00000021004798d2cc98473d7e250c898885718afd2e4efbcb1a1595ab9730761ed830de0f
      (Pair Unit
            "edsigthTzJ8X7MPmNeEwybRAvdxS1pupqcM5Mk4uCuyZAe7uEk68YpuGDeViW8wSXMrCi5CwoNgqs8V2w8ayB5dMJzrYCHhD8C7"
            (Some "edsigthTzJ8X7MPmNeEwybRAvdxS1pupqcM5Mk4uCuyZAe7uEk68YpuGDeViW8wSXMrCi5CwoNgqs8V2w8ayB5dMJzrYCHhD8C7")
            { Unit }
            { True }
            (Pair 19 10)
            (Left "tz1cxcwwnzENRdhe2Kb8ZdTrdNy4bFNyScx5")
            { Elt 0 "foo" ; Elt 1 "bar" }
            { PACK }) ]
  - location: 35 (remaining gas: 1039173.426 units remaining)
    [ 0x050a00000021004798d2cc98473d7e250c898885718afd2e4efbcb1a1595ab9730761ed830de0f
      0x050a00000021004798d2cc98473d7e250c898885718afd2e4efbcb1a1595ab9730761ed830de0f
      (Pair Unit
            "edsigthTzJ8X7MPmNeEwybRAvdxS1pupqcM5Mk4uCuyZAe7uEk68YpuGDeViW8wSXMrCi5CwoNgqs8V2w8ayB5dMJzrYCHhD8C7"
            (Some "edsigthTzJ8X7MPmNeEwybRAvdxS1pupqcM5Mk4uCuyZAe7uEk68YpuGDeViW8wSXMrCi5CwoNgqs8V2w8ayB5dMJzrYCHhD8C7")
            { Unit }
            { True }
            (Pair 19 10)
            (Left "tz1cxcwwnzENRdhe2Kb8ZdTrdNy4bFNyScx5")
            { Elt 0 "foo" ; Elt 1 "bar" }
            { PACK }) ]
  - location: 50 (remaining gas: 1039173.391 units remaining)
    [ 0
      (Pair Unit
            "edsigthTzJ8X7MPmNeEwybRAvdxS1pupqcM5Mk4uCuyZAe7uEk68YpuGDeViW8wSXMrCi5CwoNgqs8V2w8ayB5dMJzrYCHhD8C7"
            (Some "edsigthTzJ8X7MPmNeEwybRAvdxS1pupqcM5Mk4uCuyZAe7uEk68YpuGDeViW8wSXMrCi5CwoNgqs8V2w8ayB5dMJzrYCHhD8C7")
            { Unit }
            { True }
            (Pair 19 10)
            (Left "tz1cxcwwnzENRdhe2Kb8ZdTrdNy4bFNyScx5")
            { Elt 0 "foo" ; Elt 1 "bar" }
            { PACK }) ]
  - location: 51 (remaining gas: 1039173.381 units remaining)
    [ True
      (Pair Unit
            "edsigthTzJ8X7MPmNeEwybRAvdxS1pupqcM5Mk4uCuyZAe7uEk68YpuGDeViW8wSXMrCi5CwoNgqs8V2w8ayB5dMJzrYCHhD8C7"
            (Some "edsigthTzJ8X7MPmNeEwybRAvdxS1pupqcM5Mk4uCuyZAe7uEk68YpuGDeViW8wSXMrCi5CwoNgqs8V2w8ayB5dMJzrYCHhD8C7")
            { Unit }
            { True }
            (Pair 19 10)
            (Left "tz1cxcwwnzENRdhe2Kb8ZdTrdNy4bFNyScx5")
            { Elt 0 "foo" ; Elt 1 "bar" }
            { PACK }) ]
  - location: 52 (remaining gas: 1039173.381 units remaining)
    [ (Pair Unit
            "edsigthTzJ8X7MPmNeEwybRAvdxS1pupqcM5Mk4uCuyZAe7uEk68YpuGDeViW8wSXMrCi5CwoNgqs8V2w8ayB5dMJzrYCHhD8C7"
            (Some "edsigthTzJ8X7MPmNeEwybRAvdxS1pupqcM5Mk4uCuyZAe7uEk68YpuGDeViW8wSXMrCi5CwoNgqs8V2w8ayB5dMJzrYCHhD8C7")
            { Unit }
            { True }
            (Pair 19 10)
            (Left "tz1cxcwwnzENRdhe2Kb8ZdTrdNy4bFNyScx5")
            { Elt 0 "foo" ; Elt 1 "bar" }
            { PACK }) ]
  - location: 52 (remaining gas: 1039173.366 units remaining)
    [ (Pair Unit
            "edsigthTzJ8X7MPmNeEwybRAvdxS1pupqcM5Mk4uCuyZAe7uEk68YpuGDeViW8wSXMrCi5CwoNgqs8V2w8ayB5dMJzrYCHhD8C7"
            (Some "edsigthTzJ8X7MPmNeEwybRAvdxS1pupqcM5Mk4uCuyZAe7uEk68YpuGDeViW8wSXMrCi5CwoNgqs8V2w8ayB5dMJzrYCHhD8C7")
            { Unit }
            { True }
            (Pair 19 10)
            (Left "tz1cxcwwnzENRdhe2Kb8ZdTrdNy4bFNyScx5")
            { Elt 0 "foo" ; Elt 1 "bar" }
            { PACK }) ]
  - location: 58 (remaining gas: 1039173.356 units remaining)
    [ (Pair Unit
            "edsigthTzJ8X7MPmNeEwybRAvdxS1pupqcM5Mk4uCuyZAe7uEk68YpuGDeViW8wSXMrCi5CwoNgqs8V2w8ayB5dMJzrYCHhD8C7"
            (Some "edsigthTzJ8X7MPmNeEwybRAvdxS1pupqcM5Mk4uCuyZAe7uEk68YpuGDeViW8wSXMrCi5CwoNgqs8V2w8ayB5dMJzrYCHhD8C7")
            { Unit }
            { True }
            (Pair 19 10)
            (Left "tz1cxcwwnzENRdhe2Kb8ZdTrdNy4bFNyScx5")
            { Elt 0 "foo" ; Elt 1 "bar" }
            { PACK })
      (Pair Unit
            "edsigthTzJ8X7MPmNeEwybRAvdxS1pupqcM5Mk4uCuyZAe7uEk68YpuGDeViW8wSXMrCi5CwoNgqs8V2w8ayB5dMJzrYCHhD8C7"
            (Some "edsigthTzJ8X7MPmNeEwybRAvdxS1pupqcM5Mk4uCuyZAe7uEk68YpuGDeViW8wSXMrCi5CwoNgqs8V2w8ayB5dMJzrYCHhD8C7")
            { Unit }
            { True }
            (Pair 19 10)
            (Left "tz1cxcwwnzENRdhe2Kb8ZdTrdNy4bFNyScx5")
            { Elt 0 "foo" ; Elt 1 "bar" }
            { PACK }) ]
  - location: 59 (remaining gas: 1039173.346 units remaining)
    [ Unit
      (Pair Unit
            "edsigthTzJ8X7MPmNeEwybRAvdxS1pupqcM5Mk4uCuyZAe7uEk68YpuGDeViW8wSXMrCi5CwoNgqs8V2w8ayB5dMJzrYCHhD8C7"
            (Some "edsigthTzJ8X7MPmNeEwybRAvdxS1pupqcM5Mk4uCuyZAe7uEk68YpuGDeViW8wSXMrCi5CwoNgqs8V2w8ayB5dMJzrYCHhD8C7")
            { Unit }
            { True }
            (Pair 19 10)
            (Left "tz1cxcwwnzENRdhe2Kb8ZdTrdNy4bFNyScx5")
            { Elt 0 "foo" ; Elt 1 "bar" }
            { PACK }) ]
  - location: 60 (remaining gas: 1039173.346 units remaining)
    [ (Pair Unit
            "edsigthTzJ8X7MPmNeEwybRAvdxS1pupqcM5Mk4uCuyZAe7uEk68YpuGDeViW8wSXMrCi5CwoNgqs8V2w8ayB5dMJzrYCHhD8C7"
            (Some "edsigthTzJ8X7MPmNeEwybRAvdxS1pupqcM5Mk4uCuyZAe7uEk68YpuGDeViW8wSXMrCi5CwoNgqs8V2w8ayB5dMJzrYCHhD8C7")
            { Unit }
            { True }
            (Pair 19 10)
            (Left "tz1cxcwwnzENRdhe2Kb8ZdTrdNy4bFNyScx5")
            { Elt 0 "foo" ; Elt 1 "bar" }
            { PACK }) ]
  - location: 62 (remaining gas: 1039173.336 units remaining)
    [ Unit
      (Pair "edsigthTzJ8X7MPmNeEwybRAvdxS1pupqcM5Mk4uCuyZAe7uEk68YpuGDeViW8wSXMrCi5CwoNgqs8V2w8ayB5dMJzrYCHhD8C7"
            (Some "edsigthTzJ8X7MPmNeEwybRAvdxS1pupqcM5Mk4uCuyZAe7uEk68YpuGDeViW8wSXMrCi5CwoNgqs8V2w8ayB5dMJzrYCHhD8C7")
            { Unit }
            { True }
            (Pair 19 10)
            (Left "tz1cxcwwnzENRdhe2Kb8ZdTrdNy4bFNyScx5")
            { Elt 0 "foo" ; Elt 1 "bar" }
            { PACK }) ]
  - location: 60 (remaining gas: 1039173.311 units remaining)
    [ Unit
      Unit
      (Pair "edsigthTzJ8X7MPmNeEwybRAvdxS1pupqcM5Mk4uCuyZAe7uEk68YpuGDeViW8wSXMrCi5CwoNgqs8V2w8ayB5dMJzrYCHhD8C7"
            (Some "edsigthTzJ8X7MPmNeEwybRAvdxS1pupqcM5Mk4uCuyZAe7uEk68YpuGDeViW8wSXMrCi5CwoNgqs8V2w8ayB5dMJzrYCHhD8C7")
            { Unit }
            { True }
            (Pair 19 10)
            (Left "tz1cxcwwnzENRdhe2Kb8ZdTrdNy4bFNyScx5")
            { Elt 0 "foo" ; Elt 1 "bar" }
            { PACK }) ]
  - location: 63 (remaining gas: 1039173.095 units remaining)
    [ 0x05030b
      Unit
      (Pair "edsigthTzJ8X7MPmNeEwybRAvdxS1pupqcM5Mk4uCuyZAe7uEk68YpuGDeViW8wSXMrCi5CwoNgqs8V2w8ayB5dMJzrYCHhD8C7"
            (Some "edsigthTzJ8X7MPmNeEwybRAvdxS1pupqcM5Mk4uCuyZAe7uEk68YpuGDeViW8wSXMrCi5CwoNgqs8V2w8ayB5dMJzrYCHhD8C7")
            { Unit }
            { True }
            (Pair 19 10)
            (Left "tz1cxcwwnzENRdhe2Kb8ZdTrdNy4bFNyScx5")
            { Elt 0 "foo" ; Elt 1 "bar" }
            { PACK }) ]
  - location: 64 (remaining gas: 1039173.095 units remaining)
    [ Unit
      (Pair "edsigthTzJ8X7MPmNeEwybRAvdxS1pupqcM5Mk4uCuyZAe7uEk68YpuGDeViW8wSXMrCi5CwoNgqs8V2w8ayB5dMJzrYCHhD8C7"
            (Some "edsigthTzJ8X7MPmNeEwybRAvdxS1pupqcM5Mk4uCuyZAe7uEk68YpuGDeViW8wSXMrCi5CwoNgqs8V2w8ayB5dMJzrYCHhD8C7")
            { Unit }
            { True }
            (Pair 19 10)
            (Left "tz1cxcwwnzENRdhe2Kb8ZdTrdNy4bFNyScx5")
            { Elt 0 "foo" ; Elt 1 "bar" }
            { PACK }) ]
  - location: 66 (remaining gas: 1039172.879 units remaining)
    [ 0x05030b
      (Pair "edsigthTzJ8X7MPmNeEwybRAvdxS1pupqcM5Mk4uCuyZAe7uEk68YpuGDeViW8wSXMrCi5CwoNgqs8V2w8ayB5dMJzrYCHhD8C7"
            (Some "edsigthTzJ8X7MPmNeEwybRAvdxS1pupqcM5Mk4uCuyZAe7uEk68YpuGDeViW8wSXMrCi5CwoNgqs8V2w8ayB5dMJzrYCHhD8C7")
            { Unit }
            { True }
            (Pair 19 10)
            (Left "tz1cxcwwnzENRdhe2Kb8ZdTrdNy4bFNyScx5")
            { Elt 0 "foo" ; Elt 1 "bar" }
            { PACK }) ]
  - location: 67 (remaining gas: 1039172.458 units remaining)
    [ (Some Unit)
      (Pair "edsigthTzJ8X7MPmNeEwybRAvdxS1pupqcM5Mk4uCuyZAe7uEk68YpuGDeViW8wSXMrCi5CwoNgqs8V2w8ayB5dMJzrYCHhD8C7"
            (Some "edsigthTzJ8X7MPmNeEwybRAvdxS1pupqcM5Mk4uCuyZAe7uEk68YpuGDeViW8wSXMrCi5CwoNgqs8V2w8ayB5dMJzrYCHhD8C7")
            { Unit }
            { True }
            (Pair 19 10)
            (Left "tz1cxcwwnzENRdhe2Kb8ZdTrdNy4bFNyScx5")
            { Elt 0 "foo" ; Elt 1 "bar" }
            { PACK }) ]
  - location: 70 (remaining gas: 1039172.458 units remaining)
    [ Unit
      (Pair "edsigthTzJ8X7MPmNeEwybRAvdxS1pupqcM5Mk4uCuyZAe7uEk68YpuGDeViW8wSXMrCi5CwoNgqs8V2w8ayB5dMJzrYCHhD8C7"
            (Some "edsigthTzJ8X7MPmNeEwybRAvdxS1pupqcM5Mk4uCuyZAe7uEk68YpuGDeViW8wSXMrCi5CwoNgqs8V2w8ayB5dMJzrYCHhD8C7")
            { Unit }
            { True }
            (Pair 19 10)
            (Left "tz1cxcwwnzENRdhe2Kb8ZdTrdNy4bFNyScx5")
            { Elt 0 "foo" ; Elt 1 "bar" }
            { PACK }) ]
  - location: 70 (remaining gas: 1039172.443 units remaining)
    [ Unit
      (Pair "edsigthTzJ8X7MPmNeEwybRAvdxS1pupqcM5Mk4uCuyZAe7uEk68YpuGDeViW8wSXMrCi5CwoNgqs8V2w8ayB5dMJzrYCHhD8C7"
            (Some "edsigthTzJ8X7MPmNeEwybRAvdxS1pupqcM5Mk4uCuyZAe7uEk68YpuGDeViW8wSXMrCi5CwoNgqs8V2w8ayB5dMJzrYCHhD8C7")
            { Unit }
            { True }
            (Pair 19 10)
            (Left "tz1cxcwwnzENRdhe2Kb8ZdTrdNy4bFNyScx5")
            { Elt 0 "foo" ; Elt 1 "bar" }
            { PACK }) ]
  - location: 76 (remaining gas: 1039172.227 units remaining)
    [ 0x05030b
      (Pair "edsigthTzJ8X7MPmNeEwybRAvdxS1pupqcM5Mk4uCuyZAe7uEk68YpuGDeViW8wSXMrCi5CwoNgqs8V2w8ayB5dMJzrYCHhD8C7"
            (Some "edsigthTzJ8X7MPmNeEwybRAvdxS1pupqcM5Mk4uCuyZAe7uEk68YpuGDeViW8wSXMrCi5CwoNgqs8V2w8ayB5dMJzrYCHhD8C7")
            { Unit }
            { True }
            (Pair 19 10)
            (Left "tz1cxcwwnzENRdhe2Kb8ZdTrdNy4bFNyScx5")
            { Elt 0 "foo" ; Elt 1 "bar" }
            { PACK }) ]
  - location: 64 (remaining gas: 1039172.202 units remaining)
    [ 0x05030b
      0x05030b
      (Pair "edsigthTzJ8X7MPmNeEwybRAvdxS1pupqcM5Mk4uCuyZAe7uEk68YpuGDeViW8wSXMrCi5CwoNgqs8V2w8ayB5dMJzrYCHhD8C7"
            (Some "edsigthTzJ8X7MPmNeEwybRAvdxS1pupqcM5Mk4uCuyZAe7uEk68YpuGDeViW8wSXMrCi5CwoNgqs8V2w8ayB5dMJzrYCHhD8C7")
            { Unit }
            { True }
            (Pair 19 10)
            (Left "tz1cxcwwnzENRdhe2Kb8ZdTrdNy4bFNyScx5")
            { Elt 0 "foo" ; Elt 1 "bar" }
            { PACK }) ]
  - location: 79 (remaining gas: 1039172.167 units remaining)
    [ 0
      (Pair "edsigthTzJ8X7MPmNeEwybRAvdxS1pupqcM5Mk4uCuyZAe7uEk68YpuGDeViW8wSXMrCi5CwoNgqs8V2w8ayB5dMJzrYCHhD8C7"
            (Some "edsigthTzJ8X7MPmNeEwybRAvdxS1pupqcM5Mk4uCuyZAe7uEk68YpuGDeViW8wSXMrCi5CwoNgqs8V2w8ayB5dMJzrYCHhD8C7")
            { Unit }
            { True }
            (Pair 19 10)
            (Left "tz1cxcwwnzENRdhe2Kb8ZdTrdNy4bFNyScx5")
            { Elt 0 "foo" ; Elt 1 "bar" }
            { PACK }) ]
  - location: 80 (remaining gas: 1039172.157 units remaining)
    [ True
      (Pair "edsigthTzJ8X7MPmNeEwybRAvdxS1pupqcM5Mk4uCuyZAe7uEk68YpuGDeViW8wSXMrCi5CwoNgqs8V2w8ayB5dMJzrYCHhD8C7"
            (Some "edsigthTzJ8X7MPmNeEwybRAvdxS1pupqcM5Mk4uCuyZAe7uEk68YpuGDeViW8wSXMrCi5CwoNgqs8V2w8ayB5dMJzrYCHhD8C7")
            { Unit }
            { True }
            (Pair 19 10)
            (Left "tz1cxcwwnzENRdhe2Kb8ZdTrdNy4bFNyScx5")
            { Elt 0 "foo" ; Elt 1 "bar" }
            { PACK }) ]
  - location: 81 (remaining gas: 1039172.157 units remaining)
    [ (Pair "edsigthTzJ8X7MPmNeEwybRAvdxS1pupqcM5Mk4uCuyZAe7uEk68YpuGDeViW8wSXMrCi5CwoNgqs8V2w8ayB5dMJzrYCHhD8C7"
            (Some "edsigthTzJ8X7MPmNeEwybRAvdxS1pupqcM5Mk4uCuyZAe7uEk68YpuGDeViW8wSXMrCi5CwoNgqs8V2w8ayB5dMJzrYCHhD8C7")
            { Unit }
            { True }
            (Pair 19 10)
            (Left "tz1cxcwwnzENRdhe2Kb8ZdTrdNy4bFNyScx5")
            { Elt 0 "foo" ; Elt 1 "bar" }
            { PACK }) ]
  - location: 81 (remaining gas: 1039172.142 units remaining)
    [ (Pair "edsigthTzJ8X7MPmNeEwybRAvdxS1pupqcM5Mk4uCuyZAe7uEk68YpuGDeViW8wSXMrCi5CwoNgqs8V2w8ayB5dMJzrYCHhD8C7"
            (Some "edsigthTzJ8X7MPmNeEwybRAvdxS1pupqcM5Mk4uCuyZAe7uEk68YpuGDeViW8wSXMrCi5CwoNgqs8V2w8ayB5dMJzrYCHhD8C7")
            { Unit }
            { True }
            (Pair 19 10)
            (Left "tz1cxcwwnzENRdhe2Kb8ZdTrdNy4bFNyScx5")
            { Elt 0 "foo" ; Elt 1 "bar" }
            { PACK }) ]
  - location: 87 (remaining gas: 1039172.132 units remaining)
    [ (Pair "edsigthTzJ8X7MPmNeEwybRAvdxS1pupqcM5Mk4uCuyZAe7uEk68YpuGDeViW8wSXMrCi5CwoNgqs8V2w8ayB5dMJzrYCHhD8C7"
            (Some "edsigthTzJ8X7MPmNeEwybRAvdxS1pupqcM5Mk4uCuyZAe7uEk68YpuGDeViW8wSXMrCi5CwoNgqs8V2w8ayB5dMJzrYCHhD8C7")
            { Unit }
            { True }
            (Pair 19 10)
            (Left "tz1cxcwwnzENRdhe2Kb8ZdTrdNy4bFNyScx5")
            { Elt 0 "foo" ; Elt 1 "bar" }
            { PACK })
      (Pair "edsigthTzJ8X7MPmNeEwybRAvdxS1pupqcM5Mk4uCuyZAe7uEk68YpuGDeViW8wSXMrCi5CwoNgqs8V2w8ayB5dMJzrYCHhD8C7"
            (Some "edsigthTzJ8X7MPmNeEwybRAvdxS1pupqcM5Mk4uCuyZAe7uEk68YpuGDeViW8wSXMrCi5CwoNgqs8V2w8ayB5dMJzrYCHhD8C7")
            { Unit }
            { True }
            (Pair 19 10)
            (Left "tz1cxcwwnzENRdhe2Kb8ZdTrdNy4bFNyScx5")
            { Elt 0 "foo" ; Elt 1 "bar" }
            { PACK }) ]
  - location: 88 (remaining gas: 1039172.122 units remaining)
    [ "edsigthTzJ8X7MPmNeEwybRAvdxS1pupqcM5Mk4uCuyZAe7uEk68YpuGDeViW8wSXMrCi5CwoNgqs8V2w8ayB5dMJzrYCHhD8C7"
      (Pair "edsigthTzJ8X7MPmNeEwybRAvdxS1pupqcM5Mk4uCuyZAe7uEk68YpuGDeViW8wSXMrCi5CwoNgqs8V2w8ayB5dMJzrYCHhD8C7"
            (Some "edsigthTzJ8X7MPmNeEwybRAvdxS1pupqcM5Mk4uCuyZAe7uEk68YpuGDeViW8wSXMrCi5CwoNgqs8V2w8ayB5dMJzrYCHhD8C7")
            { Unit }
            { True }
            (Pair 19 10)
            (Left "tz1cxcwwnzENRdhe2Kb8ZdTrdNy4bFNyScx5")
            { Elt 0 "foo" ; Elt 1 "bar" }
            { PACK }) ]
  - location: 89 (remaining gas: 1039172.122 units remaining)
    [ (Pair "edsigthTzJ8X7MPmNeEwybRAvdxS1pupqcM5Mk4uCuyZAe7uEk68YpuGDeViW8wSXMrCi5CwoNgqs8V2w8ayB5dMJzrYCHhD8C7"
            (Some "edsigthTzJ8X7MPmNeEwybRAvdxS1pupqcM5Mk4uCuyZAe7uEk68YpuGDeViW8wSXMrCi5CwoNgqs8V2w8ayB5dMJzrYCHhD8C7")
            { Unit }
            { True }
            (Pair 19 10)
            (Left "tz1cxcwwnzENRdhe2Kb8ZdTrdNy4bFNyScx5")
            { Elt 0 "foo" ; Elt 1 "bar" }
            { PACK }) ]
  - location: 91 (remaining gas: 1039172.112 units remaining)
    [ "edsigthTzJ8X7MPmNeEwybRAvdxS1pupqcM5Mk4uCuyZAe7uEk68YpuGDeViW8wSXMrCi5CwoNgqs8V2w8ayB5dMJzrYCHhD8C7"
      (Pair (Some "edsigthTzJ8X7MPmNeEwybRAvdxS1pupqcM5Mk4uCuyZAe7uEk68YpuGDeViW8wSXMrCi5CwoNgqs8V2w8ayB5dMJzrYCHhD8C7")
            { Unit }
            { True }
            (Pair 19 10)
            (Left "tz1cxcwwnzENRdhe2Kb8ZdTrdNy4bFNyScx5")
            { Elt 0 "foo" ; Elt 1 "bar" }
            { PACK }) ]
  - location: 89 (remaining gas: 1039172.087 units remaining)
    [ "edsigthTzJ8X7MPmNeEwybRAvdxS1pupqcM5Mk4uCuyZAe7uEk68YpuGDeViW8wSXMrCi5CwoNgqs8V2w8ayB5dMJzrYCHhD8C7"
      "edsigthTzJ8X7MPmNeEwybRAvdxS1pupqcM5Mk4uCuyZAe7uEk68YpuGDeViW8wSXMrCi5CwoNgqs8V2w8ayB5dMJzrYCHhD8C7"
      (Pair (Some "edsigthTzJ8X7MPmNeEwybRAvdxS1pupqcM5Mk4uCuyZAe7uEk68YpuGDeViW8wSXMrCi5CwoNgqs8V2w8ayB5dMJzrYCHhD8C7")
            { Unit }
            { True }
            (Pair 19 10)
            (Left "tz1cxcwwnzENRdhe2Kb8ZdTrdNy4bFNyScx5")
            { Elt 0 "foo" ; Elt 1 "bar" }
            { PACK }) ]
  - location: 92 (remaining gas: 1039171.186 units remaining)
    [ 0x050a0000004049d47dba27bd76208b092f3e500f64818920c817491b8b9094f28c2c2b9c6721b257b8878ce47182122b8ea84aeacd84a8aa28cb1f1fe48a26355a7bca4b8306
      "edsigthTzJ8X7MPmNeEwybRAvdxS1pupqcM5Mk4uCuyZAe7uEk68YpuGDeViW8wSXMrCi5CwoNgqs8V2w8ayB5dMJzrYCHhD8C7"
      (Pair (Some "edsigthTzJ8X7MPmNeEwybRAvdxS1pupqcM5Mk4uCuyZAe7uEk68YpuGDeViW8wSXMrCi5CwoNgqs8V2w8ayB5dMJzrYCHhD8C7")
            { Unit }
            { True }
            (Pair 19 10)
            (Left "tz1cxcwwnzENRdhe2Kb8ZdTrdNy4bFNyScx5")
            { Elt 0 "foo" ; Elt 1 "bar" }
            { PACK }) ]
  - location: 93 (remaining gas: 1039171.186 units remaining)
    [ "edsigthTzJ8X7MPmNeEwybRAvdxS1pupqcM5Mk4uCuyZAe7uEk68YpuGDeViW8wSXMrCi5CwoNgqs8V2w8ayB5dMJzrYCHhD8C7"
      (Pair (Some "edsigthTzJ8X7MPmNeEwybRAvdxS1pupqcM5Mk4uCuyZAe7uEk68YpuGDeViW8wSXMrCi5CwoNgqs8V2w8ayB5dMJzrYCHhD8C7")
            { Unit }
            { True }
            (Pair 19 10)
            (Left "tz1cxcwwnzENRdhe2Kb8ZdTrdNy4bFNyScx5")
            { Elt 0 "foo" ; Elt 1 "bar" }
            { PACK }) ]
  - location: 95 (remaining gas: 1039170.285 units remaining)
    [ 0x050a0000004049d47dba27bd76208b092f3e500f64818920c817491b8b9094f28c2c2b9c6721b257b8878ce47182122b8ea84aeacd84a8aa28cb1f1fe48a26355a7bca4b8306
      (Pair (Some "edsigthTzJ8X7MPmNeEwybRAvdxS1pupqcM5Mk4uCuyZAe7uEk68YpuGDeViW8wSXMrCi5CwoNgqs8V2w8ayB5dMJzrYCHhD8C7")
            { Unit }
            { True }
            (Pair 19 10)
            (Left "tz1cxcwwnzENRdhe2Kb8ZdTrdNy4bFNyScx5")
            { Elt 0 "foo" ; Elt 1 "bar" }
            { PACK }) ]
  - location: 96 (remaining gas: 1039168.455 units remaining)
    [ (Some "sigXeXB5JD5TaLb3xgTPKjgf9W45judiCmNP9UBdZBdmtHSGBxL1M8ZSUb6LpjGP2MdfUBTB4WHs5APnvyRV1LooU6QHJuDe")
      (Pair (Some "edsigthTzJ8X7MPmNeEwybRAvdxS1pupqcM5Mk4uCuyZAe7uEk68YpuGDeViW8wSXMrCi5CwoNgqs8V2w8ayB5dMJzrYCHhD8C7")
            { Unit }
            { True }
            (Pair 19 10)
            (Left "tz1cxcwwnzENRdhe2Kb8ZdTrdNy4bFNyScx5")
            { Elt 0 "foo" ; Elt 1 "bar" }
            { PACK }) ]
  - location: 99 (remaining gas: 1039168.455 units remaining)
    [ "sigXeXB5JD5TaLb3xgTPKjgf9W45judiCmNP9UBdZBdmtHSGBxL1M8ZSUb6LpjGP2MdfUBTB4WHs5APnvyRV1LooU6QHJuDe"
      (Pair (Some "edsigthTzJ8X7MPmNeEwybRAvdxS1pupqcM5Mk4uCuyZAe7uEk68YpuGDeViW8wSXMrCi5CwoNgqs8V2w8ayB5dMJzrYCHhD8C7")
            { Unit }
            { True }
            (Pair 19 10)
            (Left "tz1cxcwwnzENRdhe2Kb8ZdTrdNy4bFNyScx5")
            { Elt 0 "foo" ; Elt 1 "bar" }
            { PACK }) ]
  - location: 99 (remaining gas: 1039168.440 units remaining)
    [ "sigXeXB5JD5TaLb3xgTPKjgf9W45judiCmNP9UBdZBdmtHSGBxL1M8ZSUb6LpjGP2MdfUBTB4WHs5APnvyRV1LooU6QHJuDe"
      (Pair (Some "edsigthTzJ8X7MPmNeEwybRAvdxS1pupqcM5Mk4uCuyZAe7uEk68YpuGDeViW8wSXMrCi5CwoNgqs8V2w8ayB5dMJzrYCHhD8C7")
            { Unit }
            { True }
            (Pair 19 10)
            (Left "tz1cxcwwnzENRdhe2Kb8ZdTrdNy4bFNyScx5")
            { Elt 0 "foo" ; Elt 1 "bar" }
            { PACK }) ]
  - location: 105 (remaining gas: 1039167.539 units remaining)
    [ 0x050a0000004049d47dba27bd76208b092f3e500f64818920c817491b8b9094f28c2c2b9c6721b257b8878ce47182122b8ea84aeacd84a8aa28cb1f1fe48a26355a7bca4b8306
      (Pair (Some "edsigthTzJ8X7MPmNeEwybRAvdxS1pupqcM5Mk4uCuyZAe7uEk68YpuGDeViW8wSXMrCi5CwoNgqs8V2w8ayB5dMJzrYCHhD8C7")
            { Unit }
            { True }
            (Pair 19 10)
            (Left "tz1cxcwwnzENRdhe2Kb8ZdTrdNy4bFNyScx5")
            { Elt 0 "foo" ; Elt 1 "bar" }
            { PACK }) ]
  - location: 93 (remaining gas: 1039167.514 units remaining)
    [ 0x050a0000004049d47dba27bd76208b092f3e500f64818920c817491b8b9094f28c2c2b9c6721b257b8878ce47182122b8ea84aeacd84a8aa28cb1f1fe48a26355a7bca4b8306
      0x050a0000004049d47dba27bd76208b092f3e500f64818920c817491b8b9094f28c2c2b9c6721b257b8878ce47182122b8ea84aeacd84a8aa28cb1f1fe48a26355a7bca4b8306
      (Pair (Some "edsigthTzJ8X7MPmNeEwybRAvdxS1pupqcM5Mk4uCuyZAe7uEk68YpuGDeViW8wSXMrCi5CwoNgqs8V2w8ayB5dMJzrYCHhD8C7")
            { Unit }
            { True }
            (Pair 19 10)
            (Left "tz1cxcwwnzENRdhe2Kb8ZdTrdNy4bFNyScx5")
            { Elt 0 "foo" ; Elt 1 "bar" }
            { PACK }) ]
  - location: 108 (remaining gas: 1039167.478 units remaining)
    [ 0
      (Pair (Some "edsigthTzJ8X7MPmNeEwybRAvdxS1pupqcM5Mk4uCuyZAe7uEk68YpuGDeViW8wSXMrCi5CwoNgqs8V2w8ayB5dMJzrYCHhD8C7")
            { Unit }
            { True }
            (Pair 19 10)
            (Left "tz1cxcwwnzENRdhe2Kb8ZdTrdNy4bFNyScx5")
            { Elt 0 "foo" ; Elt 1 "bar" }
            { PACK }) ]
  - location: 109 (remaining gas: 1039167.468 units remaining)
    [ True
      (Pair (Some "edsigthTzJ8X7MPmNeEwybRAvdxS1pupqcM5Mk4uCuyZAe7uEk68YpuGDeViW8wSXMrCi5CwoNgqs8V2w8ayB5dMJzrYCHhD8C7")
            { Unit }
            { True }
            (Pair 19 10)
            (Left "tz1cxcwwnzENRdhe2Kb8ZdTrdNy4bFNyScx5")
            { Elt 0 "foo" ; Elt 1 "bar" }
            { PACK }) ]
  - location: 110 (remaining gas: 1039167.468 units remaining)
    [ (Pair (Some "edsigthTzJ8X7MPmNeEwybRAvdxS1pupqcM5Mk4uCuyZAe7uEk68YpuGDeViW8wSXMrCi5CwoNgqs8V2w8ayB5dMJzrYCHhD8C7")
            { Unit }
            { True }
            (Pair 19 10)
            (Left "tz1cxcwwnzENRdhe2Kb8ZdTrdNy4bFNyScx5")
            { Elt 0 "foo" ; Elt 1 "bar" }
            { PACK }) ]
  - location: 110 (remaining gas: 1039167.453 units remaining)
    [ (Pair (Some "edsigthTzJ8X7MPmNeEwybRAvdxS1pupqcM5Mk4uCuyZAe7uEk68YpuGDeViW8wSXMrCi5CwoNgqs8V2w8ayB5dMJzrYCHhD8C7")
            { Unit }
            { True }
            (Pair 19 10)
            (Left "tz1cxcwwnzENRdhe2Kb8ZdTrdNy4bFNyScx5")
            { Elt 0 "foo" ; Elt 1 "bar" }
            { PACK }) ]
  - location: 116 (remaining gas: 1039167.443 units remaining)
    [ (Pair (Some "edsigthTzJ8X7MPmNeEwybRAvdxS1pupqcM5Mk4uCuyZAe7uEk68YpuGDeViW8wSXMrCi5CwoNgqs8V2w8ayB5dMJzrYCHhD8C7")
            { Unit }
            { True }
            (Pair 19 10)
            (Left "tz1cxcwwnzENRdhe2Kb8ZdTrdNy4bFNyScx5")
            { Elt 0 "foo" ; Elt 1 "bar" }
            { PACK })
      (Pair (Some "edsigthTzJ8X7MPmNeEwybRAvdxS1pupqcM5Mk4uCuyZAe7uEk68YpuGDeViW8wSXMrCi5CwoNgqs8V2w8ayB5dMJzrYCHhD8C7")
            { Unit }
            { True }
            (Pair 19 10)
            (Left "tz1cxcwwnzENRdhe2Kb8ZdTrdNy4bFNyScx5")
            { Elt 0 "foo" ; Elt 1 "bar" }
            { PACK }) ]
  - location: 117 (remaining gas: 1039167.433 units remaining)
    [ (Some "edsigthTzJ8X7MPmNeEwybRAvdxS1pupqcM5Mk4uCuyZAe7uEk68YpuGDeViW8wSXMrCi5CwoNgqs8V2w8ayB5dMJzrYCHhD8C7")
      (Pair (Some "edsigthTzJ8X7MPmNeEwybRAvdxS1pupqcM5Mk4uCuyZAe7uEk68YpuGDeViW8wSXMrCi5CwoNgqs8V2w8ayB5dMJzrYCHhD8C7")
            { Unit }
            { True }
            (Pair 19 10)
            (Left "tz1cxcwwnzENRdhe2Kb8ZdTrdNy4bFNyScx5")
            { Elt 0 "foo" ; Elt 1 "bar" }
            { PACK }) ]
  - location: 118 (remaining gas: 1039167.433 units remaining)
    [ (Pair (Some "edsigthTzJ8X7MPmNeEwybRAvdxS1pupqcM5Mk4uCuyZAe7uEk68YpuGDeViW8wSXMrCi5CwoNgqs8V2w8ayB5dMJzrYCHhD8C7")
            { Unit }
            { True }
            (Pair 19 10)
            (Left "tz1cxcwwnzENRdhe2Kb8ZdTrdNy4bFNyScx5")
            { Elt 0 "foo" ; Elt 1 "bar" }
            { PACK }) ]
  - location: 120 (remaining gas: 1039167.423 units remaining)
    [ (Some "edsigthTzJ8X7MPmNeEwybRAvdxS1pupqcM5Mk4uCuyZAe7uEk68YpuGDeViW8wSXMrCi5CwoNgqs8V2w8ayB5dMJzrYCHhD8C7")
      (Pair { Unit }
            { True }
            (Pair 19 10)
            (Left "tz1cxcwwnzENRdhe2Kb8ZdTrdNy4bFNyScx5")
            { Elt 0 "foo" ; Elt 1 "bar" }
            { PACK }) ]
  - location: 118 (remaining gas: 1039167.398 units remaining)
    [ (Some "edsigthTzJ8X7MPmNeEwybRAvdxS1pupqcM5Mk4uCuyZAe7uEk68YpuGDeViW8wSXMrCi5CwoNgqs8V2w8ayB5dMJzrYCHhD8C7")
      (Some "edsigthTzJ8X7MPmNeEwybRAvdxS1pupqcM5Mk4uCuyZAe7uEk68YpuGDeViW8wSXMrCi5CwoNgqs8V2w8ayB5dMJzrYCHhD8C7")
      (Pair { Unit }
            { True }
            (Pair 19 10)
            (Left "tz1cxcwwnzENRdhe2Kb8ZdTrdNy4bFNyScx5")
            { Elt 0 "foo" ; Elt 1 "bar" }
            { PACK }) ]
  - location: 121 (remaining gas: 1039166.281 units remaining)
    [ 0x0505090a0000004049d47dba27bd76208b092f3e500f64818920c817491b8b9094f28c2c2b9c6721b257b8878ce47182122b8ea84aeacd84a8aa28cb1f1fe48a26355a7bca4b8306
      (Some "edsigthTzJ8X7MPmNeEwybRAvdxS1pupqcM5Mk4uCuyZAe7uEk68YpuGDeViW8wSXMrCi5CwoNgqs8V2w8ayB5dMJzrYCHhD8C7")
      (Pair { Unit }
            { True }
            (Pair 19 10)
            (Left "tz1cxcwwnzENRdhe2Kb8ZdTrdNy4bFNyScx5")
            { Elt 0 "foo" ; Elt 1 "bar" }
            { PACK }) ]
  - location: 122 (remaining gas: 1039166.281 units remaining)
    [ (Some "edsigthTzJ8X7MPmNeEwybRAvdxS1pupqcM5Mk4uCuyZAe7uEk68YpuGDeViW8wSXMrCi5CwoNgqs8V2w8ayB5dMJzrYCHhD8C7")
      (Pair { Unit }
            { True }
            (Pair 19 10)
            (Left "tz1cxcwwnzENRdhe2Kb8ZdTrdNy4bFNyScx5")
            { Elt 0 "foo" ; Elt 1 "bar" }
            { PACK }) ]
  - location: 124 (remaining gas: 1039165.164 units remaining)
    [ 0x0505090a0000004049d47dba27bd76208b092f3e500f64818920c817491b8b9094f28c2c2b9c6721b257b8878ce47182122b8ea84aeacd84a8aa28cb1f1fe48a26355a7bca4b8306
      (Pair { Unit }
            { True }
            (Pair 19 10)
            (Left "tz1cxcwwnzENRdhe2Kb8ZdTrdNy4bFNyScx5")
            { Elt 0 "foo" ; Elt 1 "bar" }
            { PACK }) ]
  - location: 125 (remaining gas: 1039163.193 units remaining)
    [ (Some (Some "sigXeXB5JD5TaLb3xgTPKjgf9W45judiCmNP9UBdZBdmtHSGBxL1M8ZSUb6LpjGP2MdfUBTB4WHs5APnvyRV1LooU6QHJuDe"))
      (Pair { Unit }
            { True }
            (Pair 19 10)
            (Left "tz1cxcwwnzENRdhe2Kb8ZdTrdNy4bFNyScx5")
            { Elt 0 "foo" ; Elt 1 "bar" }
            { PACK }) ]
  - location: 129 (remaining gas: 1039163.193 units remaining)
    [ (Some "sigXeXB5JD5TaLb3xgTPKjgf9W45judiCmNP9UBdZBdmtHSGBxL1M8ZSUb6LpjGP2MdfUBTB4WHs5APnvyRV1LooU6QHJuDe")
      (Pair { Unit }
            { True }
            (Pair 19 10)
            (Left "tz1cxcwwnzENRdhe2Kb8ZdTrdNy4bFNyScx5")
            { Elt 0 "foo" ; Elt 1 "bar" }
            { PACK }) ]
  - location: 129 (remaining gas: 1039163.178 units remaining)
    [ (Some "sigXeXB5JD5TaLb3xgTPKjgf9W45judiCmNP9UBdZBdmtHSGBxL1M8ZSUb6LpjGP2MdfUBTB4WHs5APnvyRV1LooU6QHJuDe")
      (Pair { Unit }
            { True }
            (Pair 19 10)
            (Left "tz1cxcwwnzENRdhe2Kb8ZdTrdNy4bFNyScx5")
            { Elt 0 "foo" ; Elt 1 "bar" }
            { PACK }) ]
  - location: 135 (remaining gas: 1039162.061 units remaining)
    [ 0x0505090a0000004049d47dba27bd76208b092f3e500f64818920c817491b8b9094f28c2c2b9c6721b257b8878ce47182122b8ea84aeacd84a8aa28cb1f1fe48a26355a7bca4b8306
      (Pair { Unit }
            { True }
            (Pair 19 10)
            (Left "tz1cxcwwnzENRdhe2Kb8ZdTrdNy4bFNyScx5")
            { Elt 0 "foo" ; Elt 1 "bar" }
            { PACK }) ]
  - location: 122 (remaining gas: 1039162.036 units remaining)
    [ 0x0505090a0000004049d47dba27bd76208b092f3e500f64818920c817491b8b9094f28c2c2b9c6721b257b8878ce47182122b8ea84aeacd84a8aa28cb1f1fe48a26355a7bca4b8306
      0x0505090a0000004049d47dba27bd76208b092f3e500f64818920c817491b8b9094f28c2c2b9c6721b257b8878ce47182122b8ea84aeacd84a8aa28cb1f1fe48a26355a7bca4b8306
      (Pair { Unit }
            { True }
            (Pair 19 10)
            (Left "tz1cxcwwnzENRdhe2Kb8ZdTrdNy4bFNyScx5")
            { Elt 0 "foo" ; Elt 1 "bar" }
            { PACK }) ]
  - location: 138 (remaining gas: 1039162 units remaining)
    [ 0
      (Pair { Unit }
            { True }
            (Pair 19 10)
            (Left "tz1cxcwwnzENRdhe2Kb8ZdTrdNy4bFNyScx5")
            { Elt 0 "foo" ; Elt 1 "bar" }
            { PACK }) ]
  - location: 139 (remaining gas: 1039161.990 units remaining)
    [ True
      (Pair { Unit }
            { True }
            (Pair 19 10)
            (Left "tz1cxcwwnzENRdhe2Kb8ZdTrdNy4bFNyScx5")
            { Elt 0 "foo" ; Elt 1 "bar" }
            { PACK }) ]
  - location: 140 (remaining gas: 1039161.990 units remaining)
    [ (Pair { Unit }
            { True }
            (Pair 19 10)
            (Left "tz1cxcwwnzENRdhe2Kb8ZdTrdNy4bFNyScx5")
            { Elt 0 "foo" ; Elt 1 "bar" }
            { PACK }) ]
  - location: 140 (remaining gas: 1039161.975 units remaining)
    [ (Pair { Unit }
            { True }
            (Pair 19 10)
            (Left "tz1cxcwwnzENRdhe2Kb8ZdTrdNy4bFNyScx5")
            { Elt 0 "foo" ; Elt 1 "bar" }
            { PACK }) ]
  - location: 146 (remaining gas: 1039161.965 units remaining)
    [ (Pair { Unit }
            { True }
            (Pair 19 10)
            (Left "tz1cxcwwnzENRdhe2Kb8ZdTrdNy4bFNyScx5")
            { Elt 0 "foo" ; Elt 1 "bar" }
            { PACK })
      (Pair { Unit }
            { True }
            (Pair 19 10)
            (Left "tz1cxcwwnzENRdhe2Kb8ZdTrdNy4bFNyScx5")
            { Elt 0 "foo" ; Elt 1 "bar" }
            { PACK }) ]
  - location: 147 (remaining gas: 1039161.955 units remaining)
    [ { Unit }
      (Pair { Unit }
            { True }
            (Pair 19 10)
            (Left "tz1cxcwwnzENRdhe2Kb8ZdTrdNy4bFNyScx5")
            { Elt 0 "foo" ; Elt 1 "bar" }
            { PACK }) ]
  - location: 148 (remaining gas: 1039161.955 units remaining)
    [ (Pair { Unit }
            { True }
            (Pair 19 10)
            (Left "tz1cxcwwnzENRdhe2Kb8ZdTrdNy4bFNyScx5")
            { Elt 0 "foo" ; Elt 1 "bar" }
            { PACK }) ]
  - location: 150 (remaining gas: 1039161.945 units remaining)
    [ { Unit }
      (Pair { True }
            (Pair 19 10)
            (Left "tz1cxcwwnzENRdhe2Kb8ZdTrdNy4bFNyScx5")
            { Elt 0 "foo" ; Elt 1 "bar" }
            { PACK }) ]
  - location: 148 (remaining gas: 1039161.920 units remaining)
    [ { Unit }
      { Unit }
      (Pair { True }
            (Pair 19 10)
            (Left "tz1cxcwwnzENRdhe2Kb8ZdTrdNy4bFNyScx5")
            { Elt 0 "foo" ; Elt 1 "bar" }
            { PACK }) ]
  - location: 151 (remaining gas: 1039161.488 units remaining)
    [ 0x050200000002030b
      { Unit }
      (Pair { True }
            (Pair 19 10)
            (Left "tz1cxcwwnzENRdhe2Kb8ZdTrdNy4bFNyScx5")
            { Elt 0 "foo" ; Elt 1 "bar" }
            { PACK }) ]
  - location: 152 (remaining gas: 1039161.488 units remaining)
    [ { Unit }
      (Pair { True }
            (Pair 19 10)
            (Left "tz1cxcwwnzENRdhe2Kb8ZdTrdNy4bFNyScx5")
            { Elt 0 "foo" ; Elt 1 "bar" }
            { PACK }) ]
  - location: 154 (remaining gas: 1039161.056 units remaining)
    [ 0x050200000002030b
      (Pair { True }
            (Pair 19 10)
            (Left "tz1cxcwwnzENRdhe2Kb8ZdTrdNy4bFNyScx5")
            { Elt 0 "foo" ; Elt 1 "bar" }
            { PACK }) ]
  - location: 155 (remaining gas: 1039160.432 units remaining)
    [ (Some { Unit })
      (Pair { True }
            (Pair 19 10)
            (Left "tz1cxcwwnzENRdhe2Kb8ZdTrdNy4bFNyScx5")
            { Elt 0 "foo" ; Elt 1 "bar" }
            { PACK }) ]
  - location: 159 (remaining gas: 1039160.432 units remaining)
    [ { Unit }
      (Pair { True }
            (Pair 19 10)
            (Left "tz1cxcwwnzENRdhe2Kb8ZdTrdNy4bFNyScx5")
            { Elt 0 "foo" ; Elt 1 "bar" }
            { PACK }) ]
  - location: 159 (remaining gas: 1039160.417 units remaining)
    [ { Unit }
      (Pair { True }
            (Pair 19 10)
            (Left "tz1cxcwwnzENRdhe2Kb8ZdTrdNy4bFNyScx5")
            { Elt 0 "foo" ; Elt 1 "bar" }
            { PACK }) ]
  - location: 165 (remaining gas: 1039159.985 units remaining)
    [ 0x050200000002030b
      (Pair { True }
            (Pair 19 10)
            (Left "tz1cxcwwnzENRdhe2Kb8ZdTrdNy4bFNyScx5")
            { Elt 0 "foo" ; Elt 1 "bar" }
            { PACK }) ]
  - location: 152 (remaining gas: 1039159.960 units remaining)
    [ 0x050200000002030b
      0x050200000002030b
      (Pair { True }
            (Pair 19 10)
            (Left "tz1cxcwwnzENRdhe2Kb8ZdTrdNy4bFNyScx5")
            { Elt 0 "foo" ; Elt 1 "bar" }
            { PACK }) ]
  - location: 168 (remaining gas: 1039159.925 units remaining)
    [ 0
      (Pair { True }
            (Pair 19 10)
            (Left "tz1cxcwwnzENRdhe2Kb8ZdTrdNy4bFNyScx5")
            { Elt 0 "foo" ; Elt 1 "bar" }
            { PACK }) ]
  - location: 169 (remaining gas: 1039159.915 units remaining)
    [ True
      (Pair { True }
            (Pair 19 10)
            (Left "tz1cxcwwnzENRdhe2Kb8ZdTrdNy4bFNyScx5")
            { Elt 0 "foo" ; Elt 1 "bar" }
            { PACK }) ]
  - location: 170 (remaining gas: 1039159.915 units remaining)
    [ (Pair { True }
            (Pair 19 10)
            (Left "tz1cxcwwnzENRdhe2Kb8ZdTrdNy4bFNyScx5")
            { Elt 0 "foo" ; Elt 1 "bar" }
            { PACK }) ]
  - location: 170 (remaining gas: 1039159.900 units remaining)
    [ (Pair { True }
            (Pair 19 10)
            (Left "tz1cxcwwnzENRdhe2Kb8ZdTrdNy4bFNyScx5")
            { Elt 0 "foo" ; Elt 1 "bar" }
            { PACK }) ]
  - location: 176 (remaining gas: 1039159.890 units remaining)
    [ (Pair { True }
            (Pair 19 10)
            (Left "tz1cxcwwnzENRdhe2Kb8ZdTrdNy4bFNyScx5")
            { Elt 0 "foo" ; Elt 1 "bar" }
            { PACK })
      (Pair { True }
            (Pair 19 10)
            (Left "tz1cxcwwnzENRdhe2Kb8ZdTrdNy4bFNyScx5")
            { Elt 0 "foo" ; Elt 1 "bar" }
            { PACK }) ]
  - location: 177 (remaining gas: 1039159.880 units remaining)
    [ { True }
      (Pair { True }
            (Pair 19 10)
            (Left "tz1cxcwwnzENRdhe2Kb8ZdTrdNy4bFNyScx5")
            { Elt 0 "foo" ; Elt 1 "bar" }
            { PACK }) ]
  - location: 178 (remaining gas: 1039159.880 units remaining)
    [ (Pair { True }
            (Pair 19 10)
            (Left "tz1cxcwwnzENRdhe2Kb8ZdTrdNy4bFNyScx5")
            { Elt 0 "foo" ; Elt 1 "bar" }
            { PACK }) ]
  - location: 180 (remaining gas: 1039159.870 units remaining)
    [ { True }
      (Pair (Pair 19 10)
            (Left "tz1cxcwwnzENRdhe2Kb8ZdTrdNy4bFNyScx5")
            { Elt 0 "foo" ; Elt 1 "bar" }
            { PACK }) ]
  - location: 178 (remaining gas: 1039159.845 units remaining)
    [ { True }
      { True }
      (Pair (Pair 19 10)
            (Left "tz1cxcwwnzENRdhe2Kb8ZdTrdNy4bFNyScx5")
            { Elt 0 "foo" ; Elt 1 "bar" }
            { PACK }) ]
  - location: 181 (remaining gas: 1039159.413 units remaining)
    [ 0x050200000002030a
      { True }
      (Pair (Pair 19 10)
            (Left "tz1cxcwwnzENRdhe2Kb8ZdTrdNy4bFNyScx5")
            { Elt 0 "foo" ; Elt 1 "bar" }
            { PACK }) ]
  - location: 182 (remaining gas: 1039159.413 units remaining)
    [ { True }
      (Pair (Pair 19 10)
            (Left "tz1cxcwwnzENRdhe2Kb8ZdTrdNy4bFNyScx5")
            { Elt 0 "foo" ; Elt 1 "bar" }
            { PACK }) ]
  - location: 184 (remaining gas: 1039158.981 units remaining)
    [ 0x050200000002030a
      (Pair (Pair 19 10)
            (Left "tz1cxcwwnzENRdhe2Kb8ZdTrdNy4bFNyScx5")
            { Elt 0 "foo" ; Elt 1 "bar" }
            { PACK }) ]
  - location: 185 (remaining gas: 1039158.225 units remaining)
    [ (Some { True })
      (Pair (Pair 19 10)
            (Left "tz1cxcwwnzENRdhe2Kb8ZdTrdNy4bFNyScx5")
            { Elt 0 "foo" ; Elt 1 "bar" }
            { PACK }) ]
  - location: 189 (remaining gas: 1039158.225 units remaining)
    [ { True }
      (Pair (Pair 19 10)
            (Left "tz1cxcwwnzENRdhe2Kb8ZdTrdNy4bFNyScx5")
            { Elt 0 "foo" ; Elt 1 "bar" }
            { PACK }) ]
  - location: 189 (remaining gas: 1039158.210 units remaining)
    [ { True }
      (Pair (Pair 19 10)
            (Left "tz1cxcwwnzENRdhe2Kb8ZdTrdNy4bFNyScx5")
            { Elt 0 "foo" ; Elt 1 "bar" }
            { PACK }) ]
  - location: 195 (remaining gas: 1039157.778 units remaining)
    [ 0x050200000002030a
      (Pair (Pair 19 10)
            (Left "tz1cxcwwnzENRdhe2Kb8ZdTrdNy4bFNyScx5")
            { Elt 0 "foo" ; Elt 1 "bar" }
            { PACK }) ]
  - location: 182 (remaining gas: 1039157.753 units remaining)
    [ 0x050200000002030a
      0x050200000002030a
      (Pair (Pair 19 10)
            (Left "tz1cxcwwnzENRdhe2Kb8ZdTrdNy4bFNyScx5")
            { Elt 0 "foo" ; Elt 1 "bar" }
            { PACK }) ]
  - location: 198 (remaining gas: 1039157.718 units remaining)
    [ 0
      (Pair (Pair 19 10)
            (Left "tz1cxcwwnzENRdhe2Kb8ZdTrdNy4bFNyScx5")
            { Elt 0 "foo" ; Elt 1 "bar" }
            { PACK }) ]
  - location: 199 (remaining gas: 1039157.708 units remaining)
    [ True
      (Pair (Pair 19 10)
            (Left "tz1cxcwwnzENRdhe2Kb8ZdTrdNy4bFNyScx5")
            { Elt 0 "foo" ; Elt 1 "bar" }
            { PACK }) ]
  - location: 200 (remaining gas: 1039157.708 units remaining)
    [ (Pair (Pair 19 10)
            (Left "tz1cxcwwnzENRdhe2Kb8ZdTrdNy4bFNyScx5")
            { Elt 0 "foo" ; Elt 1 "bar" }
            { PACK }) ]
  - location: 200 (remaining gas: 1039157.693 units remaining)
    [ (Pair (Pair 19 10)
            (Left "tz1cxcwwnzENRdhe2Kb8ZdTrdNy4bFNyScx5")
            { Elt 0 "foo" ; Elt 1 "bar" }
            { PACK }) ]
  - location: 206 (remaining gas: 1039157.683 units remaining)
    [ (Pair (Pair 19 10)
            (Left "tz1cxcwwnzENRdhe2Kb8ZdTrdNy4bFNyScx5")
            { Elt 0 "foo" ; Elt 1 "bar" }
            { PACK })
      (Pair (Pair 19 10)
            (Left "tz1cxcwwnzENRdhe2Kb8ZdTrdNy4bFNyScx5")
            { Elt 0 "foo" ; Elt 1 "bar" }
            { PACK }) ]
  - location: 207 (remaining gas: 1039157.673 units remaining)
    [ (Pair 19 10)
      (Pair (Pair 19 10)
            (Left "tz1cxcwwnzENRdhe2Kb8ZdTrdNy4bFNyScx5")
            { Elt 0 "foo" ; Elt 1 "bar" }
            { PACK }) ]
  - location: 208 (remaining gas: 1039157.673 units remaining)
    [ (Pair (Pair 19 10)
            (Left "tz1cxcwwnzENRdhe2Kb8ZdTrdNy4bFNyScx5")
            { Elt 0 "foo" ; Elt 1 "bar" }
            { PACK }) ]
  - location: 210 (remaining gas: 1039157.663 units remaining)
    [ (Pair 19 10)
      (Pair (Left "tz1cxcwwnzENRdhe2Kb8ZdTrdNy4bFNyScx5")
            { Elt 0 "foo" ; Elt 1 "bar" }
            { PACK }) ]
  - location: 208 (remaining gas: 1039157.638 units remaining)
    [ (Pair 19 10)
      (Pair 19 10)
      (Pair (Left "tz1cxcwwnzENRdhe2Kb8ZdTrdNy4bFNyScx5")
            { Elt 0 "foo" ; Elt 1 "bar" }
            { PACK }) ]
  - location: 211 (remaining gas: 1039156.940 units remaining)
    [ 0x0507070013000a
      (Pair 19 10)
      (Pair (Left "tz1cxcwwnzENRdhe2Kb8ZdTrdNy4bFNyScx5")
            { Elt 0 "foo" ; Elt 1 "bar" }
            { PACK }) ]
  - location: 212 (remaining gas: 1039156.940 units remaining)
    [ (Pair 19 10)
      (Pair (Left "tz1cxcwwnzENRdhe2Kb8ZdTrdNy4bFNyScx5")
            { Elt 0 "foo" ; Elt 1 "bar" }
            { PACK }) ]
  - location: 214 (remaining gas: 1039156.242 units remaining)
    [ 0x0507070013000a
      (Pair (Left "tz1cxcwwnzENRdhe2Kb8ZdTrdNy4bFNyScx5")
            { Elt 0 "foo" ; Elt 1 "bar" }
            { PACK }) ]
  - location: 215 (remaining gas: 1039155.539 units remaining)
    [ (Some (Pair 19 10))
      (Pair (Left "tz1cxcwwnzENRdhe2Kb8ZdTrdNy4bFNyScx5")
            { Elt 0 "foo" ; Elt 1 "bar" }
            { PACK }) ]
  - location: 220 (remaining gas: 1039155.539 units remaining)
    [ (Pair 19 10)
      (Pair (Left "tz1cxcwwnzENRdhe2Kb8ZdTrdNy4bFNyScx5")
            { Elt 0 "foo" ; Elt 1 "bar" }
            { PACK }) ]
  - location: 220 (remaining gas: 1039155.524 units remaining)
    [ (Pair 19 10)
      (Pair (Left "tz1cxcwwnzENRdhe2Kb8ZdTrdNy4bFNyScx5")
            { Elt 0 "foo" ; Elt 1 "bar" }
            { PACK }) ]
  - location: 226 (remaining gas: 1039154.826 units remaining)
    [ 0x0507070013000a
      (Pair (Left "tz1cxcwwnzENRdhe2Kb8ZdTrdNy4bFNyScx5")
            { Elt 0 "foo" ; Elt 1 "bar" }
            { PACK }) ]
  - location: 212 (remaining gas: 1039154.801 units remaining)
    [ 0x0507070013000a
      0x0507070013000a
      (Pair (Left "tz1cxcwwnzENRdhe2Kb8ZdTrdNy4bFNyScx5")
            { Elt 0 "foo" ; Elt 1 "bar" }
            { PACK }) ]
  - location: 229 (remaining gas: 1039154.766 units remaining)
    [ 0
      (Pair (Left "tz1cxcwwnzENRdhe2Kb8ZdTrdNy4bFNyScx5")
            { Elt 0 "foo" ; Elt 1 "bar" }
            { PACK }) ]
  - location: 230 (remaining gas: 1039154.756 units remaining)
    [ True
      (Pair (Left "tz1cxcwwnzENRdhe2Kb8ZdTrdNy4bFNyScx5")
            { Elt 0 "foo" ; Elt 1 "bar" }
            { PACK }) ]
  - location: 231 (remaining gas: 1039154.756 units remaining)
    [ (Pair (Left "tz1cxcwwnzENRdhe2Kb8ZdTrdNy4bFNyScx5")
            { Elt 0 "foo" ; Elt 1 "bar" }
            { PACK }) ]
  - location: 231 (remaining gas: 1039154.741 units remaining)
    [ (Pair (Left "tz1cxcwwnzENRdhe2Kb8ZdTrdNy4bFNyScx5")
            { Elt 0 "foo" ; Elt 1 "bar" }
            { PACK }) ]
  - location: 237 (remaining gas: 1039154.731 units remaining)
    [ (Pair (Left "tz1cxcwwnzENRdhe2Kb8ZdTrdNy4bFNyScx5")
            { Elt 0 "foo" ; Elt 1 "bar" }
            { PACK })
      (Pair (Left "tz1cxcwwnzENRdhe2Kb8ZdTrdNy4bFNyScx5")
            { Elt 0 "foo" ; Elt 1 "bar" }
            { PACK }) ]
  - location: 238 (remaining gas: 1039154.721 units remaining)
    [ (Left "tz1cxcwwnzENRdhe2Kb8ZdTrdNy4bFNyScx5")
      (Pair (Left "tz1cxcwwnzENRdhe2Kb8ZdTrdNy4bFNyScx5")
            { Elt 0 "foo" ; Elt 1 "bar" }
            { PACK }) ]
  - location: 239 (remaining gas: 1039154.721 units remaining)
    [ (Pair (Left "tz1cxcwwnzENRdhe2Kb8ZdTrdNy4bFNyScx5")
            { Elt 0 "foo" ; Elt 1 "bar" }
            { PACK }) ]
  - location: 241 (remaining gas: 1039154.711 units remaining)
    [ (Left "tz1cxcwwnzENRdhe2Kb8ZdTrdNy4bFNyScx5")
      (Pair { Elt 0 "foo" ; Elt 1 "bar" } { PACK }) ]
  - location: 239 (remaining gas: 1039154.686 units remaining)
    [ (Left "tz1cxcwwnzENRdhe2Kb8ZdTrdNy4bFNyScx5")
      (Left "tz1cxcwwnzENRdhe2Kb8ZdTrdNy4bFNyScx5")
      (Pair { Elt 0 "foo" ; Elt 1 "bar" } { PACK }) ]
  - location: 242 (remaining gas: 1039153.974 units remaining)
    [ 0x0505050a0000001500bdfe3885e846fdea23c9acbe3bb1cfcca9c03e4a
      (Left "tz1cxcwwnzENRdhe2Kb8ZdTrdNy4bFNyScx5")
      (Pair { Elt 0 "foo" ; Elt 1 "bar" } { PACK }) ]
  - location: 243 (remaining gas: 1039153.974 units remaining)
    [ (Left "tz1cxcwwnzENRdhe2Kb8ZdTrdNy4bFNyScx5")
      (Pair { Elt 0 "foo" ; Elt 1 "bar" } { PACK }) ]
  - location: 245 (remaining gas: 1039153.262 units remaining)
    [ 0x0505050a0000001500bdfe3885e846fdea23c9acbe3bb1cfcca9c03e4a
      (Pair { Elt 0 "foo" ; Elt 1 "bar" } { PACK }) ]
  - location: 246 (remaining gas: 1039152.158 units remaining)
    [ (Some (Left "tz1cxcwwnzENRdhe2Kb8ZdTrdNy4bFNyScx5"))
      (Pair { Elt 0 "foo" ; Elt 1 "bar" } { PACK }) ]
  - location: 251 (remaining gas: 1039152.158 units remaining)
    [ (Left "tz1cxcwwnzENRdhe2Kb8ZdTrdNy4bFNyScx5")
      (Pair { Elt 0 "foo" ; Elt 1 "bar" } { PACK }) ]
  - location: 251 (remaining gas: 1039152.143 units remaining)
    [ (Left "tz1cxcwwnzENRdhe2Kb8ZdTrdNy4bFNyScx5")
      (Pair { Elt 0 "foo" ; Elt 1 "bar" } { PACK }) ]
  - location: 257 (remaining gas: 1039151.431 units remaining)
    [ 0x0505050a0000001500bdfe3885e846fdea23c9acbe3bb1cfcca9c03e4a
      (Pair { Elt 0 "foo" ; Elt 1 "bar" } { PACK }) ]
  - location: 243 (remaining gas: 1039151.406 units remaining)
    [ 0x0505050a0000001500bdfe3885e846fdea23c9acbe3bb1cfcca9c03e4a
      0x0505050a0000001500bdfe3885e846fdea23c9acbe3bb1cfcca9c03e4a
      (Pair { Elt 0 "foo" ; Elt 1 "bar" } { PACK }) ]
  - location: 260 (remaining gas: 1039151.371 units remaining)
    [ 0
      (Pair { Elt 0 "foo" ; Elt 1 "bar" } { PACK }) ]
  - location: 261 (remaining gas: 1039151.361 units remaining)
    [ True
      (Pair { Elt 0 "foo" ; Elt 1 "bar" } { PACK }) ]
  - location: 262 (remaining gas: 1039151.361 units remaining)
    [ (Pair { Elt 0 "foo" ; Elt 1 "bar" } { PACK }) ]
  - location: 262 (remaining gas: 1039151.346 units remaining)
    [ (Pair { Elt 0 "foo" ; Elt 1 "bar" } { PACK }) ]
  - location: 268 (remaining gas: 1039151.336 units remaining)
    [ (Pair { Elt 0 "foo" ; Elt 1 "bar" } { PACK })
      (Pair { Elt 0 "foo" ; Elt 1 "bar" } { PACK }) ]
  - location: 269 (remaining gas: 1039151.326 units remaining)
    [ { Elt 0 "foo" ; Elt 1 "bar" }
      (Pair { Elt 0 "foo" ; Elt 1 "bar" } { PACK }) ]
  - location: 270 (remaining gas: 1039151.326 units remaining)
    [ (Pair { Elt 0 "foo" ; Elt 1 "bar" } { PACK }) ]
  - location: 272 (remaining gas: 1039151.316 units remaining)
    [ { Elt 0 "foo" ; Elt 1 "bar" }
      { PACK } ]
  - location: 270 (remaining gas: 1039151.291 units remaining)
    [ { Elt 0 "foo" ; Elt 1 "bar" }
      { Elt 0 "foo" ; Elt 1 "bar" }
      { PACK } ]
  - location: 273 (remaining gas: 1039149.824 units remaining)
    [ 0x050200000018070400000100000003666f6f070400010100000003626172
      { Elt 0 "foo" ; Elt 1 "bar" }
      { PACK } ]
  - location: 274 (remaining gas: 1039149.824 units remaining)
    [ { Elt 0 "foo" ; Elt 1 "bar" }
      { PACK } ]
  - location: 276 (remaining gas: 1039148.357 units remaining)
    [ 0x050200000018070400000100000003666f6f070400010100000003626172
      { PACK } ]
  - location: 277 (remaining gas: 1039146.699 units remaining)
    [ (Some { Elt 0 "foo" ; Elt 1 "bar" })
      { PACK } ]
  - location: 282 (remaining gas: 1039146.699 units remaining)
    [ { Elt 0 "foo" ; Elt 1 "bar" }
      { PACK } ]
  - location: 282 (remaining gas: 1039146.684 units remaining)
    [ { Elt 0 "foo" ; Elt 1 "bar" }
      { PACK } ]
  - location: 288 (remaining gas: 1039145.217 units remaining)
    [ 0x050200000018070400000100000003666f6f070400010100000003626172
      { PACK } ]
  - location: 274 (remaining gas: 1039145.192 units remaining)
    [ 0x050200000018070400000100000003666f6f070400010100000003626172
      0x050200000018070400000100000003666f6f070400010100000003626172
      { PACK } ]
  - location: 291 (remaining gas: 1039145.157 units remaining)
    [ 0
      { PACK } ]
  - location: 292 (remaining gas: 1039145.147 units remaining)
    [ True
      { PACK } ]
  - location: 293 (remaining gas: 1039145.147 units remaining)
    [ { PACK } ]
  - location: 293 (remaining gas: 1039145.132 units remaining)
    [ { PACK } ]
  - location: 299 (remaining gas: 1039145.122 units remaining)
    [ { PACK }
      { PACK } ]
  - location: 300 (remaining gas: 1039144.525 units remaining)
    [ 0x050200000002030c
      { PACK } ]
  - location: 301 (remaining gas: 1039144.525 units remaining)
    [ { PACK } ]
  - location: 303 (remaining gas: 1039143.928 units remaining)
    [ 0x050200000002030c ]
  - location: 304 (remaining gas: 1039142.904 units remaining)
    [ (Some { PACK }) ]
  - location: 309 (remaining gas: 1039142.904 units remaining)
    [ { PACK } ]
  - location: 309 (remaining gas: 1039142.889 units remaining)
    [ { PACK } ]
  - location: 315 (remaining gas: 1039142.292 units remaining)
    [ 0x050200000002030c ]
  - location: 301 (remaining gas: 1039142.267 units remaining)
    [ 0x050200000002030c
      0x050200000002030c ]
  - location: 318 (remaining gas: 1039142.232 units remaining)
    [ 0 ]
  - location: 319 (remaining gas: 1039142.222 units remaining)
    [ True ]
  - location: 320 (remaining gas: 1039142.222 units remaining)
    [  ]
  - location: 320 (remaining gas: 1039142.207 units remaining)
    [  ]
  - location: 326 (remaining gas: 1039142.197 units remaining)
    [ Unit ]
  - location: 327 (remaining gas: 1039142.187 units remaining)
    [ {}
      Unit ]
  - location: 329 (remaining gas: 1039142.177 units remaining)
    [ (Pair {} Unit) ]

