
./octez-client --protocol PtLimaPtLMwfNinJi9rCfDPWea8dFgTZ1MeJ9f1m2SRic6ayiwW --mode mockup --no-base-dir-warnings run script tests_python/contracts_015/opcodes/big_map_mem_nat.tz on storage '(Pair { Elt 1 4 ; Elt 2 11 } None)' and input 3 --level 1 --trace-stack
storage
  (Pair 4 (Some False))
emitted operations
  
big_map diff
  New map(4) of type (big_map nat nat)
  Set map(4)[1] to 4
  Set map(4)[2] to 11
trace
  - location: 12 (remaining gas: 1039988.162 units remaining)
    [ (Pair 3 { Elt 1 4 ; Elt 2 11 } None) ]
  - location: 12 (remaining gas: 1039988.152 units remaining)
    [ 3
      (Pair { Elt 1 4 ; Elt 2 11 } None) ]
  - location: 13 (remaining gas: 1039988.152 units remaining)
    [ (Pair { Elt 1 4 ; Elt 2 11 } None) ]
  - location: 15 (remaining gas: 1039988.142 units remaining)
    [ { Elt 1 4 ; Elt 2 11 } ]
  - location: 16 (remaining gas: 1039988.132 units remaining)
    [ { Elt 1 4 ; Elt 2 11 }
      { Elt 1 4 ; Elt 2 11 } ]
  - location: 13 (remaining gas: 1039988.107 units remaining)
    [ 3
      { Elt 1 4 ; Elt 2 11 }
      { Elt 1 4 ; Elt 2 11 } ]
  - location: 17 (remaining gas: 1039987.384 units remaining)
    [ False
      { Elt 1 4 ; Elt 2 11 } ]
  - location: 18 (remaining gas: 1039987.374 units remaining)
    [ (Some False)
      { Elt 1 4 ; Elt 2 11 } ]
  - location: 19 (remaining gas: 1039987.364 units remaining)
    [ { Elt 1 4 ; Elt 2 11 }
      (Some False) ]
  - location: 20 (remaining gas: 1039987.354 units remaining)
    [ (Pair { Elt 1 4 ; Elt 2 11 } (Some False)) ]
  - location: 21 (remaining gas: 1039987.344 units remaining)
    [ {}
      (Pair { Elt 1 4 ; Elt 2 11 } (Some False)) ]
  - location: 23 (remaining gas: 1039987.334 units remaining)
    [ (Pair {} { Elt 1 4 ; Elt 2 11 } (Some False)) ]

