
./octez-client --protocol PtLimaPtLMwfNinJi9rCfDPWea8dFgTZ1MeJ9f1m2SRic6ayiwW --mode mockup --no-base-dir-warnings run script tests_python/contracts_015/opcodes/get_and_update_map.tz on storage '(Pair None { Elt "1" 1 ; Elt "2" 2 })' and input '"2"' --level 1 --trace-stack
storage
  (Pair (Some 2) { Elt "1" 1 })
emitted operations
  
big_map diff
  
trace
  - location: 13 (remaining gas: 1039991.412 units remaining)
    [ (Pair "2" None { Elt "1" 1 ; Elt "2" 2 }) ]
  - location: 13 (remaining gas: 1039991.402 units remaining)
    [ "2"
      (Pair None { Elt "1" 1 ; Elt "2" 2 }) ]
  - location: 14 (remaining gas: 1039991.402 units remaining)
    [ (Pair None { Elt "1" 1 ; Elt "2" 2 }) ]
  - location: 16 (remaining gas: 1039991.392 units remaining)
    [ None
      { Elt "1" 1 ; Elt "2" 2 } ]
  - location: 14 (remaining gas: 1039991.367 units remaining)
    [ "2"
      None
      { Elt "1" 1 ; Elt "2" 2 } ]
  - location: 17 (remaining gas: 1039991.278 units remaining)
    [ (Some 2)
      { Elt "1" 1 } ]
  - location: 18 (remaining gas: 1039991.268 units remaining)
    [ (Pair (Some 2) { Elt "1" 1 }) ]
  - location: 19 (remaining gas: 1039991.258 units remaining)
    [ {}
      (Pair (Some 2) { Elt "1" 1 }) ]
  - location: 21 (remaining gas: 1039991.248 units remaining)
    [ (Pair {} (Some 2) { Elt "1" 1 }) ]

