
./octez-client --protocol PtLimaPtLMwfNinJi9rCfDPWea8dFgTZ1MeJ9f1m2SRic6ayiwW --mode mockup --no-base-dir-warnings run script tests_python/contracts_015/opcodes/list_id_map.tz on storage '{""}' and input '{ "a" ; "b" ; "c" }' --level 1 --trace-stack
storage
  { "a" ; "b" ; "c" }
emitted operations
  
big_map diff
  
trace
  - location: 9 (remaining gas: 1039994.553 units remaining)
    [ (Pair { "a" ; "b" ; "c" } { "" }) ]
  - location: 9 (remaining gas: 1039994.543 units remaining)
    [ { "a" ; "b" ; "c" } ]
  - location: 10 (remaining gas: 1039994.543 units remaining)
    [ "a" ]
  - location: 10 (remaining gas: 1039994.528 units remaining)
    [ "b" ]
  - location: 10 (remaining gas: 1039994.513 units remaining)
    [ "c" ]
  - location: 10 (remaining gas: 1039994.498 units remaining)
    [ { "a" ; "b" ; "c" } ]
  - location: 12 (remaining gas: 1039994.488 units remaining)
    [ {}
      { "a" ; "b" ; "c" } ]
  - location: 14 (remaining gas: 1039994.478 units remaining)
    [ (Pair {} { "a" ; "b" ; "c" }) ]

