
./octez-client --protocol PtLimaPtLMwfNinJi9rCfDPWea8dFgTZ1MeJ9f1m2SRic6ayiwW --mode mockup --no-base-dir-warnings run script tests_python/contracts_015/opcodes/diff_timestamps.tz on storage 111 and input '(Pair 1 0)' --level 1 --trace-stack
storage
  1
emitted operations
  
big_map diff
  
trace
  - location: 9 (remaining gas: 1039992.563 units remaining)
    [ (Pair (Pair "1970-01-01T00:00:01Z" "1970-01-01T00:00:00Z") 111) ]
  - location: 9 (remaining gas: 1039992.553 units remaining)
    [ (Pair "1970-01-01T00:00:01Z" "1970-01-01T00:00:00Z") ]
  - location: 10 (remaining gas: 1039992.543 units remaining)
    [ (Pair "1970-01-01T00:00:01Z" "1970-01-01T00:00:00Z")
      (Pair "1970-01-01T00:00:01Z" "1970-01-01T00:00:00Z") ]
  - location: 11 (remaining gas: 1039992.533 units remaining)
    [ "1970-01-01T00:00:01Z"
      (Pair "1970-01-01T00:00:01Z" "1970-01-01T00:00:00Z") ]
  - location: 12 (remaining gas: 1039992.533 units remaining)
    [ (Pair "1970-01-01T00:00:01Z" "1970-01-01T00:00:00Z") ]
  - location: 14 (remaining gas: 1039992.523 units remaining)
    [ "1970-01-01T00:00:00Z" ]
  - location: 12 (remaining gas: 1039992.498 units remaining)
    [ "1970-01-01T00:00:01Z"
      "1970-01-01T00:00:00Z" ]
  - location: 15 (remaining gas: 1039992.463 units remaining)
    [ 1 ]
  - location: 16 (remaining gas: 1039992.453 units remaining)
    [ {}
      1 ]
  - location: 18 (remaining gas: 1039992.443 units remaining)
    [ (Pair {} 1) ]

