
./octez-client --protocol PtLimaPtLMwfNinJi9rCfDPWea8dFgTZ1MeJ9f1m2SRic6ayiwW --mode mockup --no-base-dir-warnings run script tests_python/contracts_015/opcodes/bls12_381_fr_z_nat.tz on storage 0x8578be1766f92cd82c5e5135c374a03a8562e263ea953a3f9711b0153b7fcf2d and input 17180093072794558806177035834397932205917577288483739652510482486858834123369 --level 1 --trace-stack
storage
  0xfaa60dacea8e26112e524d379720fe4f95fbc5a26f1b1a67e229e26ddecbf221
emitted operations
  
big_map diff
  
trace
  - location: 7 (remaining gas: 1039995.613 units remaining)
    [ (Pair 17180093072794558806177035834397932205917577288483739652510482486858834123369
            0x8578be1766f92cd82c5e5135c374a03a8562e263ea953a3f9711b0153b7fcf2d) ]
  - location: 7 (remaining gas: 1039995.603 units remaining)
    [ 17180093072794558806177035834397932205917577288483739652510482486858834123369
      0x8578be1766f92cd82c5e5135c374a03a8562e263ea953a3f9711b0153b7fcf2d ]
  - location: 8 (remaining gas: 1039995.304 units remaining)
    [ 0xfaa60dacea8e26112e524d379720fe4f95fbc5a26f1b1a67e229e26ddecbf221 ]
  - location: 9 (remaining gas: 1039995.294 units remaining)
    [ {}
      0xfaa60dacea8e26112e524d379720fe4f95fbc5a26f1b1a67e229e26ddecbf221 ]
  - location: 11 (remaining gas: 1039995.284 units remaining)
    [ (Pair {} 0xfaa60dacea8e26112e524d379720fe4f95fbc5a26f1b1a67e229e26ddecbf221) ]

