
./octez-client --protocol PtLimaPtLMwfNinJi9rCfDPWea8dFgTZ1MeJ9f1m2SRic6ayiwW --mode mockup --no-base-dir-warnings run script tests_python/contracts_015/opcodes/bls12_381_z_fr_int.tz on storage 0x0100000000000000000000000000000000000000000000000000000000000000 and input 1 --level 1 --trace-stack
storage
  0x0100000000000000000000000000000000000000000000000000000000000000
emitted operations
  
big_map diff
  
trace
  - location: 7 (remaining gas: 1039995.060 units remaining)
    [ (Pair 1 0x0100000000000000000000000000000000000000000000000000000000000000) ]
  - location: 7 (remaining gas: 1039995.050 units remaining)
    [ 1
      0x0100000000000000000000000000000000000000000000000000000000000000 ]
  - location: 8 (remaining gas: 1039995.040 units remaining)
    [ 0x0100000000000000000000000000000000000000000000000000000000000000
      1 ]
  - location: 9 (remaining gas: 1039994.774 units remaining)
    [ 0x0100000000000000000000000000000000000000000000000000000000000000 ]
  - location: 10 (remaining gas: 1039994.764 units remaining)
    [ {}
      0x0100000000000000000000000000000000000000000000000000000000000000 ]
  - location: 12 (remaining gas: 1039994.754 units remaining)
    [ (Pair {} 0x0100000000000000000000000000000000000000000000000000000000000000) ]

