
./octez-client --protocol PtLimaPtLMwfNinJi9rCfDPWea8dFgTZ1MeJ9f1m2SRic6ayiwW --mode mockup --no-base-dir-warnings run script tests_python/contracts_015/opcodes/and_logical_1.tz on storage False and input '(Pair False True)' --level 1 --trace-stack
storage
  False
emitted operations
  
big_map diff
  
trace
  - location: 9 (remaining gas: 1039994.634 units remaining)
    [ (Pair (Pair False True) False) ]
  - location: 9 (remaining gas: 1039994.624 units remaining)
    [ (Pair False True) ]
  - location: 10 (remaining gas: 1039994.614 units remaining)
    [ False
      True ]
  - location: 11 (remaining gas: 1039994.604 units remaining)
    [ False ]
  - location: 12 (remaining gas: 1039994.594 units remaining)
    [ {}
      False ]
  - location: 14 (remaining gas: 1039994.584 units remaining)
    [ (Pair {} False) ]

