
./octez-client --protocol PtLimaPtLMwfNinJi9rCfDPWea8dFgTZ1MeJ9f1m2SRic6ayiwW --mode mockup --no-base-dir-warnings run script tests_python/contracts_015/opcodes/set_id.tz on storage '{}' and input '{ "a" ; "b" ; "c" }' --level 1 --trace-stack
storage
  { "a" ; "b" ; "c" }
emitted operations
  
big_map diff
  
trace
  - location: 9 (remaining gas: 1039995.081 units remaining)
    [ (Pair { "a" ; "b" ; "c" } {}) ]
  - location: 9 (remaining gas: 1039995.071 units remaining)
    [ { "a" ; "b" ; "c" } ]
  - location: 10 (remaining gas: 1039995.061 units remaining)
    [ {}
      { "a" ; "b" ; "c" } ]
  - location: 12 (remaining gas: 1039995.051 units remaining)
    [ (Pair {} { "a" ; "b" ; "c" }) ]

