
./octez-client --protocol PtLimaPtLMwfNinJi9rCfDPWea8dFgTZ1MeJ9f1m2SRic6ayiwW --mode mockup --no-base-dir-warnings run script tests_python/contracts_015/opcodes/exec_concat.tz on storage '"?"' and input '""' --level 1 --trace-stack
storage
  "_abc"
emitted operations
  
big_map diff
  
trace
  - location: 7 (remaining gas: 1039989.099 units remaining)
    [ (Pair "" "?") ]
  - location: 7 (remaining gas: 1039989.089 units remaining)
    [ "" ]
  - location: 8 (remaining gas: 1039989.079 units remaining)
    [ { PUSH string "_abc" ; NIL string ; SWAP ; CONS ; SWAP ; CONS ; CONCAT }
      "" ]
  - location: 22 (remaining gas: 1039989.069 units remaining)
    [ ""
      { PUSH string "_abc" ; NIL string ; SWAP ; CONS ; SWAP ; CONS ; CONCAT } ]
  - location: 12 (remaining gas: 1039989.059 units remaining)
    [ "_abc"
      "" ]
  - location: 15 (remaining gas: 1039989.049 units remaining)
    [ {}
      "_abc"
      "" ]
  - location: 17 (remaining gas: 1039989.039 units remaining)
    [ "_abc"
      {}
      "" ]
  - location: 18 (remaining gas: 1039989.029 units remaining)
    [ { "_abc" }
      "" ]
  - location: 19 (remaining gas: 1039989.019 units remaining)
    [ ""
      { "_abc" } ]
  - location: 20 (remaining gas: 1039989.009 units remaining)
    [ { "" ; "_abc" } ]
  - location: 21 (remaining gas: 1039988.887 units remaining)
    [ "_abc" ]
  - location: 23 (remaining gas: 1039988.862 units remaining)
    [ "_abc" ]
  - location: 24 (remaining gas: 1039988.852 units remaining)
    [ {}
      "_abc" ]
  - location: 26 (remaining gas: 1039988.842 units remaining)
    [ (Pair {} "_abc") ]

