
./octez-client --protocol PtLimaPtLMwfNinJi9rCfDPWea8dFgTZ1MeJ9f1m2SRic6ayiwW --mode mockup --no-base-dir-warnings run script tests_python/contracts_015/opcodes/slice.tz on storage 'Some "Foo"' and input 'Pair 0 10' --level 1 --trace-stack
storage
  None
emitted operations
  
big_map diff
  
trace
  - location: 10 (remaining gas: 1039990.658 units remaining)
    [ (Pair (Pair 0 10) (Some "Foo")) ]
  - location: 10 (remaining gas: 1039990.648 units remaining)
    [ (Pair 0 10)
      (Some "Foo") ]
  - location: 11 (remaining gas: 1039990.638 units remaining)
    [ (Some "Foo")
      (Pair 0 10) ]
  - location: 13 (remaining gas: 1039990.638 units remaining)
    [ "Foo"
      (Pair 0 10) ]
  - location: 19 (remaining gas: 1039990.628 units remaining)
    [ (Pair 0 10)
      "Foo" ]
  - location: 20 (remaining gas: 1039990.618 units remaining)
    [ 0
      10
      "Foo" ]
  - location: 21 (remaining gas: 1039990.592 units remaining)
    [ None ]
  - location: 13 (remaining gas: 1039990.577 units remaining)
    [ None ]
  - location: 22 (remaining gas: 1039990.567 units remaining)
    [ {}
      None ]
  - location: 24 (remaining gas: 1039990.557 units remaining)
    [ (Pair {} None) ]

