
./octez-client --protocol PtLimaPtLMwfNinJi9rCfDPWea8dFgTZ1MeJ9f1m2SRic6ayiwW --mode mockup --no-base-dir-warnings run script tests_python/contracts_015/opcodes/slice.tz on storage 'Some "Foo"' and input 'Pair 1 1' --level 1 --trace-stack
storage
  (Some "o")
emitted operations
  
big_map diff
  
trace
  - location: 10 (remaining gas: 1039990.658 units remaining)
    [ (Pair (Pair 1 1) (Some "Foo")) ]
  - location: 10 (remaining gas: 1039990.648 units remaining)
    [ (Pair 1 1)
      (Some "Foo") ]
  - location: 11 (remaining gas: 1039990.638 units remaining)
    [ (Some "Foo")
      (Pair 1 1) ]
  - location: 13 (remaining gas: 1039990.638 units remaining)
    [ "Foo"
      (Pair 1 1) ]
  - location: 19 (remaining gas: 1039990.628 units remaining)
    [ (Pair 1 1)
      "Foo" ]
  - location: 20 (remaining gas: 1039990.618 units remaining)
    [ 1
      1
      "Foo" ]
  - location: 21 (remaining gas: 1039990.592 units remaining)
    [ (Some "o") ]
  - location: 13 (remaining gas: 1039990.577 units remaining)
    [ (Some "o") ]
  - location: 22 (remaining gas: 1039990.567 units remaining)
    [ {}
      (Some "o") ]
  - location: 24 (remaining gas: 1039990.557 units remaining)
    [ (Pair {} (Some "o")) ]

