
./octez-client --protocol PtLimaPtLMwfNinJi9rCfDPWea8dFgTZ1MeJ9f1m2SRic6ayiwW --mode mockup --no-base-dir-warnings run script tests_python/contracts_015/opcodes/list_size.tz on storage 111 and input '{ 1 }' --level 1 --trace-stack
storage
  1
emitted operations
  
big_map diff
  
trace
  - location: 8 (remaining gas: 1039995.505 units remaining)
    [ (Pair { 1 } 111) ]
  - location: 8 (remaining gas: 1039995.495 units remaining)
    [ { 1 } ]
  - location: 9 (remaining gas: 1039995.485 units remaining)
    [ 1 ]
  - location: 10 (remaining gas: 1039995.475 units remaining)
    [ {}
      1 ]
  - location: 12 (remaining gas: 1039995.465 units remaining)
    [ (Pair {} 1) ]

