
./octez-client --protocol PtLimaPtLMwfNinJi9rCfDPWea8dFgTZ1MeJ9f1m2SRic6ayiwW --mode mockup --no-base-dir-warnings run script tests_python/contracts_015/opcodes/pexec_2.tz on storage '{ 0 ; 1 ; 2 ; 3}' and input 4 --level 1 --trace-stack
storage
  { 0 ; 7 ; 14 ; 21 }
emitted operations
  
big_map diff
  
trace
  - location: 8 (remaining gas: 1039982.991 units remaining)
    [ (Pair 4 { 0 ; 1 ; 2 ; 3 }) ]
  - location: 8 (remaining gas: 1039982.981 units remaining)
    [ 4
      { 0 ; 1 ; 2 ; 3 } ]
  - location: 9 (remaining gas: 1039982.971 units remaining)
    [ { UNPAIR ; DIP { UNPAIR } ; ADD ; MUL }
      4
      { 0 ; 1 ; 2 ; 3 } ]
  - location: 23 (remaining gas: 1039982.961 units remaining)
    [ 4
      { UNPAIR ; DIP { UNPAIR } ; ADD ; MUL }
      { 0 ; 1 ; 2 ; 3 } ]
  - location: 24 (remaining gas: 1039982.560 units remaining)
    [ { PUSH int 4 ; PAIR ; { UNPAIR ; DIP { UNPAIR } ; ADD ; MUL } }
      { 0 ; 1 ; 2 ; 3 } ]
  - location: 25 (remaining gas: 1039982.550 units remaining)
    [ 3
      { PUSH int 4 ; PAIR ; { UNPAIR ; DIP { UNPAIR } ; ADD ; MUL } }
      { 0 ; 1 ; 2 ; 3 } ]
  - location: 28 (remaining gas: 1039982.149 units remaining)
    [ { PUSH int 3 ;
        PAIR ;
        { PUSH int 4 ; PAIR ; { UNPAIR ; DIP { UNPAIR } ; ADD ; MUL } } }
      { 0 ; 1 ; 2 ; 3 } ]
  - location: 29 (remaining gas: 1039982.139 units remaining)
    [ { 0 ; 1 ; 2 ; 3 }
      { PUSH int 3 ;
        PAIR ;
        { PUSH int 4 ; PAIR ; { UNPAIR ; DIP { UNPAIR } ; ADD ; MUL } } } ]
  - location: 30 (remaining gas: 1039982.139 units remaining)
    [ 0
      { PUSH int 3 ;
        PAIR ;
        { PUSH int 4 ; PAIR ; { UNPAIR ; DIP { UNPAIR } ; ADD ; MUL } } } ]
  - location: 32 (remaining gas: 1039982.139 units remaining)
    [ { PUSH int 3 ;
        PAIR ;
        { PUSH int 4 ; PAIR ; { UNPAIR ; DIP { UNPAIR } ; ADD ; MUL } } } ]
  - location: 34 (remaining gas: 1039982.129 units remaining)
    [ { PUSH int 3 ;
        PAIR ;
        { PUSH int 4 ; PAIR ; { UNPAIR ; DIP { UNPAIR } ; ADD ; MUL } } }
      { PUSH int 3 ;
        PAIR ;
        { PUSH int 4 ; PAIR ; { UNPAIR ; DIP { UNPAIR } ; ADD ; MUL } } } ]
  - location: 32 (remaining gas: 1039982.104 units remaining)
    [ 0
      { PUSH int 3 ;
        PAIR ;
        { PUSH int 4 ; PAIR ; { UNPAIR ; DIP { UNPAIR } ; ADD ; MUL } } }
      { PUSH int 3 ;
        PAIR ;
        { PUSH int 4 ; PAIR ; { UNPAIR ; DIP { UNPAIR } ; ADD ; MUL } } } ]
  - location: 16 (remaining gas: 1039982.094 units remaining)
    [ 3
      0 ]
  - location: 16 (remaining gas: 1039982.084 units remaining)
    [ (Pair 3 0) ]
  - location: 16 (remaining gas: 1039982.074 units remaining)
    [ 4
      (Pair 3 0) ]
  - location: 16 (remaining gas: 1039982.064 units remaining)
    [ (Pair 4 3 0) ]
  - location: 17 (remaining gas: 1039982.054 units remaining)
    [ 4
      (Pair 3 0) ]
  - location: 18 (remaining gas: 1039982.054 units remaining)
    [ (Pair 3 0) ]
  - location: 20 (remaining gas: 1039982.044 units remaining)
    [ 3
      0 ]
  - location: 18 (remaining gas: 1039982.019 units remaining)
    [ 4
      3
      0 ]
  - location: 21 (remaining gas: 1039981.984 units remaining)
    [ 7
      0 ]
  - location: 22 (remaining gas: 1039981.928 units remaining)
    [ 0 ]
  - location: 35 (remaining gas: 1039981.903 units remaining)
    [ 0
      { PUSH int 3 ;
        PAIR ;
        { PUSH int 4 ; PAIR ; { UNPAIR ; DIP { UNPAIR } ; ADD ; MUL } } } ]
  - location: 30 (remaining gas: 1039981.888 units remaining)
    [ 1
      { PUSH int 3 ;
        PAIR ;
        { PUSH int 4 ; PAIR ; { UNPAIR ; DIP { UNPAIR } ; ADD ; MUL } } } ]
  - location: 32 (remaining gas: 1039981.888 units remaining)
    [ { PUSH int 3 ;
        PAIR ;
        { PUSH int 4 ; PAIR ; { UNPAIR ; DIP { UNPAIR } ; ADD ; MUL } } } ]
  - location: 34 (remaining gas: 1039981.878 units remaining)
    [ { PUSH int 3 ;
        PAIR ;
        { PUSH int 4 ; PAIR ; { UNPAIR ; DIP { UNPAIR } ; ADD ; MUL } } }
      { PUSH int 3 ;
        PAIR ;
        { PUSH int 4 ; PAIR ; { UNPAIR ; DIP { UNPAIR } ; ADD ; MUL } } } ]
  - location: 32 (remaining gas: 1039981.853 units remaining)
    [ 1
      { PUSH int 3 ;
        PAIR ;
        { PUSH int 4 ; PAIR ; { UNPAIR ; DIP { UNPAIR } ; ADD ; MUL } } }
      { PUSH int 3 ;
        PAIR ;
        { PUSH int 4 ; PAIR ; { UNPAIR ; DIP { UNPAIR } ; ADD ; MUL } } } ]
  - location: 16 (remaining gas: 1039981.843 units remaining)
    [ 3
      1 ]
  - location: 16 (remaining gas: 1039981.833 units remaining)
    [ (Pair 3 1) ]
  - location: 16 (remaining gas: 1039981.823 units remaining)
    [ 4
      (Pair 3 1) ]
  - location: 16 (remaining gas: 1039981.813 units remaining)
    [ (Pair 4 3 1) ]
  - location: 17 (remaining gas: 1039981.803 units remaining)
    [ 4
      (Pair 3 1) ]
  - location: 18 (remaining gas: 1039981.803 units remaining)
    [ (Pair 3 1) ]
  - location: 20 (remaining gas: 1039981.793 units remaining)
    [ 3
      1 ]
  - location: 18 (remaining gas: 1039981.768 units remaining)
    [ 4
      3
      1 ]
  - location: 21 (remaining gas: 1039981.733 units remaining)
    [ 7
      1 ]
  - location: 22 (remaining gas: 1039981.674 units remaining)
    [ 7 ]
  - location: 35 (remaining gas: 1039981.649 units remaining)
    [ 7
      { PUSH int 3 ;
        PAIR ;
        { PUSH int 4 ; PAIR ; { UNPAIR ; DIP { UNPAIR } ; ADD ; MUL } } } ]
  - location: 30 (remaining gas: 1039981.634 units remaining)
    [ 2
      { PUSH int 3 ;
        PAIR ;
        { PUSH int 4 ; PAIR ; { UNPAIR ; DIP { UNPAIR } ; ADD ; MUL } } } ]
  - location: 32 (remaining gas: 1039981.634 units remaining)
    [ { PUSH int 3 ;
        PAIR ;
        { PUSH int 4 ; PAIR ; { UNPAIR ; DIP { UNPAIR } ; ADD ; MUL } } } ]
  - location: 34 (remaining gas: 1039981.624 units remaining)
    [ { PUSH int 3 ;
        PAIR ;
        { PUSH int 4 ; PAIR ; { UNPAIR ; DIP { UNPAIR } ; ADD ; MUL } } }
      { PUSH int 3 ;
        PAIR ;
        { PUSH int 4 ; PAIR ; { UNPAIR ; DIP { UNPAIR } ; ADD ; MUL } } } ]
  - location: 32 (remaining gas: 1039981.599 units remaining)
    [ 2
      { PUSH int 3 ;
        PAIR ;
        { PUSH int 4 ; PAIR ; { UNPAIR ; DIP { UNPAIR } ; ADD ; MUL } } }
      { PUSH int 3 ;
        PAIR ;
        { PUSH int 4 ; PAIR ; { UNPAIR ; DIP { UNPAIR } ; ADD ; MUL } } } ]
  - location: 16 (remaining gas: 1039981.589 units remaining)
    [ 3
      2 ]
  - location: 16 (remaining gas: 1039981.579 units remaining)
    [ (Pair 3 2) ]
  - location: 16 (remaining gas: 1039981.569 units remaining)
    [ 4
      (Pair 3 2) ]
  - location: 16 (remaining gas: 1039981.559 units remaining)
    [ (Pair 4 3 2) ]
  - location: 17 (remaining gas: 1039981.549 units remaining)
    [ 4
      (Pair 3 2) ]
  - location: 18 (remaining gas: 1039981.549 units remaining)
    [ (Pair 3 2) ]
  - location: 20 (remaining gas: 1039981.539 units remaining)
    [ 3
      2 ]
  - location: 18 (remaining gas: 1039981.514 units remaining)
    [ 4
      3
      2 ]
  - location: 21 (remaining gas: 1039981.479 units remaining)
    [ 7
      2 ]
  - location: 22 (remaining gas: 1039981.420 units remaining)
    [ 14 ]
  - location: 35 (remaining gas: 1039981.395 units remaining)
    [ 14
      { PUSH int 3 ;
        PAIR ;
        { PUSH int 4 ; PAIR ; { UNPAIR ; DIP { UNPAIR } ; ADD ; MUL } } } ]
  - location: 30 (remaining gas: 1039981.380 units remaining)
    [ 3
      { PUSH int 3 ;
        PAIR ;
        { PUSH int 4 ; PAIR ; { UNPAIR ; DIP { UNPAIR } ; ADD ; MUL } } } ]
  - location: 32 (remaining gas: 1039981.380 units remaining)
    [ { PUSH int 3 ;
        PAIR ;
        { PUSH int 4 ; PAIR ; { UNPAIR ; DIP { UNPAIR } ; ADD ; MUL } } } ]
  - location: 34 (remaining gas: 1039981.370 units remaining)
    [ { PUSH int 3 ;
        PAIR ;
        { PUSH int 4 ; PAIR ; { UNPAIR ; DIP { UNPAIR } ; ADD ; MUL } } }
      { PUSH int 3 ;
        PAIR ;
        { PUSH int 4 ; PAIR ; { UNPAIR ; DIP { UNPAIR } ; ADD ; MUL } } } ]
  - location: 32 (remaining gas: 1039981.345 units remaining)
    [ 3
      { PUSH int 3 ;
        PAIR ;
        { PUSH int 4 ; PAIR ; { UNPAIR ; DIP { UNPAIR } ; ADD ; MUL } } }
      { PUSH int 3 ;
        PAIR ;
        { PUSH int 4 ; PAIR ; { UNPAIR ; DIP { UNPAIR } ; ADD ; MUL } } } ]
  - location: 16 (remaining gas: 1039981.335 units remaining)
    [ 3
      3 ]
  - location: 16 (remaining gas: 1039981.325 units remaining)
    [ (Pair 3 3) ]
  - location: 16 (remaining gas: 1039981.315 units remaining)
    [ 4
      (Pair 3 3) ]
  - location: 16 (remaining gas: 1039981.305 units remaining)
    [ (Pair 4 3 3) ]
  - location: 17 (remaining gas: 1039981.295 units remaining)
    [ 4
      (Pair 3 3) ]
  - location: 18 (remaining gas: 1039981.295 units remaining)
    [ (Pair 3 3) ]
  - location: 20 (remaining gas: 1039981.285 units remaining)
    [ 3
      3 ]
  - location: 18 (remaining gas: 1039981.260 units remaining)
    [ 4
      3
      3 ]
  - location: 21 (remaining gas: 1039981.225 units remaining)
    [ 7
      3 ]
  - location: 22 (remaining gas: 1039981.166 units remaining)
    [ 21 ]
  - location: 35 (remaining gas: 1039981.141 units remaining)
    [ 21
      { PUSH int 3 ;
        PAIR ;
        { PUSH int 4 ; PAIR ; { UNPAIR ; DIP { UNPAIR } ; ADD ; MUL } } } ]
  - location: 30 (remaining gas: 1039981.126 units remaining)
    [ { 0 ; 7 ; 14 ; 21 }
      { PUSH int 3 ;
        PAIR ;
        { PUSH int 4 ; PAIR ; { UNPAIR ; DIP { UNPAIR } ; ADD ; MUL } } } ]
  - location: 36 (remaining gas: 1039981.126 units remaining)
    [ { PUSH int 3 ;
        PAIR ;
        { PUSH int 4 ; PAIR ; { UNPAIR ; DIP { UNPAIR } ; ADD ; MUL } } } ]
  - location: 38 (remaining gas: 1039981.116 units remaining)
    [  ]
  - location: 36 (remaining gas: 1039981.091 units remaining)
    [ { 0 ; 7 ; 14 ; 21 } ]
  - location: 39 (remaining gas: 1039981.081 units remaining)
    [ {}
      { 0 ; 7 ; 14 ; 21 } ]
  - location: 41 (remaining gas: 1039981.071 units remaining)
    [ (Pair {} { 0 ; 7 ; 14 ; 21 }) ]

