
./octez-client --protocol PtLimaPtLMwfNinJi9rCfDPWea8dFgTZ1MeJ9f1m2SRic6ayiwW --mode mockup --no-base-dir-warnings run script tests_python/contracts_015/opcodes/unpair.tz on storage Unit and input Unit --level 1 --trace-stack
storage
  Unit
emitted operations
  
big_map diff
  
trace
  - location: 7 (remaining gas: 1039872.209 units remaining)
    [ (Pair Unit Unit) ]
  - location: 7 (remaining gas: 1039872.199 units remaining)
    [  ]
  - location: 8 (remaining gas: 1039872.189 units remaining)
    [ Unit ]
  - location: 9 (remaining gas: 1039872.179 units remaining)
    [ Unit
      Unit ]
  - location: 10 (remaining gas: 1039872.169 units remaining)
    [ (Pair Unit Unit) ]
  - location: 11 (remaining gas: 1039872.159 units remaining)
    [ Unit
      Unit ]
  - location: 12 (remaining gas: 1039872.124 units remaining)
    [  ]
  - location: 14 (remaining gas: 1039872.114 units remaining)
    [ Unit ]
  - location: 15 (remaining gas: 1039872.104 units remaining)
    [ Unit
      Unit ]
  - location: 16 (remaining gas: 1039872.094 units remaining)
    [ (Pair Unit Unit) ]
  - location: 17 (remaining gas: 1039872.084 units remaining)
    [ Unit
      Unit ]
  - location: 18 (remaining gas: 1039872.049 units remaining)
    [  ]
  - location: 20 (remaining gas: 1039872.039 units remaining)
    [ Unit ]
  - location: 21 (remaining gas: 1039872.029 units remaining)
    [ Unit
      Unit ]
  - location: 22 (remaining gas: 1039872.019 units remaining)
    [ (Pair Unit Unit) ]
  - location: 23 (remaining gas: 1039872.009 units remaining)
    [ (Pair Unit Unit)
      (Pair Unit Unit) ]
  - location: 24 (remaining gas: 1039871.999 units remaining)
    [ Unit
      Unit
      (Pair Unit Unit) ]
  - location: 25 (remaining gas: 1039871.964 units remaining)
    [ (Pair Unit Unit) ]
  - location: 27 (remaining gas: 1039871.954 units remaining)
    [ (Pair Unit Unit)
      (Pair Unit Unit) ]
  - location: 28 (remaining gas: 1039871.944 units remaining)
    [ Unit
      Unit
      (Pair Unit Unit) ]
  - location: 29 (remaining gas: 1039871.909 units remaining)
    [ (Pair Unit Unit) ]
  - location: 31 (remaining gas: 1039871.899 units remaining)
    [ (Pair Unit Unit)
      (Pair Unit Unit) ]
  - location: 32 (remaining gas: 1039871.889 units remaining)
    [ Unit
      Unit
      (Pair Unit Unit) ]
  - location: 33 (remaining gas: 1039871.854 units remaining)
    [ (Pair Unit Unit) ]
  - location: 35 (remaining gas: 1039871.844 units remaining)
    [ (Pair Unit Unit)
      (Pair Unit Unit) ]
  - location: 36 (remaining gas: 1039871.834 units remaining)
    [ Unit
      Unit
      (Pair Unit Unit) ]
  - location: 37 (remaining gas: 1039871.799 units remaining)
    [ (Pair Unit Unit) ]
  - location: 39 (remaining gas: 1039871.789 units remaining)
    [ (Pair Unit Unit)
      (Pair Unit Unit) ]
  - location: 40 (remaining gas: 1039871.779 units remaining)
    [ Unit
      Unit
      (Pair Unit Unit) ]
  - location: 41 (remaining gas: 1039871.744 units remaining)
    [ (Pair Unit Unit) ]
  - location: 43 (remaining gas: 1039871.734 units remaining)
    [ (Pair Unit Unit)
      (Pair Unit Unit) ]
  - location: 44 (remaining gas: 1039871.724 units remaining)
    [ Unit
      Unit
      (Pair Unit Unit) ]
  - location: 45 (remaining gas: 1039871.689 units remaining)
    [ (Pair Unit Unit) ]
  - location: 47 (remaining gas: 1039871.679 units remaining)
    [ (Pair Unit Unit)
      (Pair Unit Unit) ]
  - location: 48 (remaining gas: 1039871.669 units remaining)
    [ Unit
      Unit
      (Pair Unit Unit) ]
  - location: 49 (remaining gas: 1039871.634 units remaining)
    [ (Pair Unit Unit) ]
  - location: 51 (remaining gas: 1039871.624 units remaining)
    [ (Pair Unit Unit)
      (Pair Unit Unit) ]
  - location: 52 (remaining gas: 1039871.614 units remaining)
    [ Unit
      Unit
      (Pair Unit Unit) ]
  - location: 53 (remaining gas: 1039871.579 units remaining)
    [ (Pair Unit Unit) ]
  - location: 55 (remaining gas: 1039871.569 units remaining)
    [ (Pair Unit Unit)
      (Pair Unit Unit) ]
  - location: 56 (remaining gas: 1039871.559 units remaining)
    [ Unit
      Unit
      (Pair Unit Unit) ]
  - location: 57 (remaining gas: 1039871.524 units remaining)
    [ (Pair Unit Unit) ]
  - location: 59 (remaining gas: 1039871.514 units remaining)
    [ (Pair Unit Unit)
      (Pair Unit Unit) ]
  - location: 60 (remaining gas: 1039871.504 units remaining)
    [ Unit
      Unit
      (Pair Unit Unit) ]
  - location: 61 (remaining gas: 1039871.469 units remaining)
    [ (Pair Unit Unit) ]
  - location: 63 (remaining gas: 1039871.459 units remaining)
    [ (Pair Unit Unit)
      (Pair Unit Unit) ]
  - location: 64 (remaining gas: 1039871.449 units remaining)
    [ Unit
      Unit
      (Pair Unit Unit) ]
  - location: 65 (remaining gas: 1039871.414 units remaining)
    [ (Pair Unit Unit) ]
  - location: 67 (remaining gas: 1039871.404 units remaining)
    [ (Pair Unit Unit)
      (Pair Unit Unit) ]
  - location: 68 (remaining gas: 1039871.394 units remaining)
    [ Unit
      Unit
      (Pair Unit Unit) ]
  - location: 69 (remaining gas: 1039871.359 units remaining)
    [ (Pair Unit Unit) ]
  - location: 71 (remaining gas: 1039871.349 units remaining)
    [  ]
  - location: 72 (remaining gas: 1039871.339 units remaining)
    [ Unit ]
  - location: 73 (remaining gas: 1039871.329 units remaining)
    [ Unit
      Unit ]
  - location: 74 (remaining gas: 1039871.319 units remaining)
    [ (Pair Unit Unit) ]
  - location: 75 (remaining gas: 1039871.309 units remaining)
    [ (Pair Unit Unit)
      (Pair Unit Unit) ]
  - location: 76 (remaining gas: 1039871.299 units remaining)
    [ Unit
      Unit
      (Pair Unit Unit) ]
  - location: 77 (remaining gas: 1039871.264 units remaining)
    [ (Pair Unit Unit) ]
  - location: 79 (remaining gas: 1039871.254 units remaining)
    [ (Pair Unit Unit)
      (Pair Unit Unit) ]
  - location: 80 (remaining gas: 1039871.244 units remaining)
    [ Unit
      Unit
      (Pair Unit Unit) ]
  - location: 81 (remaining gas: 1039871.209 units remaining)
    [ (Pair Unit Unit) ]
  - location: 83 (remaining gas: 1039871.199 units remaining)
    [ (Pair Unit Unit)
      (Pair Unit Unit) ]
  - location: 84 (remaining gas: 1039871.189 units remaining)
    [ Unit
      Unit
      (Pair Unit Unit) ]
  - location: 85 (remaining gas: 1039871.154 units remaining)
    [ (Pair Unit Unit) ]
  - location: 87 (remaining gas: 1039871.144 units remaining)
    [ (Pair Unit Unit)
      (Pair Unit Unit) ]
  - location: 88 (remaining gas: 1039871.134 units remaining)
    [ Unit
      Unit
      (Pair Unit Unit) ]
  - location: 89 (remaining gas: 1039871.099 units remaining)
    [ (Pair Unit Unit) ]
  - location: 91 (remaining gas: 1039871.089 units remaining)
    [ (Pair Unit Unit)
      (Pair Unit Unit) ]
  - location: 92 (remaining gas: 1039871.079 units remaining)
    [ Unit
      Unit
      (Pair Unit Unit) ]
  - location: 93 (remaining gas: 1039871.044 units remaining)
    [ (Pair Unit Unit) ]
  - location: 95 (remaining gas: 1039871.034 units remaining)
    [ (Pair Unit Unit)
      (Pair Unit Unit) ]
  - location: 96 (remaining gas: 1039871.024 units remaining)
    [ Unit
      Unit
      (Pair Unit Unit) ]
  - location: 97 (remaining gas: 1039870.989 units remaining)
    [ (Pair Unit Unit) ]
  - location: 99 (remaining gas: 1039870.979 units remaining)
    [ (Pair Unit Unit)
      (Pair Unit Unit) ]
  - location: 100 (remaining gas: 1039870.969 units remaining)
    [ Unit
      Unit
      (Pair Unit Unit) ]
  - location: 101 (remaining gas: 1039870.934 units remaining)
    [ (Pair Unit Unit) ]
  - location: 103 (remaining gas: 1039870.924 units remaining)
    [ (Pair Unit Unit)
      (Pair Unit Unit) ]
  - location: 104 (remaining gas: 1039870.914 units remaining)
    [ Unit
      Unit
      (Pair Unit Unit) ]
  - location: 105 (remaining gas: 1039870.879 units remaining)
    [ (Pair Unit Unit) ]
  - location: 107 (remaining gas: 1039870.869 units remaining)
    [ (Pair Unit Unit)
      (Pair Unit Unit) ]
  - location: 108 (remaining gas: 1039870.859 units remaining)
    [ Unit
      Unit
      (Pair Unit Unit) ]
  - location: 109 (remaining gas: 1039870.824 units remaining)
    [ (Pair Unit Unit) ]
  - location: 111 (remaining gas: 1039870.814 units remaining)
    [ (Pair Unit Unit)
      (Pair Unit Unit) ]
  - location: 112 (remaining gas: 1039870.804 units remaining)
    [ Unit
      Unit
      (Pair Unit Unit) ]
  - location: 113 (remaining gas: 1039870.769 units remaining)
    [ (Pair Unit Unit) ]
  - location: 115 (remaining gas: 1039870.759 units remaining)
    [ (Pair Unit Unit)
      (Pair Unit Unit) ]
  - location: 116 (remaining gas: 1039870.749 units remaining)
    [ Unit
      Unit
      (Pair Unit Unit) ]
  - location: 117 (remaining gas: 1039870.714 units remaining)
    [ (Pair Unit Unit) ]
  - location: 119 (remaining gas: 1039870.704 units remaining)
    [ (Pair Unit Unit)
      (Pair Unit Unit) ]
  - location: 120 (remaining gas: 1039870.694 units remaining)
    [ Unit
      Unit
      (Pair Unit Unit) ]
  - location: 121 (remaining gas: 1039870.659 units remaining)
    [ (Pair Unit Unit) ]
  - location: 123 (remaining gas: 1039870.649 units remaining)
    [  ]
  - location: 124 (remaining gas: 1039870.639 units remaining)
    [ Unit ]
  - location: 125 (remaining gas: 1039870.629 units remaining)
    [ Unit
      Unit ]
  - location: 126 (remaining gas: 1039870.619 units remaining)
    [ (Pair Unit Unit) ]
  - location: 127 (remaining gas: 1039870.609 units remaining)
    [ (Pair Unit Unit)
      (Pair Unit Unit) ]
  - location: 128 (remaining gas: 1039870.599 units remaining)
    [ Unit
      Unit
      (Pair Unit Unit) ]
  - location: 129 (remaining gas: 1039870.564 units remaining)
    [ (Pair Unit Unit) ]
  - location: 131 (remaining gas: 1039870.554 units remaining)
    [ (Pair Unit Unit)
      (Pair Unit Unit) ]
  - location: 132 (remaining gas: 1039870.544 units remaining)
    [ Unit
      Unit
      (Pair Unit Unit) ]
  - location: 133 (remaining gas: 1039870.509 units remaining)
    [ (Pair Unit Unit) ]
  - location: 135 (remaining gas: 1039870.499 units remaining)
    [ (Pair Unit Unit)
      (Pair Unit Unit) ]
  - location: 136 (remaining gas: 1039870.489 units remaining)
    [ Unit
      Unit
      (Pair Unit Unit) ]
  - location: 137 (remaining gas: 1039870.454 units remaining)
    [ (Pair Unit Unit) ]
  - location: 139 (remaining gas: 1039870.444 units remaining)
    [ (Pair Unit Unit)
      (Pair Unit Unit) ]
  - location: 140 (remaining gas: 1039870.434 units remaining)
    [ Unit
      Unit
      (Pair Unit Unit) ]
  - location: 141 (remaining gas: 1039870.399 units remaining)
    [ (Pair Unit Unit) ]
  - location: 143 (remaining gas: 1039870.389 units remaining)
    [ (Pair Unit Unit)
      (Pair Unit Unit) ]
  - location: 144 (remaining gas: 1039870.379 units remaining)
    [ Unit
      Unit
      (Pair Unit Unit) ]
  - location: 145 (remaining gas: 1039870.344 units remaining)
    [ (Pair Unit Unit) ]
  - location: 147 (remaining gas: 1039870.334 units remaining)
    [ (Pair Unit Unit)
      (Pair Unit Unit) ]
  - location: 148 (remaining gas: 1039870.324 units remaining)
    [ Unit
      Unit
      (Pair Unit Unit) ]
  - location: 149 (remaining gas: 1039870.289 units remaining)
    [ (Pair Unit Unit) ]
  - location: 151 (remaining gas: 1039870.279 units remaining)
    [ (Pair Unit Unit)
      (Pair Unit Unit) ]
  - location: 152 (remaining gas: 1039870.269 units remaining)
    [ Unit
      Unit
      (Pair Unit Unit) ]
  - location: 153 (remaining gas: 1039870.234 units remaining)
    [ (Pair Unit Unit) ]
  - location: 155 (remaining gas: 1039870.224 units remaining)
    [ (Pair Unit Unit)
      (Pair Unit Unit) ]
  - location: 156 (remaining gas: 1039870.214 units remaining)
    [ Unit
      Unit
      (Pair Unit Unit) ]
  - location: 157 (remaining gas: 1039870.179 units remaining)
    [ (Pair Unit Unit) ]
  - location: 159 (remaining gas: 1039870.169 units remaining)
    [ (Pair Unit Unit)
      (Pair Unit Unit) ]
  - location: 160 (remaining gas: 1039870.159 units remaining)
    [ Unit
      Unit
      (Pair Unit Unit) ]
  - location: 161 (remaining gas: 1039870.124 units remaining)
    [ (Pair Unit Unit) ]
  - location: 163 (remaining gas: 1039870.114 units remaining)
    [ (Pair Unit Unit)
      (Pair Unit Unit) ]
  - location: 164 (remaining gas: 1039870.104 units remaining)
    [ Unit
      Unit
      (Pair Unit Unit) ]
  - location: 165 (remaining gas: 1039870.069 units remaining)
    [ (Pair Unit Unit) ]
  - location: 167 (remaining gas: 1039870.059 units remaining)
    [ (Pair Unit Unit)
      (Pair Unit Unit) ]
  - location: 168 (remaining gas: 1039870.049 units remaining)
    [ Unit
      Unit
      (Pair Unit Unit) ]
  - location: 169 (remaining gas: 1039870.014 units remaining)
    [ (Pair Unit Unit) ]
  - location: 171 (remaining gas: 1039870.004 units remaining)
    [ (Pair Unit Unit)
      (Pair Unit Unit) ]
  - location: 172 (remaining gas: 1039869.994 units remaining)
    [ Unit
      Unit
      (Pair Unit Unit) ]
  - location: 173 (remaining gas: 1039869.959 units remaining)
    [ (Pair Unit Unit) ]
  - location: 175 (remaining gas: 1039869.949 units remaining)
    [  ]
  - location: 176 (remaining gas: 1039869.939 units remaining)
    [ Unit ]
  - location: 177 (remaining gas: 1039869.929 units remaining)
    [ Unit
      Unit ]
  - location: 178 (remaining gas: 1039869.919 units remaining)
    [ (Pair Unit Unit) ]
  - location: 179 (remaining gas: 1039869.909 units remaining)
    [ (Pair Unit Unit)
      (Pair Unit Unit) ]
  - location: 180 (remaining gas: 1039869.899 units remaining)
    [ Unit
      Unit
      (Pair Unit Unit) ]
  - location: 181 (remaining gas: 1039869.864 units remaining)
    [ (Pair Unit Unit) ]
  - location: 183 (remaining gas: 1039869.854 units remaining)
    [ (Pair Unit Unit)
      (Pair Unit Unit) ]
  - location: 184 (remaining gas: 1039869.844 units remaining)
    [ Unit
      Unit
      (Pair Unit Unit) ]
  - location: 185 (remaining gas: 1039869.809 units remaining)
    [ (Pair Unit Unit) ]
  - location: 187 (remaining gas: 1039869.799 units remaining)
    [ (Pair Unit Unit)
      (Pair Unit Unit) ]
  - location: 188 (remaining gas: 1039869.789 units remaining)
    [ Unit
      Unit
      (Pair Unit Unit) ]
  - location: 189 (remaining gas: 1039869.754 units remaining)
    [ (Pair Unit Unit) ]
  - location: 191 (remaining gas: 1039869.744 units remaining)
    [ (Pair Unit Unit)
      (Pair Unit Unit) ]
  - location: 192 (remaining gas: 1039869.734 units remaining)
    [ Unit
      Unit
      (Pair Unit Unit) ]
  - location: 193 (remaining gas: 1039869.699 units remaining)
    [ (Pair Unit Unit) ]
  - location: 195 (remaining gas: 1039869.689 units remaining)
    [ (Pair Unit Unit)
      (Pair Unit Unit) ]
  - location: 196 (remaining gas: 1039869.679 units remaining)
    [ Unit
      Unit
      (Pair Unit Unit) ]
  - location: 197 (remaining gas: 1039869.644 units remaining)
    [ (Pair Unit Unit) ]
  - location: 199 (remaining gas: 1039869.634 units remaining)
    [  ]
  - location: 200 (remaining gas: 1039869.624 units remaining)
    [ Unit ]
  - location: 201 (remaining gas: 1039869.614 units remaining)
    [ Unit
      Unit ]
  - location: 202 (remaining gas: 1039869.604 units remaining)
    [ (Pair Unit Unit) ]
  - location: 203 (remaining gas: 1039869.594 units remaining)
    [ Unit
      Unit ]
  - location: 204 (remaining gas: 1039869.559 units remaining)
    [  ]
  - location: 206 (remaining gas: 1039869.549 units remaining)
    [ Unit ]
  - location: 207 (remaining gas: 1039869.539 units remaining)
    [ {}
      Unit ]
  - location: 209 (remaining gas: 1039869.529 units remaining)
    [ (Pair {} Unit) ]

