
./octez-client --protocol PtLimaPtLMwfNinJi9rCfDPWea8dFgTZ1MeJ9f1m2SRic6ayiwW --mode mockup --no-base-dir-warnings run script tests_python/contracts_015/opcodes/voting_power.tz on storage '(Pair 0 0)' and input '"edpkuBknW28nW72KG6RoHtYW7p12T6GKc7nAbwYX5m8Wd9sDVC9yav"' --level 1 --trace-stack
storage
  (Pair 4000000000000 20000000000000)
emitted operations
  
big_map diff
  
trace
  - location: 9 (remaining gas: 1039667.653 units remaining)
    [ (Pair "edpkuBknW28nW72KG6RoHtYW7p12T6GKc7nAbwYX5m8Wd9sDVC9yav" 0 0) ]
  - location: 9 (remaining gas: 1039667.643 units remaining)
    [ "edpkuBknW28nW72KG6RoHtYW7p12T6GKc7nAbwYX5m8Wd9sDVC9yav" ]
  - location: 10 (remaining gas: 1039667.038 units remaining)
    [ "tz1KqTpEZ7Yob7QbPE4Hy4Wo8fHG8LhKxZSx" ]
  - location: 11 (remaining gas: 1039446.382 units remaining)
    [ 4000000000000 ]
  - location: 12 (remaining gas: 1039446.382 units remaining)
    [  ]
  - location: 14 (remaining gas: 1039235.916 units remaining)
    [ 20000000000000 ]
  - location: 12 (remaining gas: 1039235.891 units remaining)
    [ 4000000000000
      20000000000000 ]
  - location: 15 (remaining gas: 1039235.881 units remaining)
    [ (Pair 4000000000000 20000000000000) ]
  - location: 16 (remaining gas: 1039235.871 units remaining)
    [ {}
      (Pair 4000000000000 20000000000000) ]
  - location: 18 (remaining gas: 1039235.861 units remaining)
    [ (Pair {} 4000000000000 20000000000000) ]

