
./octez-client --protocol PtLimaPtLMwfNinJi9rCfDPWea8dFgTZ1MeJ9f1m2SRic6ayiwW --mode mockup --no-base-dir-warnings run script tests_python/contracts_015/opcodes/mutez_to_bls12_381_fr.tz on storage 0x00 and input 257 --level 1 --trace-stack
storage
  0x0101000000000000000000000000000000000000000000000000000000000000
emitted operations
  
big_map diff
  
trace
  - location: 7 (remaining gas: 1039989.053 units remaining)
    [ (Pair 257 0x0000000000000000000000000000000000000000000000000000000000000000) ]
  - location: 7 (remaining gas: 1039989.043 units remaining)
    [ 257 ]
  - location: 8 (remaining gas: 1039989.033 units remaining)
    [ 1
      257 ]
  - location: 11 (remaining gas: 1039989.023 units remaining)
    [ 257
      1 ]
  - location: 12 (remaining gas: 1039988.943 units remaining)
    [ (Some (Pair 257 0)) ]
  - location: 14 (remaining gas: 1039988.943 units remaining)
    [ (Pair 257 0) ]
  - location: 14 (remaining gas: 1039988.928 units remaining)
    [ (Pair 257 0) ]
  - location: 20 (remaining gas: 1039988.918 units remaining)
    [ 257 ]
  - location: 21 (remaining gas: 1039988.908 units remaining)
    [ 0x0100000000000000000000000000000000000000000000000000000000000000
      257 ]
  - location: 24 (remaining gas: 1039988.641 units remaining)
    [ 0x0101000000000000000000000000000000000000000000000000000000000000 ]
  - location: 25 (remaining gas: 1039988.631 units remaining)
    [ {}
      0x0101000000000000000000000000000000000000000000000000000000000000 ]
  - location: 27 (remaining gas: 1039988.621 units remaining)
    [ (Pair {} 0x0101000000000000000000000000000000000000000000000000000000000000) ]

