
./octez-client --protocol PtMumbaiiFFEGbew1rRjzSPyzRbA51Tm3RVZL5suHPxSZYDhCEc --mode mockup --no-base-dir-warnings run script tests_python/contracts_016/opcodes/if_some.tz on storage '"?"' and input None --level 1 --trace-stack
storage
  ""
emitted operations
  
big_map diff
  
trace
  - location: 8 (just consumed gas: 6.255)
    [ (Pair None "?") ]
  - location: 8 (just consumed gas: 0.010)
    [ None ]
  - location: 10 (just consumed gas: 0)
    [  ]
  - location: 12 (just consumed gas: 0.010)
    [ "" ]
  - location: 10 (just consumed gas: 0.015)
    [ "" ]
  - location: 16 (just consumed gas: 0.010)
    [ {}
      "" ]
  - location: 18 (just consumed gas: 0.010)
    [ (Pair {} "") ]

