
./octez-client --protocol PtMumbaiiFFEGbew1rRjzSPyzRbA51Tm3RVZL5suHPxSZYDhCEc --mode mockup --no-base-dir-warnings run script tests_python/contracts_016/opcodes/get_and_update_map.tz on storage '(Pair None { Elt "1" 1 ; Elt "2" 2 })' and input '"1"' --level 1 --trace-stack
storage
  (Pair (Some 1) { Elt "2" 2 })
emitted operations
  
big_map diff
  
trace
  - location: 13 (just consumed gas: 8.588)
    [ (Pair "1" None { Elt "1" 1 ; Elt "2" 2 }) ]
  - location: 13 (just consumed gas: 0.010)
    [ "1"
      (Pair None { Elt "1" 1 ; Elt "2" 2 }) ]
  - location: 14 (just consumed gas: 0)
    [ (Pair None { Elt "1" 1 ; Elt "2" 2 }) ]
  - location: 16 (just consumed gas: 0.010)
    [ None
      { Elt "1" 1 ; Elt "2" 2 } ]
  - location: 14 (just consumed gas: 0.025)
    [ "1"
      None
      { Elt "1" 1 ; Elt "2" 2 } ]
  - location: 17 (just consumed gas: 0.089)
    [ (Some 1)
      { Elt "2" 2 } ]
  - location: 18 (just consumed gas: 0.010)
    [ (Pair (Some 1) { Elt "2" 2 }) ]
  - location: 19 (just consumed gas: 0.010)
    [ {}
      (Pair (Some 1) { Elt "2" 2 }) ]
  - location: 21 (just consumed gas: 0.010)
    [ (Pair {} (Some 1) { Elt "2" 2 }) ]

