
./octez-client --protocol PtMumbaiiFFEGbew1rRjzSPyzRbA51Tm3RVZL5suHPxSZYDhCEc --mode mockup --no-base-dir-warnings run script tests_python/contracts_016/opcodes/shifts.tz on storage None and input '(Right (Pair 0 1))' --level 1 --trace-stack
storage
  (Some 0)
emitted operations
  
big_map diff
  
trace
  - location: 14 (just consumed gas: 8.811)
    [ (Pair (Right (Pair 0 1)) None) ]
  - location: 14 (just consumed gas: 0.010)
    [ (Right (Pair 0 1)) ]
  - location: 15 (just consumed gas: 0)
    [ (Pair 0 1) ]
  - location: 20 (just consumed gas: 0.010)
    [ 0
      1 ]
  - location: 21 (just consumed gas: 0)
    [ 0 ]
  - location: 15 (just consumed gas: 0.015)
    [ 0 ]
  - location: 22 (just consumed gas: 0.010)
    [ (Some 0) ]
  - location: 23 (just consumed gas: 0.010)
    [ {}
      (Some 0) ]
  - location: 25 (just consumed gas: 0.010)
    [ (Pair {} (Some 0)) ]

