
./octez-client --protocol PtMumbaiiFFEGbew1rRjzSPyzRbA51Tm3RVZL5suHPxSZYDhCEc --mode mockup --no-base-dir-warnings run script tests_python/contracts_016/opcodes/pair_id.tz on storage None and input '(Pair True True)' --level 1 --trace-stack
storage
  (Some (Pair True True))
emitted operations
  
big_map diff
  
trace
  - location: 12 (just consumed gas: 5.501)
    [ (Pair (Pair True True) None) ]
  - location: 12 (just consumed gas: 0.010)
    [ (Pair True True) ]
  - location: 13 (just consumed gas: 0.010)
    [ (Some (Pair True True)) ]
  - location: 14 (just consumed gas: 0.010)
    [ {}
      (Some (Pair True True)) ]
  - location: 16 (just consumed gas: 0.010)
    [ (Pair {} (Some (Pair True True))) ]

