
./octez-client --protocol PtMumbaiiFFEGbew1rRjzSPyzRbA51Tm3RVZL5suHPxSZYDhCEc --mode mockup --no-base-dir-warnings run script tests_python/contracts_016/opcodes/first.tz on storage 111 and input '{ 4 }' --level 1 --trace-stack
storage
  4
emitted operations
  
big_map diff
  
trace
  - location: 8 (just consumed gas: 7.522)
    [ (Pair { 4 } 111) ]
  - location: 8 (just consumed gas: 0.010)
    [ { 4 } ]
  - location: 9 (just consumed gas: 0)
    [ 4
      {} ]
  - location: 11 (just consumed gas: 0)
    [ {} ]
  - location: 13 (just consumed gas: 0.010)
    [  ]
  - location: 11 (just consumed gas: 0.025)
    [ 4 ]
  - location: 9 (just consumed gas: 0.015)
    [ 4 ]
  - location: 18 (just consumed gas: 0.010)
    [ {}
      4 ]
  - location: 20 (just consumed gas: 0.010)
    [ (Pair {} 4) ]

