
./octez-client --protocol PtMumbaiiFFEGbew1rRjzSPyzRbA51Tm3RVZL5suHPxSZYDhCEc --mode mockup --no-base-dir-warnings run script tests_python/contracts_016/opcodes/xor.tz on storage None and input 'Left (Pair True False)' --level 1 --trace-stack
storage
  (Some (Left True))
emitted operations
  
big_map diff
  
trace
  - location: 16 (just consumed gas: 11.026)
    [ (Pair (Left (Pair True False)) None) ]
  - location: 16 (just consumed gas: 0.010)
    [ (Left (Pair True False)) ]
  - location: 17 (just consumed gas: 0)
    [ (Pair True False) ]
  - location: 19 (just consumed gas: 0.010)
    [ True
      False ]
  - location: 20 (just consumed gas: 0.015)
    [ True ]
  - location: 21 (just consumed gas: 0.010)
    [ (Left True) ]
  - location: 17 (just consumed gas: 0.015)
    [ (Left True) ]
  - location: 28 (just consumed gas: 0.010)
    [ (Some (Left True)) ]
  - location: 29 (just consumed gas: 0.010)
    [ {}
      (Some (Left True)) ]
  - location: 31 (just consumed gas: 0.010)
    [ (Pair {} (Some (Left True))) ]

