
./octez-client --protocol PtMumbaiiFFEGbew1rRjzSPyzRbA51Tm3RVZL5suHPxSZYDhCEc --mode mockup --no-base-dir-warnings run script tests_python/contracts_016/opcodes/not_binary.tz on storage None and input '(Left 8)' --level 1 --trace-stack
storage
  (Some -9)
emitted operations
  
big_map diff
  
trace
  - location: 10 (just consumed gas: 6.965)
    [ (Pair (Left 8) None) ]
  - location: 10 (just consumed gas: 0.010)
    [ (Left 8) ]
  - location: 11 (just consumed gas: 0)
    [ 8 ]
  - location: 13 (just consumed gas: 0.025)
    [ -9 ]
  - location: 11 (just consumed gas: 0.015)
    [ -9 ]
  - location: 16 (just consumed gas: 0.010)
    [ (Some -9) ]
  - location: 17 (just consumed gas: 0.010)
    [ {}
      (Some -9) ]
  - location: 19 (just consumed gas: 0.010)
    [ (Pair {} (Some -9)) ]

