
./octez-client --protocol PtMumbaiiFFEGbew1rRjzSPyzRbA51Tm3RVZL5suHPxSZYDhCEc --mode mockup --no-base-dir-warnings run script tests_python/contracts_016/opcodes/bls12_381_fr_z_int.tz on storage 0x0100000000000000000000000000000000000000000000000000000000000000 and input 2 --level 1 --trace-stack
storage
  0x0200000000000000000000000000000000000000000000000000000000000000
emitted operations
  
big_map diff
  
trace
  - location: 7 (just consumed gas: 4.387)
    [ (Pair 2 0x0100000000000000000000000000000000000000000000000000000000000000) ]
  - location: 7 (just consumed gas: 0.010)
    [ 2
      0x0100000000000000000000000000000000000000000000000000000000000000 ]
  - location: 8 (just consumed gas: 0.266)
    [ 0x0200000000000000000000000000000000000000000000000000000000000000 ]
  - location: 9 (just consumed gas: 0.010)
    [ {}
      0x0200000000000000000000000000000000000000000000000000000000000000 ]
  - location: 11 (just consumed gas: 0.010)
    [ (Pair {} 0x0200000000000000000000000000000000000000000000000000000000000000) ]

