
./octez-client --protocol PtMumbaiiFFEGbew1rRjzSPyzRbA51Tm3RVZL5suHPxSZYDhCEc --mode mockup --no-base-dir-warnings run script tests_python/contracts_016/opcodes/abs.tz on storage Unit and input 948 --level 1 --trace-stack
storage
  Unit
emitted operations
  
big_map diff
  
trace
  - location: 7 (just consumed gas: 10.211)
    [ (Pair 948 Unit) ]
  - location: 7 (just consumed gas: 0.010)
    [ 948 ]
  - location: 8 (just consumed gas: 0.010)
    [ 948
      948 ]
  - location: 9 (just consumed gas: 0.026)
    [ -948
      948 ]
  - location: 10 (just consumed gas: 0.021)
    [ 948
      948 ]
  - location: 11 (just consumed gas: 0.035)
    [ 0 ]
  - location: 13 (just consumed gas: 0.010)
    [ True ]
  - location: 14 (just consumed gas: 0)
    [  ]
  - location: 14 (just consumed gas: 0.015)
    [  ]
  - location: 20 (just consumed gas: 0.010)
    [ Unit ]
  - location: 21 (just consumed gas: 0.010)
    [ {}
      Unit ]
  - location: 23 (just consumed gas: 0.010)
    [ (Pair {} Unit) ]

