
./octez-client --protocol PtMumbaiiFFEGbew1rRjzSPyzRbA51Tm3RVZL5suHPxSZYDhCEc --mode mockup --no-base-dir-warnings run script tests_python/contracts_016/opcodes/list_concat.tz on storage '"abc"' and input '{}' --level 1 --trace-stack
storage
  "abc"
emitted operations
  
big_map diff
  
trace
  - location: 8 (just consumed gas: 5.605)
    [ (Pair {} "abc") ]
  - location: 8 (just consumed gas: 0.010)
    [ {}
      "abc" ]
  - location: 9 (just consumed gas: 0.010)
    [ "abc"
      {} ]
  - location: 10 (just consumed gas: 0.010)
    [ { "abc" } ]
  - location: 11 (just consumed gas: 0.111)
    [ "abc" ]
  - location: 12 (just consumed gas: 0.010)
    [ {}
      "abc" ]
  - location: 14 (just consumed gas: 0.010)
    [ (Pair {} "abc") ]

